Actually entered program!
Running with size: 1250, Trials: 310, OutputFile: 1250.2.eigen, Appending?: 0

------------------------------------------------------------
Sender: LSF System <lsfadmin@c28b09>
Subject: Job 7737018: <s.1250.2> in cluster <umghpcc> Done

Job <s.1250.2> was submitted from host <ghpcc06> by user <yh58b> in cluster <umghpcc> at Mon Jul 15 13:25:32 2019.
Job was executed on host(s) <c28b09>, in queue <short>, as user <yh58b> in cluster <umghpcc> at Mon Jul 15 13:25:33 2019.
</home/yh58b> was used as the home directory.
</home/yh58b/RMT/1250.singly> was used as the working directory.
Started at Mon Jul 15 13:25:33 2019.
Terminated at Mon Jul 15 13:58:15 2019.
Results reported at Mon Jul 15 13:58:15 2019.

Your job looked like:

------------------------------------------------------------
# LSBATCH: User input
./eigen.exec 1250.pf 1250.2.eigen
------------------------------------------------------------

Successfully completed.

Resource usage summary:

    CPU time :                                   1959.02 sec.
    Max Memory :                                 24 MB
    Average Memory :                             24.00 MB
    Total Requested Memory :                     512.00 MB
    Delta Memory :                               488.00 MB
    Max Swap :                                   -
    Max Processes :                              3
    Max Threads :                                4
    Run time :                                   1962 sec.
    Turnaround time :                            1963 sec.

The output (if any) is above this job summary.



PS:

Read file <1250.2.error> for stderr output of this job.

