Actually entered program!
Running with size: 1250, Trials: 50, OutputFile: 1250.stray.eigen, Appending?: 0

------------------------------------------------------------
Sender: LSF System <lsfadmin@c24b13>
Subject: Job 7737022: <s.1250.stray> in cluster <umghpcc> Done

Job <s.1250.stray> was submitted from host <ghpcc06> by user <yh58b> in cluster <umghpcc> at Mon Jul 15 13:25:32 2019.
Job was executed on host(s) <c24b13>, in queue <short>, as user <yh58b> in cluster <umghpcc> at Mon Jul 15 13:25:03 2019.
</home/yh58b> was used as the home directory.
</home/yh58b/RMT/1250.singly> was used as the working directory.
Started at Mon Jul 15 13:25:03 2019.
Terminated at Mon Jul 15 13:29:59 2019.
Results reported at Mon Jul 15 13:29:59 2019.

Your job looked like:

------------------------------------------------------------
# LSBATCH: User input
./eigen.exec 1250.stray.pf 1250.stray.eigen
------------------------------------------------------------

Successfully completed.

Resource usage summary:

    CPU time :                                   294.62 sec.
    Max Memory :                                 23 MB
    Average Memory :                             22.70 MB
    Total Requested Memory :                     512.00 MB
    Delta Memory :                               489.00 MB
    Max Swap :                                   -
    Max Processes :                              3
    Max Threads :                                4
    Run time :                                   296 sec.
    Turnaround time :                            267 sec.

The output (if any) is above this job summary.



PS:

Read file <1250.stray.error> for stderr output of this job.

