Actually entered program!
Running with size: 3900, Trials: 9, OutputFile: 3900.23.eigen, Appending?: 0

------------------------------------------------------------
Sender: LSF System <lsfadmin@c37b15>
Subject: Job 7738579: <s.3900.23> in cluster <umghpcc> Done

Job <s.3900.23> was submitted from host <ghpcc06> by user <yh58b> in cluster <umghpcc> at Mon Jul 15 13:27:31 2019.
Job was executed on host(s) <c37b15>, in queue <short>, as user <yh58b> in cluster <umghpcc> at Mon Jul 15 14:48:46 2019.
</home/yh58b> was used as the home directory.
</home/yh58b/RMT/3900.singly> was used as the working directory.
Started at Mon Jul 15 14:48:46 2019.
Terminated at Mon Jul 15 15:08:23 2019.
Results reported at Mon Jul 15 15:08:23 2019.

Your job looked like:

------------------------------------------------------------
# LSBATCH: User input
./eigen.exec 3900.pf 3900.23.eigen
------------------------------------------------------------

Successfully completed.

Resource usage summary:

    CPU time :                                   1174.81 sec.
    Max Memory :                                 129 MB
    Average Memory :                             128.06 MB
    Total Requested Memory :                     512.00 MB
    Delta Memory :                               383.00 MB
    Max Swap :                                   -
    Max Processes :                              3
    Max Threads :                                4
    Run time :                                   1177 sec.
    Turnaround time :                            6052 sec.

The output (if any) is above this job summary.



PS:

Read file <3900.23.error> for stderr output of this job.

