Actually entered program!

------------------------------------------------------------
Sender: LSF System <lsfadmin@c06b02>
Subject: Job 7738590: <s.3900.34> in cluster <umghpcc> Exited

Job <s.3900.34> was submitted from host <ghpcc06> by user <yh58b> in cluster <umghpcc> at Mon Jul 15 13:27:32 2019.
Job was executed on host(s) <c06b02>, in queue <short>, as user <yh58b> in cluster <umghpcc> at Mon Jul 15 14:49:08 2019.
</home/yh58b> was used as the home directory.
</home/yh58b/RMT/3900.singly> was used as the working directory.
Started at Mon Jul 15 14:49:08 2019.
Terminated at Mon Jul 15 15:49:16 2019.
Results reported at Mon Jul 15 15:49:16 2019.

Your job looked like:

------------------------------------------------------------
# LSBATCH: User input
./eigen.exec 3900.pf 3900.34.eigen
------------------------------------------------------------

TERM_RUNLIMIT: job killed after reaching LSF run time limit.
Exited with exit code 140.

Resource usage summary:

    CPU time :                                   2687.02 sec.
    Max Memory :                                 128 MB
    Average Memory :                             127.74 MB
    Total Requested Memory :                     512.00 MB
    Delta Memory :                               384.00 MB
    Max Swap :                                   -
    Max Processes :                              3
    Max Threads :                                4
    Run time :                                   3608 sec.
    Turnaround time :                            8504 sec.

The output (if any) is above this job summary.



PS:

Read file <3900.34.error> for stderr output of this job.

