Actually entered program!
Running with size: 2750, Trials: 29, OutputFile: 2750.10.eigen, Appending?: 0

------------------------------------------------------------
Sender: LSF System <lsfadmin@c30b06>
Subject: Job 7846460: <s.2750.10> in cluster <umghpcc> Done

Job <s.2750.10> was submitted from host <ghpcc06> by user <yh58b> in cluster <umghpcc> at Tue Jul 16 15:35:53 2019.
Job was executed on host(s) <c30b06>, in queue <long>, as user <yh58b> in cluster <umghpcc> at Tue Jul 16 18:39:15 2019.
</home/yh58b> was used as the home directory.
</home/yh58b/RMT/2750.singly> was used as the working directory.
Started at Tue Jul 16 18:39:15 2019.
Terminated at Tue Jul 16 19:48:19 2019.
Results reported at Tue Jul 16 19:48:19 2019.

Your job looked like:

------------------------------------------------------------
# LSBATCH: User input
./eigen.exec 2750.pf 2750.10.eigen
------------------------------------------------------------

Successfully completed.

Resource usage summary:

    CPU time :                                   4142.00 sec.
    Max Memory :                                 69 MB
    Average Memory :                             68.53 MB
    Total Requested Memory :                     256.00 MB
    Delta Memory :                               187.00 MB
    Max Swap :                                   -
    Max Processes :                              3
    Max Threads :                                4
    Run time :                                   4144 sec.
    Turnaround time :                            15146 sec.

The output (if any) is above this job summary.



PS:

Read file <2750.10.error> for stderr output of this job.

