Actually entered program!
Running with size: 4800, Trials: 5, OutputFile: 4800.79.eigen, Appending?: 0

------------------------------------------------------------
Sender: LSF System <lsfadmin@c07b05>
Subject: Job 7740257: <s.4800.79> in cluster <umghpcc> Done

Job <s.4800.79> was submitted from host <ghpcc06> by user <yh58b> in cluster <umghpcc> at Mon Jul 15 13:29:37 2019.
Job was executed on host(s) <c07b05>, in queue <short>, as user <yh58b> in cluster <umghpcc> at Mon Jul 15 16:27:08 2019.
</home/yh58b> was used as the home directory.
</home/yh58b/RMT/4800.singly> was used as the working directory.
Started at Mon Jul 15 16:27:08 2019.
Terminated at Mon Jul 15 17:23:53 2019.
Results reported at Mon Jul 15 17:23:53 2019.

Your job looked like:

------------------------------------------------------------
# LSBATCH: User input
./eigen.exec 4800.pf 4800.79.eigen
------------------------------------------------------------

Successfully completed.

Resource usage summary:

    CPU time :                                   3403.34 sec.
    Max Memory :                                 188 MB
    Average Memory :                             186.50 MB
    Total Requested Memory :                     512.00 MB
    Delta Memory :                               324.00 MB
    Max Swap :                                   -
    Max Processes :                              3
    Max Threads :                                4
    Run time :                                   3404 sec.
    Turnaround time :                            14056 sec.

The output (if any) is above this job summary.



PS:

Read file <4800.79.error> for stderr output of this job.

