Actually entered program!

------------------------------------------------------------
Sender: LSF System <lsfadmin@c23b05>
Subject: Job 7740801: <d.1550.9> in cluster <umghpcc> Exited

Job <d.1550.9> was submitted from host <ghpcc06> by user <yh58b> in cluster <umghpcc> at Mon Jul 15 13:30:18 2019.
Job was executed on host(s) <c23b05>, in queue <short>, as user <yh58b> in cluster <umghpcc> at Mon Jul 15 17:13:55 2019.
</home/yh58b> was used as the home directory.
</home/yh58b/RMT/1550.doubly> was used as the working directory.
Started at Mon Jul 15 17:13:55 2019.
Terminated at Mon Jul 15 18:14:02 2019.
Results reported at Mon Jul 15 18:14:02 2019.

Your job looked like:

------------------------------------------------------------
# LSBATCH: User input
./eigen.exec 1550.pf 1550.9.eigen
------------------------------------------------------------

TERM_RUNLIMIT: job killed after reaching LSF run time limit.
Exited with exit code 140.

Resource usage summary:

    CPU time :                                   3606.00 sec.
    Max Memory :                                 29 MB
    Average Memory :                             29.00 MB
    Total Requested Memory :                     512.00 MB
    Delta Memory :                               483.00 MB
    Max Swap :                                   -
    Max Processes :                              3
    Max Threads :                                4
    Run time :                                   3607 sec.
    Turnaround time :                            17024 sec.

The output (if any) is above this job summary.



PS:

Read file <1550.9.error> for stderr output of this job.

