Actually entered program!
Running with size: 1550, Trials: 88, OutputFile: 1550.6.eigen, Appending?: 0

------------------------------------------------------------
Sender: LSF System <lsfadmin@c36b13>
Subject: Job 7740798: <d.1550.6> in cluster <umghpcc> Done

Job <d.1550.6> was submitted from host <ghpcc06> by user <yh58b> in cluster <umghpcc> at Mon Jul 15 13:30:18 2019.
Job was executed on host(s) <c36b13>, in queue <short>, as user <yh58b> in cluster <umghpcc> at Mon Jul 15 17:13:36 2019.
</home/yh58b> was used as the home directory.
</home/yh58b/RMT/1550.doubly> was used as the working directory.
Started at Mon Jul 15 17:13:36 2019.
Terminated at Mon Jul 15 17:34:30 2019.
Results reported at Mon Jul 15 17:34:30 2019.

Your job looked like:

------------------------------------------------------------
# LSBATCH: User input
./eigen.exec 1550.pf 1550.6.eigen
------------------------------------------------------------

Successfully completed.

Resource usage summary:

    CPU time :                                   1256.60 sec.
    Max Memory :                                 31 MB
    Average Memory :                             30.69 MB
    Total Requested Memory :                     512.00 MB
    Delta Memory :                               481.00 MB
    Max Swap :                                   -
    Max Processes :                              3
    Max Threads :                                4
    Run time :                                   1254 sec.
    Turnaround time :                            14652 sec.

The output (if any) is above this job summary.



PS:

Read file <1550.6.error> for stderr output of this job.

