Actually entered program!
Running with size: 3850, Trials: 7, OutputFile: 3850.1.eigen, Appending?: 0

------------------------------------------------------------
Sender: LSF System <lsfadmin@c36b15>
Subject: Job 7847396: <s.3850.1> in cluster <umghpcc> Done

Job <s.3850.1> was submitted from host <ghpcc06> by user <yh58b> in cluster <umghpcc> at Tue Jul 16 15:37:04 2019.
Job was executed on host(s) <c36b15>, in queue <long>, as user <yh58b> in cluster <umghpcc> at Wed Jul 17 03:39:54 2019.
</home/yh58b> was used as the home directory.
</home/yh58b/RMT/3850.singly> was used as the working directory.
Started at Wed Jul 17 03:39:54 2019.
Terminated at Wed Jul 17 03:56:03 2019.
Results reported at Wed Jul 17 03:56:03 2019.

Your job looked like:

------------------------------------------------------------
# LSBATCH: User input
./eigen.exec 3850.pf 3850.1.eigen
------------------------------------------------------------

Successfully completed.

Resource usage summary:

    CPU time :                                   967.08 sec.
    Max Memory :                                 124 MB
    Average Memory :                             123.89 MB
    Total Requested Memory :                     256.00 MB
    Delta Memory :                               132.00 MB
    Max Swap :                                   -
    Max Processes :                              3
    Max Threads :                                4
    Run time :                                   969 sec.
    Turnaround time :                            44339 sec.

The output (if any) is above this job summary.



PS:

Read file <3850.1.error> for stderr output of this job.

