Actually entered program!
Running with size: 3050, Trials: 20, OutputFile: 3050.9.eigen, Appending?: 0

------------------------------------------------------------
Sender: LSF System <lsfadmin@c29b08>
Subject: Job 7737714: <s.3050.9> in cluster <umghpcc> Done

Job <s.3050.9> was submitted from host <ghpcc06> by user <yh58b> in cluster <umghpcc> at Mon Jul 15 13:26:27 2019.
Job was executed on host(s) <c29b08>, in queue <short>, as user <yh58b> in cluster <umghpcc> at Mon Jul 15 13:51:09 2019.
</home/yh58b> was used as the home directory.
</home/yh58b/RMT/3050.singly> was used as the working directory.
Started at Mon Jul 15 13:51:09 2019.
Terminated at Mon Jul 15 14:20:11 2019.
Results reported at Mon Jul 15 14:20:11 2019.

Your job looked like:

------------------------------------------------------------
# LSBATCH: User input
./eigen.exec 3050.pf 3050.9.eigen
------------------------------------------------------------

Successfully completed.

Resource usage summary:

    CPU time :                                   1739.28 sec.
    Max Memory :                                 83 MB
    Average Memory :                             83.00 MB
    Total Requested Memory :                     512.00 MB
    Delta Memory :                               429.00 MB
    Max Swap :                                   -
    Max Processes :                              3
    Max Threads :                                4
    Run time :                                   1742 sec.
    Turnaround time :                            3224 sec.

The output (if any) is above this job summary.



PS:

Read file <3050.9.error> for stderr output of this job.

