Actually entered program!
Running with size: 2650, Trials: 31, OutputFile: 2650.23.eigen, Appending?: 0

------------------------------------------------------------
Sender: LSF System <lsfadmin@c06b01>
Subject: Job 7846426: <s.2650.23> in cluster <umghpcc> Done

Job <s.2650.23> was submitted from host <ghpcc06> by user <yh58b> in cluster <umghpcc> at Tue Jul 16 15:35:51 2019.
Job was executed on host(s) <c06b01>, in queue <long>, as user <yh58b> in cluster <umghpcc> at Tue Jul 16 18:16:59 2019.
</home/yh58b> was used as the home directory.
</home/yh58b/RMT/2650.singly> was used as the working directory.
Started at Tue Jul 16 18:16:59 2019.
Terminated at Tue Jul 16 19:26:49 2019.
Results reported at Tue Jul 16 19:26:49 2019.

Your job looked like:

------------------------------------------------------------
# LSBATCH: User input
./eigen.exec 2650.pf 2650.23.eigen
------------------------------------------------------------

Successfully completed.

Resource usage summary:

    CPU time :                                   4188.80 sec.
    Max Memory :                                 65 MB
    Average Memory :                             64.41 MB
    Total Requested Memory :                     256.00 MB
    Delta Memory :                               191.00 MB
    Max Swap :                                   -
    Max Processes :                              3
    Max Threads :                                4
    Run time :                                   4192 sec.
    Turnaround time :                            13858 sec.

The output (if any) is above this job summary.



PS:

Read file <2650.23.error> for stderr output of this job.

