Actually entered program!
Running with size: 1500, Trials: 88, OutputFile: 1500.13.eigen, Appending?: 0

------------------------------------------------------------
Sender: LSF System <lsfadmin@c24b10>
Subject: Job 7737085: <s.1500.13> in cluster <umghpcc> Done

Job <s.1500.13> was submitted from host <ghpcc06> by user <yh58b> in cluster <umghpcc> at Mon Jul 15 13:25:37 2019.
Job was executed on host(s) <c24b10>, in queue <short>, as user <yh58b> in cluster <umghpcc> at Mon Jul 15 13:25:40 2019.
</home/yh58b> was used as the home directory.
</home/yh58b/RMT/1500.singly> was used as the working directory.
Started at Mon Jul 15 13:25:40 2019.
Terminated at Mon Jul 15 13:41:27 2019.
Results reported at Mon Jul 15 13:41:27 2019.

Your job looked like:

------------------------------------------------------------
# LSBATCH: User input
./eigen.exec 1500.pf 1500.13.eigen
------------------------------------------------------------

Successfully completed.

Resource usage summary:

    CPU time :                                   945.92 sec.
    Max Memory :                                 30 MB
    Average Memory :                             29.78 MB
    Total Requested Memory :                     512.00 MB
    Delta Memory :                               482.00 MB
    Max Swap :                                   -
    Max Processes :                              3
    Max Threads :                                4
    Run time :                                   947 sec.
    Turnaround time :                            950 sec.

The output (if any) is above this job summary.



PS:

Read file <1500.13.error> for stderr output of this job.

