Actually entered program!
Running with size: 1500, Trials: 13, OutputFile: 1500.stray.eigen, Appending?: 0

------------------------------------------------------------
Sender: LSF System <lsfadmin@c24b04>
Subject: Job 7737088: <s.1500.stray> in cluster <umghpcc> Done

Job <s.1500.stray> was submitted from host <ghpcc06> by user <yh58b> in cluster <umghpcc> at Mon Jul 15 13:25:38 2019.
Job was executed on host(s) <c24b04>, in queue <short>, as user <yh58b> in cluster <umghpcc> at Mon Jul 15 13:25:39 2019.
</home/yh58b> was used as the home directory.
</home/yh58b/RMT/1500.singly> was used as the working directory.
Started at Mon Jul 15 13:25:39 2019.
Terminated at Mon Jul 15 13:27:52 2019.
Results reported at Mon Jul 15 13:27:52 2019.

Your job looked like:

------------------------------------------------------------
# LSBATCH: User input
./eigen.exec 1500.stray.pf 1500.stray.eigen
------------------------------------------------------------

Successfully completed.

Resource usage summary:

    CPU time :                                   132.45 sec.
    Max Memory :                                 28 MB
    Average Memory :                             28.00 MB
    Total Requested Memory :                     512.00 MB
    Delta Memory :                               484.00 MB
    Max Swap :                                   -
    Max Processes :                              3
    Max Threads :                                4
    Run time :                                   133 sec.
    Turnaround time :                            134 sec.

The output (if any) is above this job summary.



PS:

Read file <1500.stray.error> for stderr output of this job.

