Actually entered program!
Running with size: 2850, Trials: 30, OutputFile: 2850.9.eigen, Appending?: 0

------------------------------------------------------------
Sender: LSF System <lsfadmin@c24b07>
Subject: Job 7737598: <s.2850.9> in cluster <umghpcc> Done

Job <s.2850.9> was submitted from host <ghpcc06> by user <yh58b> in cluster <umghpcc> at Mon Jul 15 13:26:18 2019.
Job was executed on host(s) <c24b07>, in queue <short>, as user <yh58b> in cluster <umghpcc> at Mon Jul 15 13:42:19 2019.
</home/yh58b> was used as the home directory.
</home/yh58b/RMT/2850.singly> was used as the working directory.
Started at Mon Jul 15 13:42:19 2019.
Terminated at Mon Jul 15 14:18:44 2019.
Results reported at Mon Jul 15 14:18:44 2019.

Your job looked like:

------------------------------------------------------------
# LSBATCH: User input
./eigen.exec 2850.pf 2850.9.eigen
------------------------------------------------------------

Successfully completed.

Resource usage summary:

    CPU time :                                   2182.17 sec.
    Max Memory :                                 75 MB
    Average Memory :                             73.97 MB
    Total Requested Memory :                     512.00 MB
    Delta Memory :                               437.00 MB
    Max Swap :                                   -
    Max Processes :                              3
    Max Threads :                                4
    Run time :                                   2184 sec.
    Turnaround time :                            3146 sec.

The output (if any) is above this job summary.



PS:

Read file <2850.9.error> for stderr output of this job.

