Actually entered program!
Running with size: 4950, Trials: 0, OutputFile: 4950.stray.eigen, Appending?: 0

------------------------------------------------------------
Sender: LSF System <lsfadmin@c28b10>
Subject: Job 7740571: <s.4950.stray> in cluster <umghpcc> Done

Job <s.4950.stray> was submitted from host <ghpcc06> by user <yh58b> in cluster <umghpcc> at Mon Jul 15 13:30:00 2019.
Job was executed on host(s) <c28b10>, in queue <short>, as user <yh58b> in cluster <umghpcc> at Mon Jul 15 16:52:38 2019.
</home/yh58b> was used as the home directory.
</home/yh58b/RMT/4950.singly> was used as the working directory.
Started at Mon Jul 15 16:52:38 2019.
Terminated at Mon Jul 15 16:52:39 2019.
Results reported at Mon Jul 15 16:52:39 2019.

Your job looked like:

------------------------------------------------------------
# LSBATCH: User input
./eigen.exec 4950.stray.pf 4950.stray.eigen
------------------------------------------------------------

Successfully completed.

Resource usage summary:

    CPU time :                                   0.31 sec.
    Max Memory :                                 -
    Average Memory :                             -
    Total Requested Memory :                     512.00 MB
    Delta Memory :                               -
    Max Swap :                                   -
    Max Processes :                              -
    Max Threads :                                -
    Run time :                                   1 sec.
    Turnaround time :                            12159 sec.

The output (if any) is above this job summary.



PS:

Read file <4950.stray.error> for stderr output of this job.

