Actually entered program!
Running with size: 4950, Trials: 4, OutputFile: 4950.93.eigen, Appending?: 0

------------------------------------------------------------
Sender: LSF System <lsfadmin@c09b06>
Subject: Job 7740562: <s.4950.93> in cluster <umghpcc> Done

Job <s.4950.93> was submitted from host <ghpcc06> by user <yh58b> in cluster <umghpcc> at Mon Jul 15 13:29:59 2019.
Job was executed on host(s) <c09b06>, in queue <short>, as user <yh58b> in cluster <umghpcc> at Mon Jul 15 16:52:12 2019.
</home/yh58b> was used as the home directory.
</home/yh58b/RMT/4950.singly> was used as the working directory.
Started at Mon Jul 15 16:52:12 2019.
Terminated at Mon Jul 15 17:46:34 2019.
Results reported at Mon Jul 15 17:46:34 2019.

Your job looked like:

------------------------------------------------------------
# LSBATCH: User input
./eigen.exec 4950.pf 4950.93.eigen
------------------------------------------------------------

Successfully completed.

Resource usage summary:

    CPU time :                                   3260.54 sec.
    Max Memory :                                 199 MB
    Average Memory :                             198.42 MB
    Total Requested Memory :                     512.00 MB
    Delta Memory :                               313.00 MB
    Max Swap :                                   -
    Max Processes :                              3
    Max Threads :                                4
    Run time :                                   3261 sec.
    Turnaround time :                            15395 sec.

The output (if any) is above this job summary.



PS:

Read file <4950.93.error> for stderr output of this job.

