Actually entered program!

------------------------------------------------------------
Sender: LSF System <lsfadmin@c06b02>
Subject: Job 7740565: <s.4950.96> in cluster <umghpcc> Exited

Job <s.4950.96> was submitted from host <ghpcc06> by user <yh58b> in cluster <umghpcc> at Mon Jul 15 13:29:59 2019.
Job was executed on host(s) <c06b02>, in queue <short>, as user <yh58b> in cluster <umghpcc> at Mon Jul 15 16:52:18 2019.
</home/yh58b> was used as the home directory.
</home/yh58b/RMT/4950.singly> was used as the working directory.
Started at Mon Jul 15 16:52:18 2019.
Terminated at Mon Jul 15 17:52:25 2019.
Results reported at Mon Jul 15 17:52:25 2019.

Your job looked like:

------------------------------------------------------------
# LSBATCH: User input
./eigen.exec 4950.pf 4950.96.eigen
------------------------------------------------------------

TERM_RUNLIMIT: job killed after reaching LSF run time limit.
Exited with exit code 140.

Resource usage summary:

    CPU time :                                   2703.02 sec.
    Max Memory :                                 198 MB
    Average Memory :                             197.74 MB
    Total Requested Memory :                     512.00 MB
    Delta Memory :                               314.00 MB
    Max Swap :                                   -
    Max Processes :                              3
    Max Threads :                                4
    Run time :                                   3607 sec.
    Turnaround time :                            15746 sec.

The output (if any) is above this job summary.



PS:

Read file <4950.96.error> for stderr output of this job.

