Actually entered program!

------------------------------------------------------------
Sender: LSF System <lsfadmin@c06b08>
Subject: Job 7742382: <d.3350.35> in cluster <umghpcc> Exited

Job <d.3350.35> was submitted from host <ghpcc06> by user <yh58b> in cluster <umghpcc> at Mon Jul 15 13:32:15 2019.
Job was executed on host(s) <c06b08>, in queue <short>, as user <yh58b> in cluster <umghpcc> at Mon Jul 15 19:50:20 2019.
</home/yh58b> was used as the home directory.
</home/yh58b/RMT/3350.doubly> was used as the working directory.
Started at Mon Jul 15 19:50:20 2019.
Terminated at Mon Jul 15 20:50:29 2019.
Results reported at Mon Jul 15 20:50:29 2019.

Your job looked like:

------------------------------------------------------------
# LSBATCH: User input
./eigen.exec 3350.pf 3350.35.eigen
------------------------------------------------------------

TERM_RUNLIMIT: job killed after reaching LSF run time limit.
Exited with exit code 140.

Resource usage summary:

    CPU time :                                   2664.39 sec.
    Max Memory :                                 96 MB
    Average Memory :                             96.00 MB
    Total Requested Memory :                     512.00 MB
    Delta Memory :                               416.00 MB
    Max Swap :                                   -
    Max Processes :                              3
    Max Threads :                                4
    Run time :                                   3609 sec.
    Turnaround time :                            26294 sec.

The output (if any) is above this job summary.



PS:

Read file <3350.35.error> for stderr output of this job.

