Actually entered program!

------------------------------------------------------------
Sender: LSF System <lsfadmin@c09b08>
Subject: Job 7742364: <d.3350.17> in cluster <umghpcc> Exited

Job <d.3350.17> was submitted from host <ghpcc06> by user <yh58b> in cluster <umghpcc> at Mon Jul 15 13:32:13 2019.
Job was executed on host(s) <c09b08>, in queue <short>, as user <yh58b> in cluster <umghpcc> at Mon Jul 15 19:48:25 2019.
</home/yh58b> was used as the home directory.
</home/yh58b/RMT/3350.doubly> was used as the working directory.
Started at Mon Jul 15 19:48:25 2019.
Terminated at Mon Jul 15 20:48:28 2019.
Results reported at Mon Jul 15 20:48:28 2019.

Your job looked like:

------------------------------------------------------------
# LSBATCH: User input
./eigen.exec 3350.pf 3350.17.eigen
------------------------------------------------------------

TERM_RUNLIMIT: job killed after reaching LSF run time limit.
Exited with exit code 140.

Resource usage summary:

    CPU time :                                   3601.34 sec.
    Max Memory :                                 96 MB
    Average Memory :                             96.00 MB
    Total Requested Memory :                     512.00 MB
    Delta Memory :                               416.00 MB
    Max Swap :                                   -
    Max Processes :                              3
    Max Threads :                                4
    Run time :                                   3602 sec.
    Turnaround time :                            26175 sec.

The output (if any) is above this job summary.



PS:

Read file <3350.17.error> for stderr output of this job.

