Actually entered program!

------------------------------------------------------------
Sender: LSF System <lsfadmin@c34b06>
Subject: Job 7744315: <d.4150.78> in cluster <umghpcc> Exited

Job <d.4150.78> was submitted from host <ghpcc06> by user <yh58b> in cluster <umghpcc> at Mon Jul 15 13:34:33 2019.
Job was executed on host(s) <c34b06>, in queue <short>, as user <yh58b> in cluster <umghpcc> at Mon Jul 15 22:41:26 2019.
</home/yh58b> was used as the home directory.
</home/yh58b/RMT/4150.doubly> was used as the working directory.
Started at Mon Jul 15 22:41:26 2019.
Terminated at Mon Jul 15 23:41:37 2019.
Results reported at Mon Jul 15 23:41:37 2019.

Your job looked like:

------------------------------------------------------------
# LSBATCH: User input
./eigen.exec 4150.pf 4150.78.eigen
------------------------------------------------------------

TERM_RUNLIMIT: job killed after reaching LSF run time limit.
Exited with exit code 140.

Resource usage summary:

    CPU time :                                   3609.00 sec.
    Max Memory :                                 144 MB
    Average Memory :                             143.75 MB
    Total Requested Memory :                     512.00 MB
    Delta Memory :                               368.00 MB
    Max Swap :                                   -
    Max Processes :                              3
    Max Threads :                                4
    Run time :                                   3610 sec.
    Turnaround time :                            36424 sec.

The output (if any) is above this job summary.



PS:

Read file <4150.78.error> for stderr output of this job.

