Actually entered program!
Running with size: 4150, Trials: 4, OutputFile: 4150.95.eigen, Appending?: 0

------------------------------------------------------------
Sender: LSF System <lsfadmin@c01b07>
Subject: Job 7744332: <d.4150.95> in cluster <umghpcc> Done

Job <d.4150.95> was submitted from host <ghpcc06> by user <yh58b> in cluster <umghpcc> at Mon Jul 15 13:34:35 2019.
Job was executed on host(s) <c01b07>, in queue <short>, as user <yh58b> in cluster <umghpcc> at Mon Jul 15 22:45:35 2019.
</home/yh58b> was used as the home directory.
</home/yh58b/RMT/4150.doubly> was used as the working directory.
Started at Mon Jul 15 22:45:35 2019.
Terminated at Mon Jul 15 23:24:35 2019.
Results reported at Mon Jul 15 23:24:35 2019.

Your job looked like:

------------------------------------------------------------
# LSBATCH: User input
./eigen.exec 4150.pf 4150.95.eigen
------------------------------------------------------------

Successfully completed.

Resource usage summary:

    CPU time :                                   2332.50 sec.
    Max Memory :                                 145 MB
    Average Memory :                             144.28 MB
    Total Requested Memory :                     512.00 MB
    Delta Memory :                               367.00 MB
    Max Swap :                                   -
    Max Processes :                              3
    Max Threads :                                4
    Run time :                                   2340 sec.
    Turnaround time :                            35400 sec.

The output (if any) is above this job summary.



PS:

Read file <4150.95.error> for stderr output of this job.

