Actually entered program!
Running with size: 4150, Trials: 4, OutputFile: 4150.51.eigen, Appending?: 0

------------------------------------------------------------
Sender: LSF System <lsfadmin@c01b07>
Subject: Job 7744288: <d.4150.51> in cluster <umghpcc> Done

Job <d.4150.51> was submitted from host <ghpcc06> by user <yh58b> in cluster <umghpcc> at Mon Jul 15 13:34:32 2019.
Job was executed on host(s) <c01b07>, in queue <short>, as user <yh58b> in cluster <umghpcc> at Mon Jul 15 22:30:11 2019.
</home/yh58b> was used as the home directory.
</home/yh58b/RMT/4150.doubly> was used as the working directory.
Started at Mon Jul 15 22:30:11 2019.
Terminated at Mon Jul 15 23:08:58 2019.
Results reported at Mon Jul 15 23:08:58 2019.

Your job looked like:

------------------------------------------------------------
# LSBATCH: User input
./eigen.exec 4150.pf 4150.51.eigen
------------------------------------------------------------

Successfully completed.

Resource usage summary:

    CPU time :                                   2327.06 sec.
    Max Memory :                                 143 MB
    Average Memory :                             142.49 MB
    Total Requested Memory :                     512.00 MB
    Delta Memory :                               369.00 MB
    Max Swap :                                   -
    Max Processes :                              3
    Max Threads :                                4
    Run time :                                   2327 sec.
    Turnaround time :                            34466 sec.

The output (if any) is above this job summary.



PS:

Read file <4150.51.error> for stderr output of this job.

