Actually entered program!
Running with size: 3900, Trials: 3, OutputFile: 3900.77.eigen, Appending?: 0

------------------------------------------------------------
Sender: LSF System <lsfadmin@c01b07>
Subject: Job 7743642: <d.3900.77> in cluster <umghpcc> Done

Job <d.3900.77> was submitted from host <ghpcc06> by user <yh58b> in cluster <umghpcc> at Mon Jul 15 13:33:45 2019.
Job was executed on host(s) <c01b07>, in queue <short>, as user <yh58b> in cluster <umghpcc> at Mon Jul 15 21:33:01 2019.
</home/yh58b> was used as the home directory.
</home/yh58b/RMT/3900.doubly> was used as the working directory.
Started at Mon Jul 15 21:33:01 2019.
Terminated at Mon Jul 15 21:56:30 2019.
Results reported at Mon Jul 15 21:56:30 2019.

Your job looked like:

------------------------------------------------------------
# LSBATCH: User input
./eigen.exec 3900.pf 3900.77.eigen
------------------------------------------------------------

Successfully completed.

Resource usage summary:

    CPU time :                                   1407.86 sec.
    Max Memory :                                 129 MB
    Average Memory :                             128.73 MB
    Total Requested Memory :                     512.00 MB
    Delta Memory :                               383.00 MB
    Max Swap :                                   -
    Max Processes :                              3
    Max Threads :                                4
    Run time :                                   1409 sec.
    Turnaround time :                            30165 sec.

The output (if any) is above this job summary.



PS:

Read file <3900.77.error> for stderr output of this job.

