Actually entered program!
Running with size: 2350, Trials: 30, OutputFile: 2350.19.eigen, Appending?: 0

------------------------------------------------------------
Sender: LSF System <lsfadmin@c29b07>
Subject: Job 7737359: <s.2350.19> in cluster <umghpcc> Done

Job <s.2350.19> was submitted from host <ghpcc06> by user <yh58b> in cluster <umghpcc> at Mon Jul 15 13:26:00 2019.
Job was executed on host(s) <c29b07>, in queue <short>, as user <yh58b> in cluster <umghpcc> at Mon Jul 15 13:26:02 2019.
</home/yh58b> was used as the home directory.
</home/yh58b/RMT/2350.singly> was used as the working directory.
Started at Mon Jul 15 13:26:02 2019.
Terminated at Mon Jul 15 13:46:14 2019.
Results reported at Mon Jul 15 13:46:14 2019.

Your job looked like:

------------------------------------------------------------
# LSBATCH: User input
./eigen.exec 2350.pf 2350.19.eigen
------------------------------------------------------------

Successfully completed.

Resource usage summary:

    CPU time :                                   1211.09 sec.
    Max Memory :                                 55 MB
    Average Memory :                             54.60 MB
    Total Requested Memory :                     512.00 MB
    Delta Memory :                               457.00 MB
    Max Swap :                                   -
    Max Processes :                              3
    Max Threads :                                4
    Run time :                                   1212 sec.
    Turnaround time :                            1214 sec.

The output (if any) is above this job summary.



PS:

Read file <2350.19.error> for stderr output of this job.

