Actually entered program!
Running with size: 1550, Trials: 83, OutputFile: 1550.4.eigen, Appending?: 0

------------------------------------------------------------
Sender: LSF System <lsfadmin@c19b07>
Subject: Job 7846006: <s.1550.4> in cluster <umghpcc> Done

Job <s.1550.4> was submitted from host <ghpcc06> by user <yh58b> in cluster <umghpcc> at Tue Jul 16 15:35:19 2019.
Job was executed on host(s) <c19b07>, in queue <long>, as user <yh58b> in cluster <umghpcc> at Tue Jul 16 16:08:26 2019.
</home/yh58b> was used as the home directory.
</home/yh58b/RMT/1550.singly> was used as the working directory.
Started at Tue Jul 16 16:08:26 2019.
Terminated at Tue Jul 16 16:50:43 2019.
Results reported at Tue Jul 16 16:50:43 2019.

Your job looked like:

------------------------------------------------------------
# LSBATCH: User input
./eigen.exec 1550.pf 1550.4.eigen
------------------------------------------------------------

Successfully completed.

Resource usage summary:

    CPU time :                                   2266.43 sec.
    Max Memory :                                 29 MB
    Average Memory :                             29.00 MB
    Total Requested Memory :                     256.00 MB
    Delta Memory :                               227.00 MB
    Max Swap :                                   -
    Max Processes :                              3
    Max Threads :                                4
    Run time :                                   2536 sec.
    Turnaround time :                            4524 sec.

The output (if any) is above this job summary.



PS:

Read file <1550.4.error> for stderr output of this job.

