Actually entered program!
Running with size: 4400, Trials: 7, OutputFile: 4400.40.eigen, Appending?: 0

------------------------------------------------------------
Sender: LSF System <lsfadmin@c36b01>
Subject: Job 7848407: <s.4400.40> in cluster <umghpcc> Done

Job <s.4400.40> was submitted from host <ghpcc06> by user <yh58b> in cluster <umghpcc> at Tue Jul 16 15:38:16 2019.
Job was executed on host(s) <c36b01>, in queue <long>, as user <yh58b> in cluster <umghpcc> at Wed Jul 17 10:52:40 2019.
</home/yh58b> was used as the home directory.
</home/yh58b/RMT/4400.singly> was used as the working directory.
Started at Wed Jul 17 10:52:40 2019.
Terminated at Wed Jul 17 11:16:20 2019.
Results reported at Wed Jul 17 11:16:20 2019.

Your job looked like:

------------------------------------------------------------
# LSBATCH: User input
./eigen.exec 4400.pf 4400.40.eigen
------------------------------------------------------------

Successfully completed.

Resource usage summary:

    CPU time :                                   1417.30 sec.
    Max Memory :                                 158 MB
    Average Memory :                             158.00 MB
    Total Requested Memory :                     256.00 MB
    Delta Memory :                               98.00 MB
    Max Swap :                                   -
    Max Processes :                              3
    Max Threads :                                4
    Run time :                                   1419 sec.
    Turnaround time :                            70684 sec.

The output (if any) is above this job summary.



PS:

Read file <4400.40.error> for stderr output of this job.

