Actually entered program!
Running with size: 4850, Trials: 4, OutputFile: 4850.39.eigen, Appending?: 0

------------------------------------------------------------
Sender: LSF System <lsfadmin@c19b05>
Subject: Job 7740301: <s.4850.39> in cluster <umghpcc> Done

Job <s.4850.39> was submitted from host <ghpcc06> by user <yh58b> in cluster <umghpcc> at Mon Jul 15 13:29:40 2019.
Job was executed on host(s) <c19b05>, in queue <short>, as user <yh58b> in cluster <umghpcc> at Mon Jul 15 16:31:04 2019.
</home/yh58b> was used as the home directory.
</home/yh58b/RMT/4850.singly> was used as the working directory.
Started at Mon Jul 15 16:31:04 2019.
Terminated at Mon Jul 15 17:18:44 2019.
Results reported at Mon Jul 15 17:18:44 2019.

Your job looked like:

------------------------------------------------------------
# LSBATCH: User input
./eigen.exec 4850.pf 4850.39.eigen
------------------------------------------------------------

Successfully completed.

Resource usage summary:

    CPU time :                                   2858.19 sec.
    Max Memory :                                 194 MB
    Average Memory :                             192.78 MB
    Total Requested Memory :                     512.00 MB
    Delta Memory :                               318.00 MB
    Max Swap :                                   -
    Max Processes :                              3
    Max Threads :                                4
    Run time :                                   2859 sec.
    Turnaround time :                            13744 sec.

The output (if any) is above this job summary.



PS:

Read file <4850.39.error> for stderr output of this job.

