Actually entered program!
Running with size: 4850, Trials: 4, OutputFile: 4850.24.eigen, Appending?: 0

------------------------------------------------------------
Sender: LSF System <lsfadmin@c23b04>
Subject: Job 7740286: <s.4850.24> in cluster <umghpcc> Done

Job <s.4850.24> was submitted from host <ghpcc06> by user <yh58b> in cluster <umghpcc> at Mon Jul 15 13:29:39 2019.
Job was executed on host(s) <c23b04>, in queue <short>, as user <yh58b> in cluster <umghpcc> at Mon Jul 15 16:30:03 2019.
</home/yh58b> was used as the home directory.
</home/yh58b/RMT/4850.singly> was used as the working directory.
Started at Mon Jul 15 16:30:03 2019.
Terminated at Mon Jul 15 17:16:53 2019.
Results reported at Mon Jul 15 17:16:53 2019.

Your job looked like:

------------------------------------------------------------
# LSBATCH: User input
./eigen.exec 4850.pf 4850.24.eigen
------------------------------------------------------------

Successfully completed.

Resource usage summary:

    CPU time :                                   2806.67 sec.
    Max Memory :                                 193 MB
    Average Memory :                             192.01 MB
    Total Requested Memory :                     512.00 MB
    Delta Memory :                               319.00 MB
    Max Swap :                                   -
    Max Processes :                              3
    Max Threads :                                4
    Run time :                                   2810 sec.
    Turnaround time :                            13634 sec.

The output (if any) is above this job summary.



PS:

Read file <4850.24.error> for stderr output of this job.

