Actually entered program!
Running with size: 4850, Trials: 4, OutputFile: 4850.35.eigen, Appending?: 0

------------------------------------------------------------
Sender: LSF System <lsfadmin@c07b03>
Subject: Job 7740297: <s.4850.35> in cluster <umghpcc> Done

Job <s.4850.35> was submitted from host <ghpcc06> by user <yh58b> in cluster <umghpcc> at Mon Jul 15 13:29:40 2019.
Job was executed on host(s) <c07b03>, in queue <short>, as user <yh58b> in cluster <umghpcc> at Mon Jul 15 16:30:59 2019.
</home/yh58b> was used as the home directory.
</home/yh58b/RMT/4850.singly> was used as the working directory.
Started at Mon Jul 15 16:30:59 2019.
Terminated at Mon Jul 15 17:21:30 2019.
Results reported at Mon Jul 15 17:21:30 2019.

Your job looked like:

------------------------------------------------------------
# LSBATCH: User input
./eigen.exec 4850.pf 4850.35.eigen
------------------------------------------------------------

Successfully completed.

Resource usage summary:

    CPU time :                                   3029.96 sec.
    Max Memory :                                 191 MB
    Average Memory :                             190.70 MB
    Total Requested Memory :                     512.00 MB
    Delta Memory :                               321.00 MB
    Max Swap :                                   -
    Max Processes :                              3
    Max Threads :                                4
    Run time :                                   3031 sec.
    Turnaround time :                            13910 sec.

The output (if any) is above this job summary.



PS:

Read file <4850.35.error> for stderr output of this job.

