Actually entered program!
Running with size: 3950, Trials: 4, OutputFile: 3950.95.eigen, Appending?: 0

------------------------------------------------------------
Sender: LSF System <lsfadmin@c01b11>
Subject: Job 7743832: <d.3950.95> in cluster <umghpcc> Done

Job <d.3950.95> was submitted from host <ghpcc06> by user <yh58b> in cluster <umghpcc> at Mon Jul 15 13:33:59 2019.
Job was executed on host(s) <c01b11>, in queue <short>, as user <yh58b> in cluster <umghpcc> at Mon Jul 15 21:59:21 2019.
</home/yh58b> was used as the home directory.
</home/yh58b/RMT/3950.doubly> was used as the working directory.
Started at Mon Jul 15 21:59:21 2019.
Terminated at Mon Jul 15 22:34:20 2019.
Results reported at Mon Jul 15 22:34:20 2019.

Your job looked like:

------------------------------------------------------------
# LSBATCH: User input
./eigen.exec 3950.pf 3950.95.eigen
------------------------------------------------------------

Successfully completed.

Resource usage summary:

    CPU time :                                   2095.93 sec.
    Max Memory :                                 134 MB
    Average Memory :                             133.35 MB
    Total Requested Memory :                     512.00 MB
    Delta Memory :                               378.00 MB
    Max Swap :                                   -
    Max Processes :                              3
    Max Threads :                                4
    Run time :                                   2098 sec.
    Turnaround time :                            32421 sec.

The output (if any) is above this job summary.



PS:

Read file <3950.95.error> for stderr output of this job.

