Actually entered program!
Running with size: 3950, Trials: 4, OutputFile: 3950.86.eigen, Appending?: 0

------------------------------------------------------------
Sender: LSF System <lsfadmin@c01b07>
Subject: Job 7743823: <d.3950.86> in cluster <umghpcc> Done

Job <d.3950.86> was submitted from host <ghpcc06> by user <yh58b> in cluster <umghpcc> at Mon Jul 15 13:33:59 2019.
Job was executed on host(s) <c01b07>, in queue <short>, as user <yh58b> in cluster <umghpcc> at Mon Jul 15 21:56:31 2019.
</home/yh58b> was used as the home directory.
</home/yh58b/RMT/3950.doubly> was used as the working directory.
Started at Mon Jul 15 21:56:31 2019.
Terminated at Mon Jul 15 22:30:08 2019.
Results reported at Mon Jul 15 22:30:08 2019.

Your job looked like:

------------------------------------------------------------
# LSBATCH: User input
./eigen.exec 3950.pf 3950.86.eigen
------------------------------------------------------------

Successfully completed.

Resource usage summary:

    CPU time :                                   2016.20 sec.
    Max Memory :                                 131 MB
    Average Memory :                             130.16 MB
    Total Requested Memory :                     512.00 MB
    Delta Memory :                               381.00 MB
    Max Swap :                                   -
    Max Processes :                              3
    Max Threads :                                4
    Run time :                                   2017 sec.
    Turnaround time :                            32169 sec.

The output (if any) is above this job summary.



PS:

Read file <3950.86.error> for stderr output of this job.

