Actually entered program!
Running with size: 2350, Trials: 30, OutputFile: 2350.17.eigen, Appending?: 0

------------------------------------------------------------
Sender: LSF System <lsfadmin@c40b05>
Subject: Job 7846271: <s.2350.17> in cluster <umghpcc> Done

Job <s.2350.17> was submitted from host <ghpcc06> by user <yh58b> in cluster <umghpcc> at Tue Jul 16 15:35:39 2019.
Job was executed on host(s) <c40b05>, in queue <long>, as user <yh58b> in cluster <umghpcc> at Tue Jul 16 16:58:28 2019.
</home/yh58b> was used as the home directory.
</home/yh58b/RMT/2350.singly> was used as the working directory.
Started at Tue Jul 16 16:58:28 2019.
Terminated at Tue Jul 16 17:13:00 2019.
Results reported at Tue Jul 16 17:13:00 2019.

Your job looked like:

------------------------------------------------------------
# LSBATCH: User input
./eigen.exec 2350.pf 2350.17.eigen
------------------------------------------------------------

Successfully completed.

Resource usage summary:

    CPU time :                                   871.49 sec.
    Max Memory :                                 53 MB
    Average Memory :                             53.00 MB
    Total Requested Memory :                     256.00 MB
    Delta Memory :                               203.00 MB
    Max Swap :                                   -
    Max Processes :                              3
    Max Threads :                                4
    Run time :                                   873 sec.
    Turnaround time :                            5841 sec.

The output (if any) is above this job summary.



PS:

Read file <2350.17.error> for stderr output of this job.

