Actually entered program!
Running with size: 3800, Trials: 5, OutputFile: 3800.39.eigen, Appending?: 0

------------------------------------------------------------
Sender: LSF System <lsfadmin@c38b08>
Subject: Job 7738414: <s.3800.39> in cluster <umghpcc> Done

Job <s.3800.39> was submitted from host <ghpcc06> by user <yh58b> in cluster <umghpcc> at Mon Jul 15 13:27:19 2019.
Job was executed on host(s) <c38b08>, in queue <short>, as user <yh58b> in cluster <umghpcc> at Mon Jul 15 14:41:02 2019.
</home/yh58b> was used as the home directory.
</home/yh58b/RMT/3800.singly> was used as the working directory.
Started at Mon Jul 15 14:41:02 2019.
Terminated at Mon Jul 15 14:50:47 2019.
Results reported at Mon Jul 15 14:50:47 2019.

Your job looked like:

------------------------------------------------------------
# LSBATCH: User input
./eigen.exec 3800.pf 3800.39.eigen
------------------------------------------------------------

Successfully completed.

Resource usage summary:

    CPU time :                                   583.93 sec.
    Max Memory :                                 121 MB
    Average Memory :                             121.00 MB
    Total Requested Memory :                     512.00 MB
    Delta Memory :                               391.00 MB
    Max Swap :                                   -
    Max Processes :                              3
    Max Threads :                                4
    Run time :                                   584 sec.
    Turnaround time :                            5008 sec.

The output (if any) is above this job summary.



PS:

Read file <3800.39.error> for stderr output of this job.

