Actually entered program!
Running with size: 3800, Trials: 5, OutputFile: 3800.21.eigen, Appending?: 0

------------------------------------------------------------
Sender: LSF System <lsfadmin@c37b15>
Subject: Job 7738396: <s.3800.21> in cluster <umghpcc> Done

Job <s.3800.21> was submitted from host <ghpcc06> by user <yh58b> in cluster <umghpcc> at Mon Jul 15 13:27:18 2019.
Job was executed on host(s) <c37b15>, in queue <short>, as user <yh58b> in cluster <umghpcc> at Mon Jul 15 14:39:45 2019.
</home/yh58b> was used as the home directory.
</home/yh58b/RMT/3800.singly> was used as the working directory.
Started at Mon Jul 15 14:39:45 2019.
Terminated at Mon Jul 15 14:49:51 2019.
Results reported at Mon Jul 15 14:49:51 2019.

Your job looked like:

------------------------------------------------------------
# LSBATCH: User input
./eigen.exec 3800.pf 3800.21.eigen
------------------------------------------------------------

Successfully completed.

Resource usage summary:

    CPU time :                                   604.94 sec.
    Max Memory :                                 122 MB
    Average Memory :                             121.44 MB
    Total Requested Memory :                     512.00 MB
    Delta Memory :                               390.00 MB
    Max Swap :                                   -
    Max Processes :                              3
    Max Threads :                                4
    Run time :                                   606 sec.
    Turnaround time :                            4953 sec.

The output (if any) is above this job summary.



PS:

Read file <3800.21.error> for stderr output of this job.

