Actually entered program!
Running with size: 3700, Trials: 10, OutputFile: 3700.9.eigen, Appending?: 0

------------------------------------------------------------
Sender: LSF System <lsfadmin@c36b07>
Subject: Job 7847154: <s.3700.9> in cluster <umghpcc> Done

Job <s.3700.9> was submitted from host <ghpcc06> by user <yh58b> in cluster <umghpcc> at Tue Jul 16 15:36:46 2019.
Job was executed on host(s) <c36b07>, in queue <long>, as user <yh58b> in cluster <umghpcc> at Wed Jul 17 01:42:26 2019.
</home/yh58b> was used as the home directory.
</home/yh58b/RMT/3700.singly> was used as the working directory.
Started at Wed Jul 17 01:42:26 2019.
Terminated at Wed Jul 17 02:01:59 2019.
Results reported at Wed Jul 17 02:01:59 2019.

Your job looked like:

------------------------------------------------------------
# LSBATCH: User input
./eigen.exec 3700.pf 3700.9.eigen
------------------------------------------------------------

Successfully completed.

Resource usage summary:

    CPU time :                                   1169.70 sec.
    Max Memory :                                 115 MB
    Average Memory :                             115.00 MB
    Total Requested Memory :                     256.00 MB
    Delta Memory :                               141.00 MB
    Max Swap :                                   -
    Max Processes :                              3
    Max Threads :                                4
    Run time :                                   1172 sec.
    Turnaround time :                            37513 sec.

The output (if any) is above this job summary.



PS:

Read file <3700.9.error> for stderr output of this job.

