Actually entered program!

------------------------------------------------------------
Sender: LSF System <lsfadmin@c02b01>
Subject: Job 7743402: <d.3800.47> in cluster <umghpcc> Exited

Job <d.3800.47> was submitted from host <ghpcc06> by user <yh58b> in cluster <umghpcc> at Mon Jul 15 13:33:28 2019.
Job was executed on host(s) <c02b01>, in queue <short>, as user <yh58b> in cluster <umghpcc> at Mon Jul 15 21:17:59 2019.
</home/yh58b> was used as the home directory.
</home/yh58b/RMT/3800.doubly> was used as the working directory.
Started at Mon Jul 15 21:17:59 2019.
Terminated at Mon Jul 15 22:18:01 2019.
Results reported at Mon Jul 15 22:18:01 2019.

Your job looked like:

------------------------------------------------------------
# LSBATCH: User input
./eigen.exec 3800.pf 3800.47.eigen
------------------------------------------------------------

TERM_RUNLIMIT: job killed after reaching LSF run time limit.
Exited with exit code 140.

Resource usage summary:

    CPU time :                                   3599.96 sec.
    Max Memory :                                 123 MB
    Average Memory :                             122.29 MB
    Total Requested Memory :                     512.00 MB
    Delta Memory :                               389.00 MB
    Max Swap :                                   -
    Max Processes :                              3
    Max Threads :                                4
    Run time :                                   3601 sec.
    Turnaround time :                            31473 sec.

The output (if any) is above this job summary.



PS:

Read file <3800.47.error> for stderr output of this job.

