Actually entered program!
Running with size: 3800, Trials: 5, OutputFile: 3800.57.eigen, Appending?: 0

------------------------------------------------------------
Sender: LSF System <lsfadmin@c36b03>
Subject: Job 7743412: <d.3800.57> in cluster <umghpcc> Done

Job <d.3800.57> was submitted from host <ghpcc06> by user <yh58b> in cluster <umghpcc> at Mon Jul 15 13:33:29 2019.
Job was executed on host(s) <c36b03>, in queue <short>, as user <yh58b> in cluster <umghpcc> at Mon Jul 15 21:19:09 2019.
</home/yh58b> was used as the home directory.
</home/yh58b/RMT/3800.doubly> was used as the working directory.
Started at Mon Jul 15 21:19:09 2019.
Terminated at Mon Jul 15 21:39:07 2019.
Results reported at Mon Jul 15 21:39:07 2019.

Your job looked like:

------------------------------------------------------------
# LSBATCH: User input
./eigen.exec 3800.pf 3800.57.eigen
------------------------------------------------------------

Successfully completed.

Resource usage summary:

    CPU time :                                   1193.95 sec.
    Max Memory :                                 123 MB
    Average Memory :                             123.00 MB
    Total Requested Memory :                     512.00 MB
    Delta Memory :                               389.00 MB
    Max Swap :                                   -
    Max Processes :                              3
    Max Threads :                                4
    Run time :                                   1198 sec.
    Turnaround time :                            29138 sec.

The output (if any) is above this job summary.



PS:

Read file <3800.57.error> for stderr output of this job.

