Actually entered program!
Running with size: 2150, Trials: 59, OutputFile: 2150.9.eigen, Appending?: 0

------------------------------------------------------------
Sender: LSF System <lsfadmin@c29b13>
Subject: Job 7737279: <s.2150.9> in cluster <umghpcc> Done

Job <s.2150.9> was submitted from host <ghpcc06> by user <yh58b> in cluster <umghpcc> at Mon Jul 15 13:25:53 2019.
Job was executed on host(s) <c29b13>, in queue <short>, as user <yh58b> in cluster <umghpcc> at Mon Jul 15 13:26:06 2019.
</home/yh58b> was used as the home directory.
</home/yh58b/RMT/2150.singly> was used as the working directory.
Started at Mon Jul 15 13:26:06 2019.
Terminated at Mon Jul 15 13:56:33 2019.
Results reported at Mon Jul 15 13:56:33 2019.

Your job looked like:

------------------------------------------------------------
# LSBATCH: User input
./eigen.exec 2150.pf 2150.9.eigen
------------------------------------------------------------

Successfully completed.

Resource usage summary:

    CPU time :                                   1823.81 sec.
    Max Memory :                                 47 MB
    Average Memory :                             46.57 MB
    Total Requested Memory :                     512.00 MB
    Delta Memory :                               465.00 MB
    Max Swap :                                   -
    Max Processes :                              3
    Max Threads :                                4
    Run time :                                   1827 sec.
    Turnaround time :                            1840 sec.

The output (if any) is above this job summary.



PS:

Read file <2150.9.error> for stderr output of this job.

