Actually entered program!
Running with size: 4550, Trials: 5, OutputFile: 4550.43.eigen, Appending?: 0

------------------------------------------------------------
Sender: LSF System <lsfadmin@c37b14>
Subject: Job 7848700: <s.4550.43> in cluster <umghpcc> Done

Job <s.4550.43> was submitted from host <ghpcc06> by user <yh58b> in cluster <umghpcc> at Tue Jul 16 15:38:37 2019.
Job was executed on host(s) <c37b14>, in queue <long>, as user <yh58b> in cluster <umghpcc> at Wed Jul 17 11:17:16 2019.
</home/yh58b> was used as the home directory.
</home/yh58b/RMT/4550.singly> was used as the working directory.
Started at Wed Jul 17 11:17:16 2019.
Terminated at Wed Jul 17 11:35:24 2019.
Results reported at Wed Jul 17 11:35:24 2019.

Your job looked like:

------------------------------------------------------------
# LSBATCH: User input
./eigen.exec 4550.pf 4550.43.eigen
------------------------------------------------------------

Successfully completed.

Resource usage summary:

    CPU time :                                   1087.25 sec.
    Max Memory :                                 169 MB
    Average Memory :                             168.79 MB
    Total Requested Memory :                     256.00 MB
    Delta Memory :                               87.00 MB
    Max Swap :                                   -
    Max Processes :                              3
    Max Threads :                                4
    Run time :                                   1088 sec.
    Turnaround time :                            71807 sec.

The output (if any) is above this job summary.



PS:

Read file <4550.43.error> for stderr output of this job.

