Actually entered program!
Running with size: 4550, Trials: 5, OutputFile: 4550.68.eigen, Appending?: 0

------------------------------------------------------------
Sender: LSF System <lsfadmin@c20b04>
Subject: Job 7848725: <s.4550.68> in cluster <umghpcc> Done

Job <s.4550.68> was submitted from host <ghpcc06> by user <yh58b> in cluster <umghpcc> at Tue Jul 16 15:38:39 2019.
Job was executed on host(s) <c20b04>, in queue <long>, as user <yh58b> in cluster <umghpcc> at Wed Jul 17 11:16:58 2019.
</home/yh58b> was used as the home directory.
</home/yh58b/RMT/4550.singly> was used as the working directory.
Started at Wed Jul 17 11:16:58 2019.
Terminated at Wed Jul 17 12:13:31 2019.
Results reported at Wed Jul 17 12:13:31 2019.

Your job looked like:

------------------------------------------------------------
# LSBATCH: User input
./eigen.exec 4550.pf 4550.68.eigen
------------------------------------------------------------

Successfully completed.

Resource usage summary:

    CPU time :                                   3391.65 sec.
    Max Memory :                                 169 MB
    Average Memory :                             168.57 MB
    Total Requested Memory :                     256.00 MB
    Delta Memory :                               87.00 MB
    Max Swap :                                   -
    Max Processes :                              3
    Max Threads :                                4
    Run time :                                   3393 sec.
    Turnaround time :                            74092 sec.

The output (if any) is above this job summary.



PS:

Read file <4550.68.error> for stderr output of this job.

