Actually entered program!

------------------------------------------------------------
Sender: LSF System <lsfadmin@c04b08>
Subject: Job 7741540: <d.2750.25> in cluster <umghpcc> Exited

Job <d.2750.25> was submitted from host <ghpcc06> by user <yh58b> in cluster <umghpcc> at Mon Jul 15 13:31:14 2019.
Job was executed on host(s) <c04b08>, in queue <short>, as user <yh58b> in cluster <umghpcc> at Mon Jul 15 18:23:13 2019.
</home/yh58b> was used as the home directory.
</home/yh58b/RMT/2750.doubly> was used as the working directory.
Started at Mon Jul 15 18:23:13 2019.
Terminated at Mon Jul 15 19:23:20 2019.
Results reported at Mon Jul 15 19:23:20 2019.

Your job looked like:

------------------------------------------------------------
# LSBATCH: User input
./eigen.exec 2750.pf 2750.25.eigen
------------------------------------------------------------

TERM_RUNLIMIT: job killed after reaching LSF run time limit.
Exited with exit code 140.

Resource usage summary:

    CPU time :                                   3606.00 sec.
    Max Memory :                                 72 MB
    Average Memory :                             71.05 MB
    Total Requested Memory :                     512.00 MB
    Delta Memory :                               440.00 MB
    Max Swap :                                   -
    Max Processes :                              3
    Max Threads :                                4
    Run time :                                   3607 sec.
    Turnaround time :                            21126 sec.

The output (if any) is above this job summary.



PS:

Read file <2750.25.error> for stderr output of this job.

