Actually entered program!
Running with size: 4150, Trials: 4, OutputFile: 4150.60.eigen, Appending?: 0

------------------------------------------------------------
Sender: LSF System <lsfadmin@c36b02>
Subject: Job 7847856: <s.4150.60> in cluster <umghpcc> Done

Job <s.4150.60> was submitted from host <ghpcc06> by user <yh58b> in cluster <umghpcc> at Tue Jul 16 15:37:37 2019.
Job was executed on host(s) <c36b02>, in queue <long>, as user <yh58b> in cluster <umghpcc> at Wed Jul 17 06:18:13 2019.
</home/yh58b> was used as the home directory.
</home/yh58b/RMT/4150.singly> was used as the working directory.
Started at Wed Jul 17 06:18:13 2019.
Terminated at Wed Jul 17 06:30:02 2019.
Results reported at Wed Jul 17 06:30:02 2019.

Your job looked like:

------------------------------------------------------------
# LSBATCH: User input
./eigen.exec 4150.pf 4150.60.eigen
------------------------------------------------------------

Successfully completed.

Resource usage summary:

    CPU time :                                   706.32 sec.
    Max Memory :                                 142 MB
    Average Memory :                             142.00 MB
    Total Requested Memory :                     256.00 MB
    Delta Memory :                               114.00 MB
    Max Swap :                                   -
    Max Processes :                              3
    Max Threads :                                4
    Run time :                                   709 sec.
    Turnaround time :                            53545 sec.

The output (if any) is above this job summary.



PS:

Read file <4150.60.error> for stderr output of this job.

