Actually entered program!
Running with size: 4150, Trials: 4, OutputFile: 4150.2.eigen, Appending?: 0

------------------------------------------------------------
Sender: LSF System <lsfadmin@c36b05>
Subject: Job 7847798: <s.4150.2> in cluster <umghpcc> Done

Job <s.4150.2> was submitted from host <ghpcc06> by user <yh58b> in cluster <umghpcc> at Tue Jul 16 15:37:33 2019.
Job was executed on host(s) <c36b05>, in queue <long>, as user <yh58b> in cluster <umghpcc> at Wed Jul 17 06:04:14 2019.
</home/yh58b> was used as the home directory.
</home/yh58b/RMT/4150.singly> was used as the working directory.
Started at Wed Jul 17 06:04:14 2019.
Terminated at Wed Jul 17 06:15:43 2019.
Results reported at Wed Jul 17 06:15:43 2019.

Your job looked like:

------------------------------------------------------------
# LSBATCH: User input
./eigen.exec 4150.pf 4150.2.eigen
------------------------------------------------------------

Successfully completed.

Resource usage summary:

    CPU time :                                   687.23 sec.
    Max Memory :                                 144 MB
    Average Memory :                             144.00 MB
    Total Requested Memory :                     256.00 MB
    Delta Memory :                               112.00 MB
    Max Swap :                                   -
    Max Processes :                              3
    Max Threads :                                4
    Run time :                                   689 sec.
    Turnaround time :                            52690 sec.

The output (if any) is above this job summary.



PS:

Read file <4150.2.error> for stderr output of this job.

