Actually entered program!
Running with size: 4850, Trials: 2, OutputFile: 4850.175.eigen, Appending?: 0

------------------------------------------------------------
Sender: LSF System <lsfadmin@c28b05>
Subject: Job 7746533: <d.4850.175> in cluster <umghpcc> Done

Job <d.4850.175> was submitted from host <ghpcc06> by user <yh58b> in cluster <umghpcc> at Mon Jul 15 13:37:13 2019.
Job was executed on host(s) <c28b05>, in queue <short>, as user <yh58b> in cluster <umghpcc> at Tue Jul 16 02:35:55 2019.
</home/yh58b> was used as the home directory.
</home/yh58b/RMT/4850.doubly> was used as the working directory.
Started at Tue Jul 16 02:35:55 2019.
Terminated at Tue Jul 16 02:57:40 2019.
Results reported at Tue Jul 16 02:57:40 2019.

Your job looked like:

------------------------------------------------------------
# LSBATCH: User input
./eigen.exec 4850.pf 4850.175.eigen
------------------------------------------------------------

Successfully completed.

Resource usage summary:

    CPU time :                                   1303.44 sec.
    Max Memory :                                 191 MB
    Average Memory :                             190.86 MB
    Total Requested Memory :                     512.00 MB
    Delta Memory :                               321.00 MB
    Max Swap :                                   -
    Max Processes :                              3
    Max Threads :                                4
    Run time :                                   1305 sec.
    Turnaround time :                            48027 sec.

The output (if any) is above this job summary.



PS:

Read file <4850.175.error> for stderr output of this job.

