Actually entered program!
Running with size: 4850, Trials: 2, OutputFile: 4850.155.eigen, Appending?: 0

------------------------------------------------------------
Sender: LSF System <lsfadmin@c06b06>
Subject: Job 7746513: <d.4850.155> in cluster <umghpcc> Done

Job <d.4850.155> was submitted from host <ghpcc06> by user <yh58b> in cluster <umghpcc> at Mon Jul 15 13:37:12 2019.
Job was executed on host(s) <c06b06>, in queue <short>, as user <yh58b> in cluster <umghpcc> at Tue Jul 16 02:34:14 2019.
</home/yh58b> was used as the home directory.
</home/yh58b/RMT/4850.doubly> was used as the working directory.
Started at Tue Jul 16 02:34:14 2019.
Terminated at Tue Jul 16 03:18:49 2019.
Results reported at Tue Jul 16 03:18:49 2019.

Your job looked like:

------------------------------------------------------------
# LSBATCH: User input
./eigen.exec 4850.pf 4850.155.eigen
------------------------------------------------------------

Successfully completed.

Resource usage summary:

    CPU time :                                   2672.92 sec.
    Max Memory :                                 192 MB
    Average Memory :                             192.00 MB
    Total Requested Memory :                     512.00 MB
    Delta Memory :                               320.00 MB
    Max Swap :                                   -
    Max Processes :                              3
    Max Threads :                                4
    Run time :                                   2674 sec.
    Turnaround time :                            49297 sec.

The output (if any) is above this job summary.



PS:

Read file <4850.155.error> for stderr output of this job.

