Actually entered program!
Running with size: 4850, Trials: 2, OutputFile: 4850.201.eigen, Appending?: 0

------------------------------------------------------------
Sender: LSF System <lsfadmin@c23b04>
Subject: Job 7746559: <d.4850.201> in cluster <umghpcc> Done

Job <d.4850.201> was submitted from host <ghpcc06> by user <yh58b> in cluster <umghpcc> at Mon Jul 15 13:37:15 2019.
Job was executed on host(s) <c23b04>, in queue <short>, as user <yh58b> in cluster <umghpcc> at Tue Jul 16 02:38:28 2019.
</home/yh58b> was used as the home directory.
</home/yh58b/RMT/4850.doubly> was used as the working directory.
Started at Tue Jul 16 02:38:28 2019.
Terminated at Tue Jul 16 03:27:00 2019.
Results reported at Tue Jul 16 03:27:00 2019.

Your job looked like:

------------------------------------------------------------
# LSBATCH: User input
./eigen.exec 4850.pf 4850.201.eigen
------------------------------------------------------------

Successfully completed.

Resource usage summary:

    CPU time :                                   2910.68 sec.
    Max Memory :                                 191 MB
    Average Memory :                             190.51 MB
    Total Requested Memory :                     512.00 MB
    Delta Memory :                               321.00 MB
    Max Swap :                                   -
    Max Processes :                              3
    Max Threads :                                4
    Run time :                                   2912 sec.
    Turnaround time :                            49785 sec.

The output (if any) is above this job summary.



PS:

Read file <4850.201.error> for stderr output of this job.

