Actually entered program!
Running with size: 4650, Trials: 5, OutputFile: 4650.77.eigen, Appending?: 0

------------------------------------------------------------
Sender: LSF System <lsfadmin@c37b16>
Subject: Job 7739997: <s.4650.77> in cluster <umghpcc> Done

Job <s.4650.77> was submitted from host <ghpcc06> by user <yh58b> in cluster <umghpcc> at Mon Jul 15 13:29:16 2019.
Job was executed on host(s) <c37b16>, in queue <short>, as user <yh58b> in cluster <umghpcc> at Mon Jul 15 16:06:43 2019.
</home/yh58b> was used as the home directory.
</home/yh58b/RMT/4650.singly> was used as the working directory.
Started at Mon Jul 15 16:06:43 2019.
Terminated at Mon Jul 15 16:25:23 2019.
Results reported at Mon Jul 15 16:25:23 2019.

Your job looked like:

------------------------------------------------------------
# LSBATCH: User input
./eigen.exec 4650.pf 4650.77.eigen
------------------------------------------------------------

Successfully completed.

Resource usage summary:

    CPU time :                                   1117.17 sec.
    Max Memory :                                 178 MB
    Average Memory :                             175.81 MB
    Total Requested Memory :                     512.00 MB
    Delta Memory :                               334.00 MB
    Max Swap :                                   -
    Max Processes :                              3
    Max Threads :                                4
    Run time :                                   1119 sec.
    Turnaround time :                            10567 sec.

The output (if any) is above this job summary.



PS:

Read file <4650.77.error> for stderr output of this job.

