Actually entered program!

------------------------------------------------------------
Sender: LSF System <lsfadmin@c02b04>
Subject: Job 7745459: <d.4550.101> in cluster <umghpcc> Exited

Job <d.4550.101> was submitted from host <ghpcc06> by user <yh58b> in cluster <umghpcc> at Mon Jul 15 13:35:55 2019.
Job was executed on host(s) <c02b04>, in queue <short>, as user <yh58b> in cluster <umghpcc> at Tue Jul 16 00:48:34 2019.
</home/yh58b> was used as the home directory.
</home/yh58b/RMT/4550.doubly> was used as the working directory.
Started at Tue Jul 16 00:48:34 2019.
Terminated at Tue Jul 16 01:48:48 2019.
Results reported at Tue Jul 16 01:48:48 2019.

Your job looked like:

------------------------------------------------------------
# LSBATCH: User input
./eigen.exec 4550.pf 4550.101.eigen
------------------------------------------------------------

TERM_RUNLIMIT: job killed after reaching LSF run time limit.
Exited with exit code 140.

Resource usage summary:

    CPU time :                                   3612.15 sec.
    Max Memory :                                 169 MB
    Average Memory :                             168.64 MB
    Total Requested Memory :                     512.00 MB
    Delta Memory :                               343.00 MB
    Max Swap :                                   -
    Max Processes :                              3
    Max Threads :                                4
    Run time :                                   3613 sec.
    Turnaround time :                            43973 sec.

The output (if any) is above this job summary.



PS:

Read file <4550.101.error> for stderr output of this job.

