Actually entered program!
Running with size: 4550, Trials: 3, OutputFile: 4550.33.eigen, Appending?: 0

------------------------------------------------------------
Sender: LSF System <lsfadmin@c01b12>
Subject: Job 7745391: <d.4550.33> in cluster <umghpcc> Done

Job <d.4550.33> was submitted from host <ghpcc06> by user <yh58b> in cluster <umghpcc> at Mon Jul 15 13:35:51 2019.
Job was executed on host(s) <c01b12>, in queue <short>, as user <yh58b> in cluster <umghpcc> at Tue Jul 16 00:38:08 2019.
</home/yh58b> was used as the home directory.
</home/yh58b/RMT/4550.doubly> was used as the working directory.
Started at Tue Jul 16 00:38:08 2019.
Terminated at Tue Jul 16 01:16:31 2019.
Results reported at Tue Jul 16 01:16:31 2019.

Your job looked like:

------------------------------------------------------------
# LSBATCH: User input
./eigen.exec 4550.pf 4550.33.eigen
------------------------------------------------------------

Successfully completed.

Resource usage summary:

    CPU time :                                   2302.78 sec.
    Max Memory :                                 170 MB
    Average Memory :                             169.68 MB
    Total Requested Memory :                     512.00 MB
    Delta Memory :                               342.00 MB
    Max Swap :                                   -
    Max Processes :                              3
    Max Threads :                                4
    Run time :                                   2303 sec.
    Turnaround time :                            42040 sec.

The output (if any) is above this job summary.



PS:

Read file <4550.33.error> for stderr output of this job.

