Actually entered program!

------------------------------------------------------------
Sender: LSF System <lsfadmin@c07b03>
Subject: Job 7745466: <d.4550.108> in cluster <umghpcc> Exited

Job <d.4550.108> was submitted from host <ghpcc06> by user <yh58b> in cluster <umghpcc> at Mon Jul 15 13:35:56 2019.
Job was executed on host(s) <c07b03>, in queue <short>, as user <yh58b> in cluster <umghpcc> at Tue Jul 16 00:49:05 2019.
</home/yh58b> was used as the home directory.
</home/yh58b/RMT/4550.doubly> was used as the working directory.
Started at Tue Jul 16 00:49:05 2019.
Terminated at Tue Jul 16 01:49:08 2019.
Results reported at Tue Jul 16 01:49:08 2019.

Your job looked like:

------------------------------------------------------------
# LSBATCH: User input
./eigen.exec 4550.pf 4550.108.eigen
------------------------------------------------------------

TERM_RUNLIMIT: job killed after reaching LSF run time limit.
Exited with exit code 140.

Resource usage summary:

    CPU time :                                   3602.03 sec.
    Max Memory :                                 170 MB
    Average Memory :                             170.00 MB
    Total Requested Memory :                     512.00 MB
    Delta Memory :                               342.00 MB
    Max Swap :                                   -
    Max Processes :                              3
    Max Threads :                                4
    Run time :                                   3603 sec.
    Turnaround time :                            43992 sec.

The output (if any) is above this job summary.



PS:

Read file <4550.108.error> for stderr output of this job.

