Actually entered program!
Running with size: 4550, Trials: 3, OutputFile: 4550.133.eigen, Appending?: 0

------------------------------------------------------------
Sender: LSF System <lsfadmin@c08b04>
Subject: Job 7745491: <d.4550.133> in cluster <umghpcc> Done

Job <d.4550.133> was submitted from host <ghpcc06> by user <yh58b> in cluster <umghpcc> at Mon Jul 15 13:35:58 2019.
Job was executed on host(s) <c08b04>, in queue <short>, as user <yh58b> in cluster <umghpcc> at Tue Jul 16 00:51:54 2019.
</home/yh58b> was used as the home directory.
</home/yh58b/RMT/4550.doubly> was used as the working directory.
Started at Tue Jul 16 00:51:54 2019.
Terminated at Tue Jul 16 01:48:26 2019.
Results reported at Tue Jul 16 01:48:26 2019.

Your job looked like:

------------------------------------------------------------
# LSBATCH: User input
./eigen.exec 4550.pf 4550.133.eigen
------------------------------------------------------------

Successfully completed.

Resource usage summary:

    CPU time :                                   3390.32 sec.
    Max Memory :                                 171 MB
    Average Memory :                             169.62 MB
    Total Requested Memory :                     512.00 MB
    Delta Memory :                               341.00 MB
    Max Swap :                                   -
    Max Processes :                              3
    Max Threads :                                4
    Run time :                                   3392 sec.
    Turnaround time :                            43948 sec.

The output (if any) is above this job summary.



PS:

Read file <4550.133.error> for stderr output of this job.

