Actually entered program!
Running with size: 1500, Trials: 101, OutputFile: 1500.12.eigen, Appending?: 0

------------------------------------------------------------
Sender: LSF System <lsfadmin@c01b16>
Subject: Job 7740790: <d.1500.12> in cluster <umghpcc> Done

Job <d.1500.12> was submitted from host <ghpcc06> by user <yh58b> in cluster <umghpcc> at Mon Jul 15 13:30:18 2019.
Job was executed on host(s) <c01b16>, in queue <short>, as user <yh58b> in cluster <umghpcc> at Mon Jul 15 17:13:05 2019.
</home/yh58b> was used as the home directory.
</home/yh58b/RMT/1500.doubly> was used as the working directory.
Started at Mon Jul 15 17:13:05 2019.
Terminated at Mon Jul 15 17:55:23 2019.
Results reported at Mon Jul 15 17:55:23 2019.

Your job looked like:

------------------------------------------------------------
# LSBATCH: User input
./eigen.exec 1500.pf 1500.12.eigen
------------------------------------------------------------

Successfully completed.

Resource usage summary:

    CPU time :                                   2534.85 sec.
    Max Memory :                                 30 MB
    Average Memory :                             28.65 MB
    Total Requested Memory :                     512.00 MB
    Delta Memory :                               482.00 MB
    Max Swap :                                   -
    Max Processes :                              3
    Max Threads :                                4
    Run time :                                   2537 sec.
    Turnaround time :                            15905 sec.

The output (if any) is above this job summary.



PS:

Read file <1500.12.error> for stderr output of this job.

