Actually entered program!
Running with size: 1100, Trials: 154, OutputFile: 1100.4.eigen, Appending?: 0

------------------------------------------------------------
Sender: LSF System <lsfadmin@c01b12>
Subject: Job 7740658: <d.1100.4> in cluster <umghpcc> Done

Job <d.1100.4> was submitted from host <ghpcc06> by user <yh58b> in cluster <umghpcc> at Mon Jul 15 13:30:08 2019.
Job was executed on host(s) <c01b12>, in queue <short>, as user <yh58b> in cluster <umghpcc> at Mon Jul 15 16:58:09 2019.
</home/yh58b> was used as the home directory.
</home/yh58b/RMT/1100.doubly> was used as the working directory.
Started at Mon Jul 15 16:58:09 2019.
Terminated at Mon Jul 15 17:21:43 2019.
Results reported at Mon Jul 15 17:21:43 2019.

Your job looked like:

------------------------------------------------------------
# LSBATCH: User input
./eigen.exec 1100.pf 1100.4.eigen
------------------------------------------------------------

Successfully completed.

Resource usage summary:

    CPU time :                                   1412.18 sec.
    Max Memory :                                 20 MB
    Average Memory :                             20.00 MB
    Total Requested Memory :                     512.00 MB
    Delta Memory :                               492.00 MB
    Max Swap :                                   -
    Max Processes :                              3
    Max Threads :                                4
    Run time :                                   1413 sec.
    Turnaround time :                            13895 sec.

The output (if any) is above this job summary.



PS:

Read file <1100.4.error> for stderr output of this job.

