Actually entered program!

------------------------------------------------------------
Sender: LSF System <lsfadmin@c03b01>
Subject: Job 7741197: <d.2350.13> in cluster <umghpcc> Exited

Job <d.2350.13> was submitted from host <ghpcc06> by user <yh58b> in cluster <umghpcc> at Mon Jul 15 13:30:48 2019.
Job was executed on host(s) <c03b01>, in queue <short>, as user <yh58b> in cluster <umghpcc> at Mon Jul 15 17:40:41 2019.
</home/yh58b> was used as the home directory.
</home/yh58b/RMT/2350.doubly> was used as the working directory.
Started at Mon Jul 15 17:40:41 2019.
Terminated at Mon Jul 15 18:40:55 2019.
Results reported at Mon Jul 15 18:40:55 2019.

Your job looked like:

------------------------------------------------------------
# LSBATCH: User input
./eigen.exec 2350.pf 2350.13.eigen
------------------------------------------------------------

TERM_RUNLIMIT: job killed after reaching LSF run time limit.
Exited with exit code 140.

Resource usage summary:

    CPU time :                                   3612.00 sec.
    Max Memory :                                 53 MB
    Average Memory :                             53.00 MB
    Total Requested Memory :                     512.00 MB
    Delta Memory :                               459.00 MB
    Max Swap :                                   -
    Max Processes :                              3
    Max Threads :                                4
    Run time :                                   3614 sec.
    Turnaround time :                            18607 sec.

The output (if any) is above this job summary.



PS:

Read file <2350.13.error> for stderr output of this job.

