Actually entered program!

------------------------------------------------------------
Sender: LSF System <lsfadmin@c07b07>
Subject: Job 7742645: <d.3500.32> in cluster <umghpcc> Exited

Job <d.3500.32> was submitted from host <ghpcc06> by user <yh58b> in cluster <umghpcc> at Mon Jul 15 13:32:34 2019.
Job was executed on host(s) <c07b07>, in queue <short>, as user <yh58b> in cluster <umghpcc> at Mon Jul 15 20:15:09 2019.
</home/yh58b> was used as the home directory.
</home/yh58b/RMT/3500.doubly> was used as the working directory.
Started at Mon Jul 15 20:15:09 2019.
Terminated at Mon Jul 15 21:15:13 2019.
Results reported at Mon Jul 15 21:15:13 2019.

Your job looked like:

------------------------------------------------------------
# LSBATCH: User input
./eigen.exec 3500.pf 3500.32.eigen
------------------------------------------------------------

TERM_RUNLIMIT: job killed after reaching LSF run time limit.
Exited with exit code 140.

Resource usage summary:

    CPU time :                                   3602.00 sec.
    Max Memory :                                 104 MB
    Average Memory :                             104.00 MB
    Total Requested Memory :                     512.00 MB
    Delta Memory :                               408.00 MB
    Max Swap :                                   -
    Max Processes :                              3
    Max Threads :                                4
    Run time :                                   3604 sec.
    Turnaround time :                            27759 sec.

The output (if any) is above this job summary.



PS:

Read file <3500.32.error> for stderr output of this job.

