Actually entered program!
Running with size: 3500, Trials: 7, OutputFile: 3500.62.eigen, Appending?: 0

------------------------------------------------------------
Sender: LSF System <lsfadmin@c31b01>
Subject: Job 7742675: <d.3500.62> in cluster <umghpcc> Done

Job <d.3500.62> was submitted from host <ghpcc06> by user <yh58b> in cluster <umghpcc> at Mon Jul 15 13:32:37 2019.
Job was executed on host(s) <c31b01>, in queue <short>, as user <yh58b> in cluster <umghpcc> at Mon Jul 15 20:18:14 2019.
</home/yh58b> was used as the home directory.
</home/yh58b/RMT/3500.doubly> was used as the working directory.
Started at Mon Jul 15 20:18:14 2019.
Terminated at Mon Jul 15 21:18:11 2019.
Results reported at Mon Jul 15 21:18:11 2019.

Your job looked like:

------------------------------------------------------------
# LSBATCH: User input
./eigen.exec 3500.pf 3500.62.eigen
------------------------------------------------------------

Successfully completed.

Resource usage summary:

    CPU time :                                   3594.74 sec.
    Max Memory :                                 106 MB
    Average Memory :                             105.14 MB
    Total Requested Memory :                     512.00 MB
    Delta Memory :                               406.00 MB
    Max Swap :                                   -
    Max Processes :                              3
    Max Threads :                                4
    Run time :                                   3597 sec.
    Turnaround time :                            27934 sec.

The output (if any) is above this job summary.



PS:

Read file <3500.62.error> for stderr output of this job.

