Actually entered program!
Running with size: 1450, Trials: 106, OutputFile: 1450.2.eigen, Appending?: 0

------------------------------------------------------------
Sender: LSF System <lsfadmin@c05b12>
Subject: Job 7740766: <d.1450.2> in cluster <umghpcc> Done

Job <d.1450.2> was submitted from host <ghpcc06> by user <yh58b> in cluster <umghpcc> at Mon Jul 15 13:30:16 2019.
Job was executed on host(s) <c05b12>, in queue <short>, as user <yh58b> in cluster <umghpcc> at Mon Jul 15 17:10:18 2019.
</home/yh58b> was used as the home directory.
</home/yh58b/RMT/1450.doubly> was used as the working directory.
Started at Mon Jul 15 17:10:18 2019.
Terminated at Mon Jul 15 17:52:36 2019.
Results reported at Mon Jul 15 17:52:36 2019.

Your job looked like:

------------------------------------------------------------
# LSBATCH: User input
./eigen.exec 1450.pf 1450.2.eigen
------------------------------------------------------------

Successfully completed.

Resource usage summary:

    CPU time :                                   2282.33 sec.
    Max Memory :                                 27 MB
    Average Memory :                             26.97 MB
    Total Requested Memory :                     512.00 MB
    Delta Memory :                               485.00 MB
    Max Swap :                                   -
    Max Processes :                              3
    Max Threads :                                4
    Run time :                                   2538 sec.
    Turnaround time :                            15740 sec.

The output (if any) is above this job summary.



PS:

Read file <1450.2.error> for stderr output of this job.

