Actually entered program!
Running with size: 1450, Trials: 106, OutputFile: 1450.9.eigen, Appending?: 0

------------------------------------------------------------
Sender: LSF System <lsfadmin@c28b11>
Subject: Job 7740773: <d.1450.9> in cluster <umghpcc> Done

Job <d.1450.9> was submitted from host <ghpcc06> by user <yh58b> in cluster <umghpcc> at Mon Jul 15 13:30:16 2019.
Job was executed on host(s) <c28b11>, in queue <short>, as user <yh58b> in cluster <umghpcc> at Mon Jul 15 17:10:41 2019.
</home/yh58b> was used as the home directory.
</home/yh58b/RMT/1450.doubly> was used as the working directory.
Started at Mon Jul 15 17:10:41 2019.
Terminated at Mon Jul 15 17:36:33 2019.
Results reported at Mon Jul 15 17:36:33 2019.

Your job looked like:

------------------------------------------------------------
# LSBATCH: User input
./eigen.exec 1450.pf 1450.9.eigen
------------------------------------------------------------

Successfully completed.

Resource usage summary:

    CPU time :                                   1550.04 sec.
    Max Memory :                                 29 MB
    Average Memory :                             28.31 MB
    Total Requested Memory :                     512.00 MB
    Delta Memory :                               483.00 MB
    Max Swap :                                   -
    Max Processes :                              3
    Max Threads :                                4
    Run time :                                   1552 sec.
    Turnaround time :                            14777 sec.

The output (if any) is above this job summary.



PS:

Read file <1450.9.error> for stderr output of this job.

