Actually entered program!
Running with size: 4300, Trials: 7, OutputFile: 4300.53.eigen, Appending?: 0

------------------------------------------------------------
Sender: LSF System <lsfadmin@c36b06>
Subject: Job 7848287: <s.4300.53> in cluster <umghpcc> Done

Job <s.4300.53> was submitted from host <ghpcc06> by user <yh58b> in cluster <umghpcc> at Tue Jul 16 15:38:08 2019.
Job was executed on host(s) <c36b06>, in queue <long>, as user <yh58b> in cluster <umghpcc> at Wed Jul 17 08:17:51 2019.
</home/yh58b> was used as the home directory.
</home/yh58b/RMT/4300.singly> was used as the working directory.
Started at Wed Jul 17 08:17:51 2019.
Terminated at Wed Jul 17 08:40:42 2019.
Results reported at Wed Jul 17 08:40:42 2019.

Your job looked like:

------------------------------------------------------------
# LSBATCH: User input
./eigen.exec 4300.pf 4300.53.eigen
------------------------------------------------------------

Successfully completed.

Resource usage summary:

    CPU time :                                   1368.83 sec.
    Max Memory :                                 152 MB
    Average Memory :                             151.91 MB
    Total Requested Memory :                     256.00 MB
    Delta Memory :                               104.00 MB
    Max Swap :                                   -
    Max Processes :                              3
    Max Threads :                                4
    Run time :                                   1371 sec.
    Turnaround time :                            61354 sec.

The output (if any) is above this job summary.



PS:

Read file <4300.53.error> for stderr output of this job.

