Actually entered program!

------------------------------------------------------------
Sender: LSF System <lsfadmin@c31b05>
Subject: Job 7741431: <d.2650.8> in cluster <umghpcc> Exited

Job <d.2650.8> was submitted from host <ghpcc06> by user <yh58b> in cluster <umghpcc> at Mon Jul 15 13:31:06 2019.
Job was executed on host(s) <c31b05>, in queue <short>, as user <yh58b> in cluster <umghpcc> at Mon Jul 15 18:13:58 2019.
</home/yh58b> was used as the home directory.
</home/yh58b/RMT/2650.doubly> was used as the working directory.
Started at Mon Jul 15 18:13:58 2019.
Terminated at Mon Jul 15 19:14:01 2019.
Results reported at Mon Jul 15 19:14:01 2019.

Your job looked like:

------------------------------------------------------------
# LSBATCH: User input
./eigen.exec 2650.pf 2650.8.eigen
------------------------------------------------------------

TERM_RUNLIMIT: job killed after reaching LSF run time limit.
Exited with exit code 140.

Resource usage summary:

    CPU time :                                   3599.00 sec.
    Max Memory :                                 64 MB
    Average Memory :                             64.00 MB
    Total Requested Memory :                     512.00 MB
    Delta Memory :                               448.00 MB
    Max Swap :                                   -
    Max Processes :                              3
    Max Threads :                                4
    Run time :                                   3602 sec.
    Turnaround time :                            20575 sec.

The output (if any) is above this job summary.



PS:

Read file <2650.8.error> for stderr output of this job.

