Actually entered program!
Running with size: 2950, Trials: 23, OutputFile: 2950.9.eigen, Appending?: 0

------------------------------------------------------------
Sender: LSF System <lsfadmin@c37b12>
Subject: Job 7737653: <s.2950.9> in cluster <umghpcc> Done

Job <s.2950.9> was submitted from host <ghpcc06> by user <yh58b> in cluster <umghpcc> at Mon Jul 15 13:26:23 2019.
Job was executed on host(s) <c37b12>, in queue <short>, as user <yh58b> in cluster <umghpcc> at Mon Jul 15 13:44:09 2019.
</home/yh58b> was used as the home directory.
</home/yh58b/RMT/2950.singly> was used as the working directory.
Started at Mon Jul 15 13:44:09 2019.
Terminated at Mon Jul 15 14:06:21 2019.
Results reported at Mon Jul 15 14:06:21 2019.

Your job looked like:

------------------------------------------------------------
# LSBATCH: User input
./eigen.exec 2950.pf 2950.9.eigen
------------------------------------------------------------

Successfully completed.

Resource usage summary:

    CPU time :                                   1329.59 sec.
    Max Memory :                                 79 MB
    Average Memory :                             78.79 MB
    Total Requested Memory :                     512.00 MB
    Delta Memory :                               433.00 MB
    Max Swap :                                   -
    Max Processes :                              3
    Max Threads :                                4
    Run time :                                   1331 sec.
    Turnaround time :                            2398 sec.

The output (if any) is above this job summary.



PS:

Read file <2950.9.error> for stderr output of this job.

