Actually entered program!

------------------------------------------------------------
Sender: LSF System <lsfadmin@c17b07>
Subject: Job 7737646: <s.2950.2> in cluster <umghpcc> Exited

Job <s.2950.2> was submitted from host <ghpcc06> by user <yh58b> in cluster <umghpcc> at Mon Jul 15 13:26:22 2019.
Job was executed on host(s) <c17b07>, in queue <short>, as user <yh58b> in cluster <umghpcc> at Mon Jul 15 13:44:02 2019.
</home/yh58b> was used as the home directory.
</home/yh58b/RMT/2950.singly> was used as the working directory.
Started at Mon Jul 15 13:44:02 2019.
Terminated at Mon Jul 15 14:44:16 2019.
Results reported at Mon Jul 15 14:44:16 2019.

Your job looked like:

------------------------------------------------------------
# LSBATCH: User input
./eigen.exec 2950.pf 2950.2.eigen
------------------------------------------------------------

TERM_RUNLIMIT: job killed after reaching LSF run time limit.
Exited with exit code 152.

Resource usage summary:

    CPU time :                                   3612.08 sec.
    Max Memory :                                 77 MB
    Average Memory :                             76.77 MB
    Total Requested Memory :                     512.00 MB
    Delta Memory :                               435.00 MB
    Max Swap :                                   -
    Max Processes :                              3
    Max Threads :                                4
    Run time :                                   3613 sec.
    Turnaround time :                            4674 sec.

The output (if any) is above this job summary.



PS:

Read file <2950.2.error> for stderr output of this job.

