Actually entered program!
Running with size: 250, Trials: 8000, OutputFile: 250.stray.eigen, Appending?: 0

------------------------------------------------------------
Sender: LSF System <lsfadmin@c33b03>
Subject: Job 7736966: <s.250.stray> in cluster <umghpcc> Done

Job <s.250.stray> was submitted from host <ghpcc06> by user <yh58b> in cluster <umghpcc> at Mon Jul 15 13:25:26 2019.
Job was executed on host(s) <c33b03>, in queue <short>, as user <yh58b> in cluster <umghpcc> at Mon Jul 15 13:25:29 2019.
</home/yh58b> was used as the home directory.
</home/yh58b/RMT/250.singly> was used as the working directory.
Started at Mon Jul 15 13:25:29 2019.
Terminated at Mon Jul 15 13:41:12 2019.
Results reported at Mon Jul 15 13:41:12 2019.

Your job looked like:

------------------------------------------------------------
# LSBATCH: User input
./eigen.exec 250.stray.pf 250.stray.eigen
------------------------------------------------------------

Successfully completed.

Resource usage summary:

    CPU time :                                   941.17 sec.
    Max Memory :                                 9 MB
    Average Memory :                             9.00 MB
    Total Requested Memory :                     512.00 MB
    Delta Memory :                               503.00 MB
    Max Swap :                                   -
    Max Processes :                              3
    Max Threads :                                4
    Run time :                                   942 sec.
    Turnaround time :                            946 sec.

The output (if any) is above this job summary.



PS:

Read file <250.stray.error> for stderr output of this job.

