Actually entered program!

------------------------------------------------------------
Sender: LSF System <lsfadmin@c02b05>
Subject: Job 7741409: <d.2600.29> in cluster <umghpcc> Exited

Job <d.2600.29> was submitted from host <ghpcc06> by user <yh58b> in cluster <umghpcc> at Mon Jul 15 13:31:04 2019.
Job was executed on host(s) <c02b05>, in queue <short>, as user <yh58b> in cluster <umghpcc> at Mon Jul 15 18:11:26 2019.
</home/yh58b> was used as the home directory.
</home/yh58b/RMT/2600.doubly> was used as the working directory.
Started at Mon Jul 15 18:11:26 2019.
Terminated at Mon Jul 15 19:11:33 2019.
Results reported at Mon Jul 15 19:11:33 2019.

Your job looked like:

------------------------------------------------------------
# LSBATCH: User input
./eigen.exec 2600.pf 2600.29.eigen
------------------------------------------------------------

TERM_RUNLIMIT: job killed after reaching LSF run time limit.
Exited with exit code 140.

Resource usage summary:

    CPU time :                                   3606.00 sec.
    Max Memory :                                 62 MB
    Average Memory :                             61.73 MB
    Total Requested Memory :                     512.00 MB
    Delta Memory :                               450.00 MB
    Max Swap :                                   -
    Max Processes :                              3
    Max Threads :                                4
    Run time :                                   3607 sec.
    Turnaround time :                            20429 sec.

The output (if any) is above this job summary.



PS:

Read file <2600.29.error> for stderr output of this job.

