Actually entered program!

------------------------------------------------------------
Sender: LSF System <lsfadmin@c07b07>
Subject: Job 7744871: <d.4350.118> in cluster <umghpcc> Exited

Job <d.4350.118> was submitted from host <ghpcc06> by user <yh58b> in cluster <umghpcc> at Mon Jul 15 13:35:13 2019.
Job was executed on host(s) <c07b07>, in queue <short>, as user <yh58b> in cluster <umghpcc> at Mon Jul 15 23:42:45 2019.
</home/yh58b> was used as the home directory.
</home/yh58b/RMT/4350.doubly> was used as the working directory.
Started at Mon Jul 15 23:42:45 2019.
Terminated at Tue Jul 16 00:42:52 2019.
Results reported at Tue Jul 16 00:42:52 2019.

Your job looked like:

------------------------------------------------------------
# LSBATCH: User input
./eigen.exec 4350.pf 4350.118.eigen
------------------------------------------------------------

TERM_RUNLIMIT: job killed after reaching LSF run time limit.
Exited with exit code 140.

Resource usage summary:

    CPU time :                                   2653.60 sec.
    Max Memory :                                 155 MB
    Average Memory :                             155.00 MB
    Total Requested Memory :                     512.00 MB
    Delta Memory :                               357.00 MB
    Max Swap :                                   -
    Max Processes :                              3
    Max Threads :                                4
    Run time :                                   3606 sec.
    Turnaround time :                            40059 sec.

The output (if any) is above this job summary.



PS:

Read file <4350.118.error> for stderr output of this job.

