Actually entered program!
Running with size: 4350, Trials: 3, OutputFile: 4350.29.eigen, Appending?: 0

------------------------------------------------------------
Sender: LSF System <lsfadmin@c19b05>
Subject: Job 7744782: <d.4350.29> in cluster <umghpcc> Done

Job <d.4350.29> was submitted from host <ghpcc06> by user <yh58b> in cluster <umghpcc> at Mon Jul 15 13:35:07 2019.
Job was executed on host(s) <c19b05>, in queue <short>, as user <yh58b> in cluster <umghpcc> at Mon Jul 15 23:25:54 2019.
</home/yh58b> was used as the home directory.
</home/yh58b/RMT/4350.doubly> was used as the working directory.
Started at Mon Jul 15 23:25:54 2019.
Terminated at Tue Jul 16 00:17:36 2019.
Results reported at Tue Jul 16 00:17:36 2019.

Your job looked like:

------------------------------------------------------------
# LSBATCH: User input
./eigen.exec 4350.pf 4350.29.eigen
------------------------------------------------------------

Successfully completed.

Resource usage summary:

    CPU time :                                   3101.22 sec.
    Max Memory :                                 155 MB
    Average Memory :                             155.00 MB
    Total Requested Memory :                     512.00 MB
    Delta Memory :                               357.00 MB
    Max Swap :                                   -
    Max Processes :                              3
    Max Threads :                                4
    Run time :                                   3102 sec.
    Turnaround time :                            38549 sec.

The output (if any) is above this job summary.



PS:

Read file <4350.29.error> for stderr output of this job.

