Actually entered program!
Running with size: 4350, Trials: 3, OutputFile: 4350.152.eigen, Appending?: 0

------------------------------------------------------------
Sender: LSF System <lsfadmin@c09b01>
Subject: Job 7744905: <d.4350.152> in cluster <umghpcc> Done

Job <d.4350.152> was submitted from host <ghpcc06> by user <yh58b> in cluster <umghpcc> at Mon Jul 15 13:35:15 2019.
Job was executed on host(s) <c09b01>, in queue <short>, as user <yh58b> in cluster <umghpcc> at Mon Jul 15 23:48:43 2019.
</home/yh58b> was used as the home directory.
</home/yh58b/RMT/4350.doubly> was used as the working directory.
Started at Mon Jul 15 23:48:43 2019.
Terminated at Tue Jul 16 00:45:40 2019.
Results reported at Tue Jul 16 00:45:40 2019.

Your job looked like:

------------------------------------------------------------
# LSBATCH: User input
./eigen.exec 4350.pf 4350.152.eigen
------------------------------------------------------------

Successfully completed.

Resource usage summary:

    CPU time :                                   3414.45 sec.
    Max Memory :                                 158 MB
    Average Memory :                             156.25 MB
    Total Requested Memory :                     512.00 MB
    Delta Memory :                               354.00 MB
    Max Swap :                                   -
    Max Processes :                              3
    Max Threads :                                4
    Run time :                                   3416 sec.
    Turnaround time :                            40225 sec.

The output (if any) is above this job summary.



PS:

Read file <4350.152.error> for stderr output of this job.

