Actually entered program!
Running with size: 2250, Trials: 28, OutputFile: 2250.2.eigen, Appending?: 0

------------------------------------------------------------
Sender: LSF System <lsfadmin@c36b13>
Subject: Job 7741121: <d.2250.2> in cluster <umghpcc> Done

Job <d.2250.2> was submitted from host <ghpcc06> by user <yh58b> in cluster <umghpcc> at Mon Jul 15 13:30:43 2019.
Job was executed on host(s) <c36b13>, in queue <short>, as user <yh58b> in cluster <umghpcc> at Mon Jul 15 17:34:31 2019.
</home/yh58b> was used as the home directory.
</home/yh58b/RMT/2250.doubly> was used as the working directory.
Started at Mon Jul 15 17:34:31 2019.
Terminated at Mon Jul 15 17:57:06 2019.
Results reported at Mon Jul 15 17:57:06 2019.

Your job looked like:

------------------------------------------------------------
# LSBATCH: User input
./eigen.exec 2250.pf 2250.2.eigen
------------------------------------------------------------

Successfully completed.

Resource usage summary:

    CPU time :                                   1357.10 sec.
    Max Memory :                                 50 MB
    Average Memory :                             49.32 MB
    Total Requested Memory :                     512.00 MB
    Delta Memory :                               462.00 MB
    Max Swap :                                   -
    Max Processes :                              3
    Max Threads :                                4
    Run time :                                   1355 sec.
    Turnaround time :                            15983 sec.

The output (if any) is above this job summary.



PS:

Read file <2250.2.error> for stderr output of this job.

