Actually entered program!
Running with size: 4950, Trials: 4, OutputFile: 4950.72.eigen, Appending?: 0

------------------------------------------------------------
Sender: LSF System <lsfadmin@c40b07>
Subject: Job 7849455: <s.4950.72> in cluster <umghpcc> Done

Job <s.4950.72> was submitted from host <ghpcc06> by user <yh58b> in cluster <umghpcc> at Tue Jul 16 15:39:32 2019.
Job was executed on host(s) <c40b07>, in queue <long>, as user <yh58b> in cluster <umghpcc> at Wed Jul 17 13:13:41 2019.
</home/yh58b> was used as the home directory.
</home/yh58b/RMT/4950.singly> was used as the working directory.
Started at Wed Jul 17 13:13:41 2019.
Terminated at Wed Jul 17 13:31:56 2019.
Results reported at Wed Jul 17 13:31:56 2019.

Your job looked like:

------------------------------------------------------------
# LSBATCH: User input
./eigen.exec 4950.pf 4950.72.eigen
------------------------------------------------------------

Successfully completed.

Resource usage summary:

    CPU time :                                   1094.00 sec.
    Max Memory :                                 198 MB
    Average Memory :                             197.75 MB
    Total Requested Memory :                     256.00 MB
    Delta Memory :                               58.00 MB
    Max Swap :                                   -
    Max Processes :                              3
    Max Threads :                                4
    Run time :                                   1094 sec.
    Turnaround time :                            78744 sec.

The output (if any) is above this job summary.



PS:

Read file <4950.72.error> for stderr output of this job.

