Actually entered program!
Running with size: 4950, Trials: 4, OutputFile: 4950.11.eigen, Appending?: 0

------------------------------------------------------------
Sender: LSF System <lsfadmin@c17b01>
Subject: Job 7849394: <s.4950.11> in cluster <umghpcc> Done

Job <s.4950.11> was submitted from host <ghpcc06> by user <yh58b> in cluster <umghpcc> at Tue Jul 16 15:39:28 2019.
Job was executed on host(s) <c17b01>, in queue <long>, as user <yh58b> in cluster <umghpcc> at Wed Jul 17 13:06:04 2019.
</home/yh58b> was used as the home directory.
</home/yh58b/RMT/4950.singly> was used as the working directory.
Started at Wed Jul 17 13:06:04 2019.
Terminated at Wed Jul 17 13:57:27 2019.
Results reported at Wed Jul 17 13:57:27 2019.

Your job looked like:

------------------------------------------------------------
# LSBATCH: User input
./eigen.exec 4950.pf 4950.11.eigen
------------------------------------------------------------

Successfully completed.

Resource usage summary:

    CPU time :                                   3081.04 sec.
    Max Memory :                                 198 MB
    Average Memory :                             197.74 MB
    Total Requested Memory :                     256.00 MB
    Delta Memory :                               58.00 MB
    Max Swap :                                   -
    Max Processes :                              3
    Max Threads :                                4
    Run time :                                   3082 sec.
    Turnaround time :                            80279 sec.

The output (if any) is above this job summary.



PS:

Read file <4950.11.error> for stderr output of this job.

