Actually entered program!

------------------------------------------------------------
Sender: LSF System <lsfadmin@c30b06>
Subject: Job 7743505: <d.3850.44> in cluster <umghpcc> Exited

Job <d.3850.44> was submitted from host <ghpcc06> by user <yh58b> in cluster <umghpcc> at Mon Jul 15 13:33:35 2019.
Job was executed on host(s) <c30b06>, in queue <short>, as user <yh58b> in cluster <umghpcc> at Mon Jul 15 21:22:00 2019.
</home/yh58b> was used as the home directory.
</home/yh58b/RMT/3850.doubly> was used as the working directory.
Started at Mon Jul 15 21:22:00 2019.
Terminated at Mon Jul 15 22:22:08 2019.
Results reported at Mon Jul 15 22:22:08 2019.

Your job looked like:

------------------------------------------------------------
# LSBATCH: User input
./eigen.exec 3850.pf 3850.44.eigen
------------------------------------------------------------

TERM_RUNLIMIT: job killed after reaching LSF run time limit.
Exited with exit code 140.

Resource usage summary:

    CPU time :                                   3607.00 sec.
    Max Memory :                                 126 MB
    Average Memory :                             125.86 MB
    Total Requested Memory :                     512.00 MB
    Delta Memory :                               386.00 MB
    Max Swap :                                   -
    Max Processes :                              3
    Max Threads :                                4
    Run time :                                   3608 sec.
    Turnaround time :                            31713 sec.

The output (if any) is above this job summary.



PS:

Read file <3850.44.error> for stderr output of this job.

