Actually entered program!

------------------------------------------------------------
Sender: LSF System <lsfadmin@c04b08>
Subject: Job 7745217: <d.4500.8> in cluster <umghpcc> Exited

Job <d.4500.8> was submitted from host <ghpcc06> by user <yh58b> in cluster <umghpcc> at Mon Jul 15 13:35:38 2019.
Job was executed on host(s) <c04b08>, in queue <short>, as user <yh58b> in cluster <umghpcc> at Tue Jul 16 00:19:24 2019.
</home/yh58b> was used as the home directory.
</home/yh58b/RMT/4500.doubly> was used as the working directory.
Started at Tue Jul 16 00:19:24 2019.
Terminated at Tue Jul 16 01:19:34 2019.
Results reported at Tue Jul 16 01:19:34 2019.

Your job looked like:

------------------------------------------------------------
# LSBATCH: User input
./eigen.exec 4500.pf 4500.8.eigen
------------------------------------------------------------

TERM_RUNLIMIT: job killed after reaching LSF run time limit.
Exited with exit code 140.

Resource usage summary:

    CPU time :                                   3608.22 sec.
    Max Memory :                                 165 MB
    Average Memory :                             165.00 MB
    Total Requested Memory :                     512.00 MB
    Delta Memory :                               347.00 MB
    Max Swap :                                   -
    Max Processes :                              3
    Max Threads :                                4
    Run time :                                   3609 sec.
    Turnaround time :                            42236 sec.

The output (if any) is above this job summary.



PS:

Read file <4500.8.error> for stderr output of this job.

