Actually entered program!
Running with size: 4250, Trials: 3, OutputFile: 4250.125.eigen, Appending?: 0

------------------------------------------------------------
Sender: LSF System <lsfadmin@c37b14>
Subject: Job 7739287: <s.4250.125> in cluster <umghpcc> Done

Job <s.4250.125> was submitted from host <ghpcc06> by user <yh58b> in cluster <umghpcc> at Mon Jul 15 13:28:24 2019.
Job was executed on host(s) <c37b14>, in queue <short>, as user <yh58b> in cluster <umghpcc> at Mon Jul 15 15:19:37 2019.
</home/yh58b> was used as the home directory.
</home/yh58b/RMT/4250.singly> was used as the working directory.
Started at Mon Jul 15 15:19:37 2019.
Terminated at Mon Jul 15 15:27:57 2019.
Results reported at Mon Jul 15 15:27:57 2019.

Your job looked like:

------------------------------------------------------------
# LSBATCH: User input
./eigen.exec 4250.pf 4250.125.eigen
------------------------------------------------------------

Successfully completed.

Resource usage summary:

    CPU time :                                   499.26 sec.
    Max Memory :                                 148 MB
    Average Memory :                             148.00 MB
    Total Requested Memory :                     512.00 MB
    Delta Memory :                               364.00 MB
    Max Swap :                                   -
    Max Processes :                              3
    Max Threads :                                4
    Run time :                                   499 sec.
    Turnaround time :                            7173 sec.

The output (if any) is above this job summary.



PS:

Read file <4250.125.error> for stderr output of this job.

