Actually entered program!
Running with size: 4250, Trials: 3, OutputFile: 4250.77.eigen, Appending?: 0

------------------------------------------------------------
Sender: LSF System <lsfadmin@c37b04>
Subject: Job 7739239: <s.4250.77> in cluster <umghpcc> Done

Job <s.4250.77> was submitted from host <ghpcc06> by user <yh58b> in cluster <umghpcc> at Mon Jul 15 13:28:21 2019.
Job was executed on host(s) <c37b04>, in queue <short>, as user <yh58b> in cluster <umghpcc> at Mon Jul 15 15:17:38 2019.
</home/yh58b> was used as the home directory.
</home/yh58b/RMT/4250.singly> was used as the working directory.
Started at Mon Jul 15 15:17:38 2019.
Terminated at Mon Jul 15 15:26:25 2019.
Results reported at Mon Jul 15 15:26:25 2019.

Your job looked like:

------------------------------------------------------------
# LSBATCH: User input
./eigen.exec 4250.pf 4250.77.eigen
------------------------------------------------------------

Successfully completed.

Resource usage summary:

    CPU time :                                   525.76 sec.
    Max Memory :                                 150 MB
    Average Memory :                             150.00 MB
    Total Requested Memory :                     512.00 MB
    Delta Memory :                               362.00 MB
    Max Swap :                                   -
    Max Processes :                              3
    Max Threads :                                4
    Run time :                                   527 sec.
    Turnaround time :                            7084 sec.

The output (if any) is above this job summary.



PS:

Read file <4250.77.error> for stderr output of this job.

