Actually entered program!
Running with size: 4800, Trials: 2, OutputFile: 4800.168.eigen, Appending?: 0

------------------------------------------------------------
Sender: LSF System <lsfadmin@c37b05>
Subject: Job 7746317: <d.4800.168> in cluster <umghpcc> Done

Job <d.4800.168> was submitted from host <ghpcc06> by user <yh58b> in cluster <umghpcc> at Mon Jul 15 13:36:58 2019.
Job was executed on host(s) <c37b05>, in queue <short>, as user <yh58b> in cluster <umghpcc> at Tue Jul 16 02:19:39 2019.
</home/yh58b> was used as the home directory.
</home/yh58b/RMT/4800.doubly> was used as the working directory.
Started at Tue Jul 16 02:19:39 2019.
Terminated at Tue Jul 16 02:42:31 2019.
Results reported at Tue Jul 16 02:42:31 2019.

Your job looked like:

------------------------------------------------------------
# LSBATCH: User input
./eigen.exec 4800.pf 4800.168.eigen
------------------------------------------------------------

Successfully completed.

Resource usage summary:

    CPU time :                                   1369.43 sec.
    Max Memory :                                 189 MB
    Average Memory :                             187.54 MB
    Total Requested Memory :                     512.00 MB
    Delta Memory :                               323.00 MB
    Max Swap :                                   -
    Max Processes :                              3
    Max Threads :                                4
    Run time :                                   1371 sec.
    Turnaround time :                            47133 sec.

The output (if any) is above this job summary.



PS:

Read file <4800.168.error> for stderr output of this job.

