Actually entered program!

------------------------------------------------------------
Sender: LSF System <lsfadmin@c07b02>
Subject: Job 7746198: <d.4800.49> in cluster <umghpcc> Exited

Job <d.4800.49> was submitted from host <ghpcc06> by user <yh58b> in cluster <umghpcc> at Mon Jul 15 13:36:50 2019.
Job was executed on host(s) <c07b02>, in queue <short>, as user <yh58b> in cluster <umghpcc> at Tue Jul 16 02:08:37 2019.
</home/yh58b> was used as the home directory.
</home/yh58b/RMT/4800.doubly> was used as the working directory.
Started at Tue Jul 16 02:08:37 2019.
Terminated at Tue Jul 16 03:08:48 2019.
Results reported at Tue Jul 16 03:08:48 2019.

Your job looked like:

------------------------------------------------------------
# LSBATCH: User input
./eigen.exec 4800.pf 4800.49.eigen
------------------------------------------------------------

TERM_RUNLIMIT: job killed after reaching LSF run time limit.
Exited with exit code 140.

Resource usage summary:

    CPU time :                                   3609.36 sec.
    Max Memory :                                 188 MB
    Average Memory :                             188.00 MB
    Total Requested Memory :                     512.00 MB
    Delta Memory :                               324.00 MB
    Max Swap :                                   -
    Max Processes :                              3
    Max Threads :                                4
    Run time :                                   3611 sec.
    Turnaround time :                            48718 sec.

The output (if any) is above this job summary.



PS:

Read file <4800.49.error> for stderr output of this job.

