Actually entered program!
Running with size: 4800, Trials: 2, OutputFile: 4800.123.eigen, Appending?: 0

------------------------------------------------------------
Sender: LSF System <lsfadmin@c09b03>
Subject: Job 7746272: <d.4800.123> in cluster <umghpcc> Done

Job <d.4800.123> was submitted from host <ghpcc06> by user <yh58b> in cluster <umghpcc> at Mon Jul 15 13:36:55 2019.
Job was executed on host(s) <c09b03>, in queue <short>, as user <yh58b> in cluster <umghpcc> at Tue Jul 16 02:17:18 2019.
</home/yh58b> was used as the home directory.
</home/yh58b/RMT/4800.doubly> was used as the working directory.
Started at Tue Jul 16 02:17:18 2019.
Terminated at Tue Jul 16 03:14:23 2019.
Results reported at Tue Jul 16 03:14:23 2019.

Your job looked like:

------------------------------------------------------------
# LSBATCH: User input
./eigen.exec 4800.pf 4800.123.eigen
------------------------------------------------------------

Successfully completed.

Resource usage summary:

    CPU time :                                   3423.31 sec.
    Max Memory :                                 188 MB
    Average Memory :                             186.25 MB
    Total Requested Memory :                     512.00 MB
    Delta Memory :                               324.00 MB
    Max Swap :                                   -
    Max Processes :                              3
    Max Threads :                                4
    Run time :                                   3425 sec.
    Turnaround time :                            49048 sec.

The output (if any) is above this job summary.



PS:

Read file <4800.123.error> for stderr output of this job.

