Actually entered program!
Running with size: 3600, Trials: 13, OutputFile: 3600.6.eigen, Appending?: 0

------------------------------------------------------------
Sender: LSF System <lsfadmin@c40b05>
Subject: Job 7847057: <s.3600.6> in cluster <umghpcc> Done

Job <s.3600.6> was submitted from host <ghpcc06> by user <yh58b> in cluster <umghpcc> at Tue Jul 16 15:36:39 2019.
Job was executed on host(s) <c40b05>, in queue <long>, as user <yh58b> in cluster <umghpcc> at Tue Jul 16 23:14:16 2019.
</home/yh58b> was used as the home directory.
</home/yh58b/RMT/3600.singly> was used as the working directory.
Started at Tue Jul 16 23:14:16 2019.
Terminated at Tue Jul 16 23:35:35 2019.
Results reported at Tue Jul 16 23:35:35 2019.

Your job looked like:

------------------------------------------------------------
# LSBATCH: User input
./eigen.exec 3600.pf 3600.6.eigen
------------------------------------------------------------

Successfully completed.

Resource usage summary:

    CPU time :                                   1279.30 sec.
    Max Memory :                                 110 MB
    Average Memory :                             109.70 MB
    Total Requested Memory :                     256.00 MB
    Delta Memory :                               146.00 MB
    Max Swap :                                   -
    Max Processes :                              3
    Max Threads :                                4
    Run time :                                   1279 sec.
    Turnaround time :                            28736 sec.

The output (if any) is above this job summary.



PS:

Read file <3600.6.error> for stderr output of this job.

