-2.54854583381
0.0
0.0
1.98266383305
-1.98266383305
3.17712579973
-3.17712579973
0.0
0.0
1.7802984206
-1.7802984206
1.7559021205
-1.7559021205
2.39242726643
-2.39242726643
2.27466640013
-2.27466640013
0.0
0.0
0.0
0.0
0.0
0.0
0.0
0.0
0.0
0.0
2.25787428938
-2.25787428938
2.8471821313
-2.8471821313
2.20619631388
-2.20619631388
0.0
0.0
0.0
0.0
0.0
0.0
0.0
0.0
1.79731801187
-1.79731801187
0.0
0.0
2.10872951981
-2.10872951981
0.0
0.0
1.93687778454
-1.93687778454
0.0
0.0
0.0
0.0
0.0
1.6321570107
-1.6321570107
0.0
0.0
0.0
0.0
0.0
0.0
0.0
0.0
0.0
1.85122744579
-1.85122744579
1.60416295071
-1.60416295071
0.0
0.0
1.83239274219
-1.83239274219
0.0
0.0
0.0
0.0
1.9503225925
-1.9503225925
0.00923144048649
-0.00923144048649
0.00923144048648
-0.00923144048648
0.0
0.0
0.0
0.0
0.0
0.0
1.90573782045
-1.90573782045
1.81131708135
-1.81131708135
0.0
0.0
1.9909065629
-1.9909065629
2.14045168393
-2.14045168393
1.91277871168
-1.91277871168
0.0
0.0
0.0
0.0
2.24255169299
-2.24255169299
2.19138321968
-2.19138321968
2.64677615683
-2.64677615683
1.94886928211
-1.94886928211
1.98824811112
-1.98824811112
0.0
0.0
1.85965035289
-1.85965035289
1.94639750827
-1.94639750827
2.09073969201
-2.09073969201
0.0
0.0
0.0
1.83814399849
-1.83814399849
0.0
0.0
0.0
0.0
0.753178348687
-0.753178348687
1.76091810232
-1.76091810232
0.0
0.0
0.753178348687
-0.753178348687
0.0
0.0
0.0
0.0
0.0
0.0
0.0
1.76975053398
-1.76975053398
1.6158607094
-1.6158607094
1.91208654353
-1.91208654353
1.81050515746
-1.81050515746
1.61513920637
-1.61513920637
1.64572442575
-1.64572442575
1.67140088707
-1.67140088707
0.0
0.0
0.0
0.0
0.0
0.0
0.0
0.0
0.0
0.0
0.0
1.5903730848
-1.5903730848
1.81603238785
-1.81603238785
1.9222031207
-1.9222031207
1.85115458126
-1.85115458126
0.0
0.0
0.0
0.0
0.0
0.0
1.74552749399
-1.74552749399
0.0
0.0
0.0
0.0
0.0381688407781
-0.0381688407781
0.0
0.0
0.0
0.0
0.0
0.0
0.0
0.0
2.23613469183
-2.23613469183
0.0
0.0
0.0
0.0
2.13683307074
-2.13683307074
0.0
0.0
0.0
1.53074356919
-1.53074356919
0.0
0.0
0.0
0.0
0.0
0.0
0.0
0.0
0.0
0.0
1.68062227319
-1.68062227319
0.0
0.0381688407781
-0.0381688407781
0.0
0.0
1.65261595012
-1.65261595012
0.0
0.0
1.82980965872
-1.82980965872
0.0
0.0
0.0
0.0
1.61984178865
-1.61984178865
2.31317351403
-2.31317351403
1.50684125808
-1.50684125808
1.85908560971
-1.85908560971
1.58921730897
-1.58921730897
1.58921730897
-1.58921730897
1.50843787945
-1.50843787945
0.0
1.99952375285
-1.99952375285
0.0
0.0
0.0
0.0
0.0
1.47250657038
-1.47250657038
1.52816484568
-1.52816484568
1.90013138089
-1.90013138089
1.75525815507
-1.75525815507
1.53025949356
-1.53025949356
0.0
0.0
1.71578349371
-1.71578349371
1.65258330111
-1.65258330111
0.0
2.10425625122
-2.10425625122
0.0
1.96429313088
-1.96429313088
2.05660691568
-2.05660691568
0.0
2.11829060761
-2.11829060761
1.96999826369
-1.96999826369
0.0
2.02411203795
-2.02411203795
2.05616906269
-2.05616906269
0.0
0.0
1.85031066387
-1.85031066387
1.79291867445
-1.79291867445
1.72666295665
-1.72666295665
0.0
0.0
0.0
0.0
0.0
0.0
0.0
1.95131963199
-1.95131963199
0.0
0.0
0.0
0.0
1.61255969461
-1.61255969461
1.66379770738
-1.66379770738
0.0
1.77150229325
-1.77150229325
1.7036374364
-1.7036374364
1.8545290999
-1.8545290999
1.69665406005
-1.69665406005
0.0
1.57561905861
-1.57561905861
1.68889344694
-1.68889344694
0.0
1.86164927474
-1.86164927474
0.0
0.0
0.0
1.45013775988
-1.45013775988
0.0
0.135093261148
-0.135093261148
0.0
0.0
1.78756926777
-1.78756926777
1.91316906233
-1.91316906233
1.84560456198
-1.84560456198
1.81839199862
-1.81839199862
1.80571596489
-1.80571596489
0.0
1.78877250221
-1.78877250221
0.0
0.0
1.79425688115
-1.79425688115
0.0
0.0
1.61288984836
-1.61288984836
1.62671257952
-1.62671257952
0.0
0.0
0.0
0.0
1.60021435454
-1.60021435454
1.55368676333
-1.55368676333
1.66444823364
-1.66444823364
0.0
0.0
0.0
0.0
1.58264477608
-1.58264477608
1.58424196991
-1.58424196991
1.53086776655
-1.53086776655
1.63512181459
-1.63512181459
0.0
0.0
1.71945510415
-1.71945510415
0.0
0.0
0.0
0.0
0.0
1.61708604717
-1.61708604717
1.5765849935
-1.5765849935
0.0
1.43776131227
-1.43776131227
0.2010355105
-0.2010355105
0.0
0.0
0.0
0.0
0.0
0.0435044423346
-0.0435044423346
0.0
0.135093261148
-0.135093261148
0.0
0.0
0.0
1.49003977898
-1.49003977898
0.0
0.0
0.0
0.0
1.47448592068
-1.47448592068
0.0
1.48445950544
-1.48445950544
1.62463600735
-1.62463600735
1.62020731288
-1.62020731288
1.59983013112
-1.59983013112
1.49561094495
-1.49561094495
1.5472832796
-1.5472832796
0.0
0.2010355105
-0.2010355105
0.0
0.0
0.0
0.0
0.0
0.0435044423346
-0.0435044423346
0.0
1.60749319362
-1.60749319362
1.41748319341
-1.41748319341
1.54408602528
-1.54408602528
0.0
0.0
1.53113050644
-1.53113050644
1.61228101188
-1.61228101188
0.0
0.0
1.46827786721
-1.46827786721
0.0
1.57460594445
-1.57460594445
1.46096892181
-1.46096892181
0.0
0.0
0.0
1.43748605837
-1.43748605837
1.45829564283
-1.45829564283
1.45422735265
-1.45422735265
0.0
0.0
1.46098339225
-1.46098339225
1.45925608728
-1.45925608728
0.0
0.0
1.51362335896
-1.51362335896
0.0
0.0
0.0
0.0
0.0
1.43475329517
-1.43475329517
1.51389445636
-1.51389445636
1.51477435528
-1.51477435528
0.0
0.0
1.39852037723
-1.39852037723
1.46521454693
-1.46521454693
0.0
0.0
0.0
0.0
1.28870422487
-1.28870422487
0.0
1.28870422487
-1.28870422487
1.49025199984
-1.49025199984
0.0
0.0
0.0
0.0
0.0
0.0
0.0
0.742240941814
-0.742240941814
1.50793075779
-1.50793075779
1.52255304364
-1.52255304364
0.0
0.0
0.0
1.47590088532
-1.47590088532
1.48943280964
-1.48943280964
0.0
1.48943280964
-1.48943280964
0.0
0.0
0.0
0.0
1.37268552008
-1.37268552008
1.36254397686
-1.36254397686
1.40485573952
-1.40485573952
0.0
0.0
0.0
1.36187861851
-1.36187861851
0.0
0.0
0.742240941814
-0.742240941814
0.0
0.0
0.0
0.0
0.0
0.0
1.33671220236
-1.33671220236
0.0
1.40552528875
-1.40552528875
0.0
1.36449742467
-1.36449742467
1.44387158513
-1.44387158513
1.42270269599
-1.42270269599
1.44772976379
-1.44772976379
1.44772976379
-1.44772976379
1.44387158513
-1.44387158513
1.34178043058
-1.34178043058
0.0
0.0
1.34174722371
-1.34174722371
1.32972734498
-1.32972734498
1.3659326159
-1.3659326159
0.0
1.37677731093
-1.37677731093
1.35472200377
-1.35472200377
1.35472200377
-1.35472200377
0.0
1.34174722371
-1.34174722371
0.0
0.0
0.0
0.0
0.0
0.0
0.0
0.0
0.0
0.0
0.0
0.0
1.41777581077
-1.41777581077
1.35558404659
-1.35558404659
0.0
1.33567718586
-1.33567718586
1.38266617489
-1.38266617489
0.0
1.32423357652
-1.32423357652
1.37169714952
-1.37169714952
1.32843734507
-1.32843734507
1.35425439653
-1.35425439653
0.0
0.0
1.36482820916
-1.36482820916
1.38922535675
-1.38922535675
1.33651871871
-1.33651871871
1.34958292578
-1.34958292578
1.30503717021
-1.30503717021
1.32148288004
-1.32148288004
1.32623912254
-1.32623912254
0.0
1.31663911654
-1.31663911654
0.0
0.0
0.0
0.0
0.0
0.0
0.0345497550237
-0.0345497550237
0.0
0.0
0.0
0.0
1.31455954246
-1.31455954246
0.0
0.0
0.0
0.0
1.29440503348
-1.29440503348
0.0
1.32782790207
-1.32782790207
1.33642355269
-1.33642355269
1.3074020263
-1.3074020263
1.32176079352
-1.32176079352
0.0
0.0
0.0
0.0
0.0
0.0
0.0
0.0
1.29101995585
-1.29101995585
0.0
0.0
1.31034882588
-1.31034882588
0.0
0.0
1.3269139135
-1.3269139135
0.0
0.0
0.0
0.0
1.29050265779
-1.29050265779
0.0
1.25563806524
-1.25563806524
0.0
0.0
0.0
1.26057685089
-1.26057685089
1.33375659112
-1.33375659112
0.0
0.0
0.0345497550237
-0.0345497550237
1.12724026113
-1.12724026113
0.0
1.28291127782
-1.28291127782
0.0
1.24035318412
-1.24035318412
1.28993512225
-1.28993512225
0.0
0.0
0.0
0.0
0.0
0.0
0.0
0.0
0.0
0.0
0.0
0.0
0.0
0.0
0.0
1.26612044504
-1.26612044504
0.0
0.0
0.0
0.0
0.0
0.0
0.0
1.12724026113
-1.12724026113
0.0
0.0
0.260402043725
-0.260402043725
0.0
0.0
0.0
1.26528657548
-1.26528657548
0.0
1.25424200745
-1.25424200745
1.25570608975
-1.25570608975
0.0
1.27021809514
-1.27021809514
0.0
0.0
0.0
0.0
0.0
1.24037022435
-1.24037022435
0.0
0.0
1.27021809514
-1.27021809514
0.0
0.0
1.26212663557
-1.26212663557
1.23100950149
-1.23100950149
1.22889342158
-1.22889342158
1.26245697222
-1.26245697222
0.0
0.0
0.0
1.23525005301
-1.23525005301
0.0
1.26077327445
-1.26077327445
1.23284979399
-1.23284979399
0.0
0.0
1.18936502759
-1.18936502759
0.260402043725
-0.260402043725
1.18936502759
-1.18936502759
0.0
1.21499238796
-1.21499238796
0.390890050431
-0.390890050431
1.21499238796
-1.21499238796
0.0
0.0
0.0
0.0
0.0
0.0
0.0
1.26861486004
-1.26861486004
1.25932744593
-1.25932744593
1.26745625464
-1.26745625464
1.26745625464
-1.26745625464
1.26642521776
-1.26642521776
1.21241638473
-1.21241638473
0.257615239643
-0.257615239643
0.987341059334
-0.987341059334
0.0
0.0
0.0
0.390890050431
-0.390890050431
0.0
0.0
0.0
0.0
1.23194999534
-1.23194999534
1.26465433905
-1.26465433905
0.0
1.19615111507
-1.19615111507
1.11281691386
-1.11281691386
0.0
1.22106522362
-1.22106522362
1.19615111507
-1.19615111507
1.22106522362
-1.22106522362
0.0
1.11281691386
-1.11281691386
0.987341059334
-0.987341059334
1.22708789632
-1.22708789632
1.21959979317
-1.21959979317
1.25397998089
-1.25397998089
1.25486407064
-1.25486407064
1.21697180592
-1.21697180592
1.24658642116
-1.24658642116
1.23742739118
-1.23742739118
0.0
0.0
0.257615239643
-0.257615239643
1.24352385965
-1.24352385965
0.0
0.0
0.0
1.18051938261
-1.18051938261
1.20000656487
-1.20000656487
0.0
0.0
1.23412100691
-1.23412100691
1.23792961964
-1.23792961964
1.21727951203
-1.21727951203
1.2213528765
-1.2213528765
1.18039489808
-1.18039489808
1.21745392353
-1.21745392353
0.0
0.0
0.0
0.0
0.0
0.313626741786
-0.313626741786
0.0
1.19791788262
-1.19791788262
0.097245212658
-0.097245212658
1.20639158013
-1.20639158013
0.0
1.2011678954
-1.2011678954
0.0
0.0
0.0
0.0
1.12490649169
-1.12490649169
0.330659739395
-0.330659739395
1.1941295799
-1.1941295799
0.0
0.0
0.0
0.0
0.0
1.12490649169
-1.12490649169
0.0
1.05957032456
-1.05957032456
1.05957032456
-1.05957032456
1.18173934093
-1.18173934093
1.18093831489
-1.18093831489
1.19570045167
-1.19570045167
1.21236246532
-1.21236246532
0.901593334037
-0.901593334037
0.0
0.0
0.0
0.0
0.0
0.0
0.118942855157
-0.118942855157
0.313626741786
-0.313626741786
0.0
0.0
0.0
0.0
0.330659739395
-0.330659739395
0.0
1.1929276125
-1.1929276125
1.16194909534
-1.16194909534
1.19819089271
-1.19819089271
0.0
1.1868291678
-1.1868291678
0.0
0.0
0.0
0.0
1.19507600661
-1.19507600661
0.097245212658
-0.097245212658
0.0
0.0
0.0
1.18582006448
-1.18582006448
0.75232599593
-0.75232599593
1.15984913916
-1.15984913916
1.15133018476
-1.15133018476
0.0
0.901593334037
-0.901593334037
1.1726229479
-1.1726229479
1.17147117426
-1.17147117426
0.0
0.0
0.0
0.0
0.0
0.0
1.19032048105
-1.19032048105
1.1673523555
-1.1673523555
1.12916102157
-1.12916102157
0.0
1.15789897782
-1.15789897782
0.0
0.0888931988859
-0.0888931988859
0.0
1.1809913108
-1.1809913108
0.0
0.0
0.0
0.0
0.75232599593
-0.75232599593
0.0
0.288826281743
-0.288826281743
0.0
0.0
0.0
1.16467075617
-1.16467075617
1.16610406643
-1.16610406643
0.0
0.562625349248
-0.562625349248
0.0
1.1537252801
-1.1537252801
1.16908688314
-1.16908688314
0.0
0.0
0.848071883544
-0.848071883544
1.14799390052
-1.14799390052
0.0
0.0
0.118942855157
-0.118942855157
0.0
1.14230593092
-1.14230593092
0.0
0.0
0.0
0.0
0.0
0.0
0.0
1.15544379595
-1.15544379595
0.0
0.848071883544
-0.848071883544
0.0
1.12025661113
-1.12025661113
1.13957792145
-1.13957792145
0.0
1.15247919511
-1.15247919511
0.0
1.12943213571
-1.12943213571
0.268434841633
-0.268434841633
1.13674892209
-1.13674892209
1.14033171269
-1.14033171269
1.12261989022
-1.12261989022
0.0
1.10727929115
-1.10727929115
0.0
0.0888931988858
-0.0888931988858
0.0
0.562625349248
-0.562625349248
0.0
0.212840836097
-0.212840836097
0.0
1.10334761618
-1.10334761618
1.1409192828
-1.1409192828
1.14031169751
-1.14031169751
1.14352685811
-1.14352685811
1.12229393035
-1.12229393035
1.14107315495
-1.14107315495
1.14359038313
-1.14359038313
1.12742064918
-1.12742064918
1.13814107824
-1.13814107824
0.288826281743
-0.288826281743
1.13885535535
-1.13885535535
0.0
1.12849564723
-1.12849564723
0.0
1.11495323486
-1.11495323486
1.11162009231
-1.11162009231
0.436619641108
-0.436619641108
0.0
1.1127813652
-1.1127813652
0.0
0.0
1.12142834022
-1.12142834022
1.12449037277
-1.12449037277
0.0
0.0
1.09245307244
-1.09245307244
1.10532106846
-1.10532106846
1.07338407072
-1.07338407072
1.08649185773
-1.08649185773
0.0
0.0
1.09178313398
-1.09178313398
1.12012099156
-1.12012099156
0.0
1.11043625459
-1.11043625459
1.08453581847
-1.08453581847
0.0
0.0
0.0
0.0
0.0
1.10883470467
-1.10883470467
1.1009218426
-1.1009218426
0.0
0.268434841633
-0.268434841633
1.09280999214
-1.09280999214
1.09100962317
-1.09100962317
1.07517935506
-1.07517935506
1.10250769238
-1.10250769238
1.06475008299
-1.06475008299
0.212840836097
-0.212840836097
0.96219972864
-0.96219972864
0.436619641108
-0.436619641108
0.0
1.06035950492
-1.06035950492
1.06035950492
-1.06035950492
0.0
0.0
0.0
0.449943079394
-0.449943079394
0.0
0.0
0.0
0.96219972864
-0.96219972864
1.05773656045
-1.05773656045
0.0
0.449943079394
-0.449943079394
0.705026521157
-0.705026521157
1.0870383593
-1.0870383593
1.06032172196
-1.06032172196
1.04170181981
-1.04170181981
1.05803856252
-1.05803856252
0.705026521157
-0.705026521157
0.0
0.0
0.0
1.04815937545
-1.04815937545
1.06824942129
-1.06824942129
0.0
0.0
0.0
0.0
0.0
0.0
0.0765551965599
-0.0765551965599
0.0
0.0
0.0197875534973
-0.0197875534973
0.0
0.0
0.0
0.0
0.59332777268
-0.59332777268
0.0
0.0
0.0
0.0
0.0
0.0
0.0
0.0
0.0
0.0
0.0
0.0
0.0
0.0
0.0
0.0
0.0197875534973
-0.0197875534973
0.0
0.0
0.0
0.0
0.0
0.0
0.0
0.0
0.0
0.0
1.04587837253
-1.04587837253
0.932116113204
-0.932116113204
0.836413666733
-0.836413666733
0.143881487574
-0.143881487574
0.674804407154
-0.674804407154
0.0
0.853220618238
-0.853220618238
0.07655519656
-0.07655519656
0.70749916703
-0.70749916703
0.0
0.0
1.06890122152
-1.06890122152
0.0
0.0
0.0
0.932116113204
-0.932116113204
1.03403758655
-1.03403758655
0.59332777268
-0.59332777268
0.853220618238
-0.853220618238
0.0
0.0
0.0
0.836413666733
-0.836413666733
0.0
1.04653818649
-1.04653818649
0.0
1.03139519087
-1.03139519087
0.0
0.0
0.0
1.03136609091
-1.03136609091
1.05501536682
-1.05501536682
0.70749916703
-0.70749916703
0.674804407154
-0.674804407154
1.04898351317
-1.04898351317
0.0
0.0
0.143881487574
-0.143881487574
0.0
0.0
1.03012782811
-1.03012782811
1.03174694103
-1.03174694103
0.0
0.681946003189
-0.681946003189
0.0
0.0
0.0519908714308
-0.0519908714308
0.681946003189
-0.681946003189
0.0
1.01938802109
-1.01938802109
0.0
0.991520471316
-0.991520471316
0.0
0.538229266278
-0.538229266278
0.0
0.991520471316
-0.991520471316
1.01037836469
-1.01037836469
1.00059321134
-1.00059321134
0.988547447895
-0.988547447895
0.995551754241
-0.995551754241
0.0
0.0
0.0
0.0805543378588
-0.0805543378588
0.0
0.0519908714308
-0.0519908714308
0.0
0.0
1.01364955746
-1.01364955746
1.01876174858
-1.01876174858
0.0
0.0
0.542197534257
-0.542197534257
0.538229266278
-0.538229266278
0.0
1.02123097775
-1.02123097775
1.00814686845
-1.00814686845
1.01563292298
-1.01563292298
0.0
1.01563292298
-1.01563292298
0.0
0.0
0.924007004791
-0.924007004791
1.01352034117
-1.01352034117
0.0
0.0805543378589
-0.0805543378589
0.924007004791
-0.924007004791
0.980008793837
-0.980008793837
0.977890233121
-0.977890233121
0.930770519286
-0.930770519286
1.00229950172
-1.00229950172
0.977890233121
-0.977890233121
0.957867493678
-0.957867493678
1.00079284006
-1.00079284006
0.991256581813
-0.991256581813
0.0
0.957867493678
-0.957867493678
0.0
0.930770519286
-0.930770519286
0.0
0.618471013646
-0.618471013646
0.0
0.821626303133
-0.821626303133
0.0
0.0
0.080211232007
-0.080211232007
0.542197534257
-0.542197534257
0.0
0.975170181909
-0.975170181909
0.992217177559
-0.992217177559
0.985000855661
-0.985000855661
0.961267639575
-0.961267639575
0.974117187103
-0.974117187103
0.0
0.967930348558
-0.967930348558
0.821626303133
-0.821626303133
0.0
0.0
0.0
0.0
0.983003240847
-0.983003240847
0.0
0.0
0.0
0.965594399657
-0.965594399657
0.618471013646
-0.618471013646
0.97104591846
-0.97104591846
0.334124785445
-0.334124785445
0.959702207272
-0.959702207272
0.958014519596
-0.958014519596
0.0
0.801669588887
-0.801669588887
0.104138248629
-0.104138248629
0.969893342485
-0.969893342485
0.275979436692
-0.275979436692
0.0
0.080211232007
-0.080211232007
0.93994317792
-0.93994317792
0.0
0.698241148077
-0.698241148077
0.19405248602
-0.19405248602
0.0
0.93994317792
-0.93994317792
0.0
0.0
0.969451742802
-0.969451742802
0.952432264858
-0.952432264858
0.0
0.952432264858
-0.952432264858
0.947352627133
-0.947352627133
0.0
0.961260883481
-0.961260883481
0.801669588887
-0.801669588887
0.0
0.0
0.0
0.0
0.0
0.334124785445
-0.334124785445
0.960749420199
-0.960749420199
0.0
0.104138248629
-0.104138248629
0.0
0.0
0.0
0.0
0.0
0.962196700347
-0.962196700347
0.275979436692
-0.275979436692
0.698241148077
-0.698241148077
0.942173359752
-0.942173359752
0.19405248602
-0.19405248602
0.0
0.0
0.823740311842
-0.823740311842
0.945065380518
-0.945065380518
0.156014822769
-0.156014822769
0.0
0.102407040712
-0.102407040712
0.937215438526
-0.937215438526
0.0
0.823740311842
-0.823740311842
0.0
0.938459424148
-0.938459424148
0.772973489561
-0.772973489561
0.915786671813
-0.915786671813
0.94181825012
-0.94181825012
0.0
0.0
0.735184700549
-0.735184700549
0.0
0.57162993388
-0.57162993388
0.294250174995
-0.294250174995
0.121450264564
-0.121450264564
0.715996005637
-0.715996005637
0.0
0.0
0.0
0.772973489561
-0.772973489561
0.143634253206
-0.143634253206
0.0532331196221
-0.0532331196221
0.0
0.262427208182
-0.262427208182
0.156014822769
-0.156014822769
0.0
0.0847808375164
-0.0847808375164
0.0
0.102407040712
-0.102407040712
0.735184700549
-0.735184700549
0.0
0.0
0.0
0.57162993388
-0.57162993388
0.715996005637
-0.715996005637
0.294250174995
-0.294250174995
0.0
0.0
0.0
0.0
0.121450264564
-0.121450264564
0.0
0.490244838372
-0.490244838372
0.0
0.0
0.0
0.143634253206
-0.143634253206
0.0532331196221
-0.0532331196221
0.262427208182
-0.262427208182
0.902146040793
-0.902146040793
0.911218274055
-0.911218274055
0.903428674577
-0.903428674577
0.918611427741
-0.918611427741
0.909736568014
-0.909736568014
0.909736568014
-0.909736568014
0.0847808375165
-0.0847808375165
0.916540137845
-0.916540137845
0.0
0.914809997579
-0.914809997579
0.319668723047
-0.319668723047
0.0
0.0
0.0
0.275865659718
-0.275865659718
0.490244838372
-0.490244838372
0.0
0.0
0.0
0.330203114829
-0.330203114829
0.0
0.0
0.319668723047
-0.319668723047
0.878464636687
-0.878464636687
0.878464636687
-0.878464636687
0.884703931316
-0.884703931316
0.0
0.842798726414
-0.842798726414
0.0
0.821515473246
-0.821515473246
0.576777813995
-0.576777813995
0.627925330147
-0.627925330147
0.0
0.881236171711
-0.881236171711
0.899475477241
-0.899475477241
0.0
0.842798726414
-0.842798726414
0.886936147992
-0.886936147992
0.0
0.0
0.893440421561
-0.893440421561
0.895939635861
-0.895939635861
0.894662710559
-0.894662710559
0.039314818456
-0.039314818456
0.89078340028
-0.89078340028
0.141003782912
-0.141003782912
0.0
0.275865659718
-0.275865659718
0.283670219623
-0.283670219623
0.0
0.0
0.0
0.330203114829
-0.330203114829
0.821515473246
-0.821515473246
0.0
0.0
0.763414356765
-0.763414356765
0.884387504552
-0.884387504552
0.858971624052
-0.858971624052
0.14836412749
-0.14836412749
0.78099191269
-0.78099191269
0.87855001278
-0.87855001278
0.627925330147
-0.627925330147
0.0
0.576777813995
-0.576777813995
0.0
0.763414356765
-0.763414356765
0.74449611608
-0.74449611608
0.0
0.78099191269
-0.78099191269
0.0
0.847795692073
-0.847795692073
0.856437581048
-0.856437581048
0.0
0.0
0.870841521544
-0.870841521544
0.856437581048
-0.856437581048
0.283670219623
-0.283670219623
0.847795692073
-0.847795692073
0.141003782912
-0.141003782912
0.0
0.74449611608
-0.74449611608
0.853602157944
-0.853602157944
0.0
0.0
0.0
0.0
0.864227045508
-0.864227045508
0.866962361637
-0.866962361637
0.862045524569
-0.862045524569
0.864724239604
-0.864724239604
0.86690871647
-0.86690871647
0.853273325202
-0.853273325202
0.866374581251
-0.866374581251
0.0
0.866256631194
-0.866256631194
0.846738305526
-0.846738305526
0.852534886697
-0.852534886697
0.850068582623
-0.850068582623
0.0
0.039314818456
-0.039314818456
0.843371198183
-0.843371198183
0.0
0.0
0.862722159029
-0.862722159029
0.0
0.84415005007
-0.84415005007
0.0
0.0
0.84415005007
-0.84415005007
0.735229180996
-0.735229180996
0.329648186687
-0.329648186687
0.14836412749
-0.14836412749
0.0
0.851519098636
-0.851519098636
0.735229180996
-0.735229180996
0.0
0.0
0.134210675165
-0.134210675165
0.839077705744
-0.839077705744
0.0
0.0
0.0
0.0
0.0
0.0
0.0
0.0
0.0
0.0
0.329648186687
-0.329648186687
0.0
0.0
0.0
0.836875879947
-0.836875879947
0.0
0.0
0.0
0.0
0.218770767544
-0.218770767544
0.00534048199699
-0.00534048199699
0.0
0.0
0.604128951766
-0.604128951766
0.760553321828
-0.760553321828
0.151915812245
-0.151915812245
0.760553321828
-0.760553321828
0.0
0.520063461408
-0.520063461408
0.0
0.0
0.0
0.0
0.0
0.0
0.134210675165
-0.134210675165
0.578056817962
-0.578056817962
0.828072070815
-0.828072070815
0.819761662506
-0.819761662506
0.604128951766
-0.604128951766
0.814570832849
-0.814570832849
0.609350803377
-0.609350803377
0.824367838951
-0.824367838951
0.821160817829
-0.821160817829
0.218770767544
-0.218770767544
0.0
0.0
0.0
0.0
0.806484667724
-0.806484667724
0.0
0.806484667724
-0.806484667724
0.0
0.732549170152
-0.732549170152
0.520063461408
-0.520063461408
0.0
0.358536062585
-0.358536062585
0.0
0.578056817962
-0.578056817962
0.0
0.0
0.151915812245
-0.151915812245
0.0
0.0
0.00534048199698
-0.00534048199698
0.609350803377
-0.609350803377
0.732549170152
-0.732549170152
0.0
0.808517815671
-0.808517815671
0.0
0.441328116942
-0.441328116942
0.0
0.0
0.802589863059
-0.802589863059
0.808457484458
-0.808457484458
0.0
0.790698251747
-0.790698251747
0.0
0.804351321538
-0.804351321538
0.801082137946
-0.801082137946
0.0
0.801718301936
-0.801718301936
0.0
0.0
0.0
0.0
0.791505583756
-0.791505583756
0.0
0.791505583756
-0.791505583756
0.798286534586
-0.798286534586
0.0
0.0
0.0
0.0
0.358536062585
-0.358536062585
0.801927378931
-0.801927378931
0.799815356576
-0.799815356576
0.0
0.441328116942
-0.441328116942
0.273029538377
-0.273029538377
0.559702888266
-0.559702888266
0.795260875257
-0.795260875257
0.0
0.797185115507
-0.797185115507
0.0
0.0
0.795781420239
-0.795781420239
0.0
0.0
0.0
0.0
0.0
0.0
0.790481757456
-0.790481757456
0.792013014742
-0.792013014742
0.0
0.771809919828
-0.771809919828
0.788458325596
-0.788458325596
0.0
0.7024265705
-0.7024265705
0.78691413666
-0.78691413666
0.181510686137
-0.181510686137
0.0
0.0
0.778953718166
-0.778953718166
0.0
0.771700627953
-0.771700627953
0.783992438283
-0.783992438283
0.0
0.0
0.0
0.0
0.0
0.0
0.0
0.0
0.0
0.0
0.0
0.0
0.678837566366
-0.678837566366
0.0
0.0
0.563643708351
-0.563643708351
0.0
0.0
0.0
0.0
0.416299976452
-0.416299976452
0.734513862881
-0.734513862881
0.772302742702
-0.772302742702
0.764478892427
-0.764478892427
0.7024265705
-0.7024265705
0.772736322116
-0.772736322116
0.559702888266
-0.559702888266
0.0
0.734513862881
-0.734513862881
0.678837566366
-0.678837566366
0.563643708351
-0.563643708351
0.273029538377
-0.273029538377
0.615009285552
-0.615009285552
0.759889887697
-0.759889887697
0.574634684986
-0.574634684986
0.156201576582
-0.156201576582
0.0
0.0
0.0
0.0
0.416299976452
-0.416299976452
0.0
0.0
0.0
0.0
0.0
0.0
0.0
0.0
0.181510686137
-0.181510686137
0.615009285552
-0.615009285552
0.0
0.761844175407
-0.761844175407
0.753062378813
-0.753062378813
0.574634684986
-0.574634684986
0.753491137791
-0.753491137791
0.757742619452
-0.757742619452
0.0
0.756810374031
-0.756810374031
0.744465467529
-0.744465467529
0.0
0.746288138358
-0.746288138358
0.749410125169
-0.749410125169
0.746086001925
-0.746086001925
0.743290328559
-0.743290328559
0.747749220013
-0.747749220013
0.73899574587
-0.73899574587
0.749563323457
-0.749563323457
0.737594835033
-0.737594835033
0.0
0.747577980109
-0.747577980109
0.0
0.0
0.682206611155
-0.682206611155
0.0
0.0
0.0
0.0
0.730876269358
-0.730876269358
0.730876269358
-0.730876269358
0.0
0.0
0.0
0.0
0.738671695327
-0.738671695327
0.0
0.682206611155
-0.682206611155
0.735095121772
-0.735095121772
0.0
0.0
0.156201576582
-0.156201576582
0.0
0.0
0.0
0.0
0.0
0.0490308581537
-0.0490308581537
0.0
0.0
0.510108547861
-0.510108547861
0.474583083269
-0.474583083269
0.0
0.727877132095
-0.727877132095
0.0
0.728004264208
-0.728004264208
0.226488260133
-0.226488260133
0.597557221175
-0.597557221175
0.722662622534
-0.722662622534
0.658387222464
-0.658387222464
0.0
0.727042969293
-0.727042969293
0.0
0.426631588194
-0.426631588194
0.658387222464
-0.658387222464
0.510108547861
-0.510108547861
0.0
0.0
0.0
0.00785423126
-0.00785423126
0.0
0.0
0.474583083269
-0.474583083269
0.0
0.0
0.0
0.597557221175
-0.597557221175
0.7037885004
-0.7037885004
0.0
0.0
0.709991832664
-0.709991832664
0.0
0.0
0.704288765451
-0.704288765451
0.0490308581537
-0.0490308581537
0.715321304253
-0.715321304253
0.426631588194
-0.426631588194
0.37084302323
-0.37084302323
0.226488260133
-0.226488260133
0.0
0.214556226222
-0.214556226222
0.711015112584
-0.711015112584
0.0
0.37084302323
-0.37084302323
0.459063282146
-0.459063282146
0.468287210582
-0.468287210582
0.459063282146
-0.459063282146
0.468287210582
-0.468287210582
0.214556226222
-0.214556226222
0.0
0.0
0.0
0.703951623883
-0.703951623883
0.699956320484
-0.699956320484
0.0
0.0
0.0
0.698638627093
-0.698638627093
0.0
0.0
0.00785423126004
-0.00785423126004
0.0
0.0
0.0
0.0
0.0
0.695488174363
-0.695488174363
0.691449243551
-0.691449243551
0.692756647094
-0.692756647094
0.691449243551
-0.691449243551
0.0
0.0
0.0888605997014
-0.0888605997014
0.692329984782
-0.692329984782
0.0
0.0
0.588720895933
-0.588720895933
0.148988949005
-0.148988949005
0.260747423618
-0.260747423618
0.0
0.115728615143
-0.115728615143
0.0
0.0
0.0
0.19727582074
-0.19727582074
0.0
0.0
0.0
0.0159620820208
-0.0159620820208
0.686996674601
-0.686996674601
0.0
0.588720895933
-0.588720895933
0.684914501207
-0.684914501207
0.664538496075
-0.664538496075
0.0
0.579829374098
-0.579829374098
0.238302841788
-0.238302841788
0.596698104926
-0.596698104926
0.221235462544
-0.221235462544
0.532271620249
-0.532271620249
0.362685869603
-0.362685869603
0.669390816176
-0.669390816176
0.496414545904
-0.496414545904
0.0
0.579829374098
-0.579829374098
0.0
0.596698104926
-0.596698104926
0.668542030571
-0.668542030571
0.0
0.0
0.0
0.0
0.487885432916
-0.487885432916
0.658076959161
-0.658076959161
0.658076959161
-0.658076959161
0.260747423618
-0.260747423618
0.0
0.0
0.0888605997014
-0.0888605997014
0.532271620249
-0.532271620249
0.0
0.0
0.669275994671
-0.669275994671
0.148988949005
-0.148988949005
0.0
0.115728615143
-0.115728615143
0.0
0.496414545904
-0.496414545904
0.0
0.19727582074
-0.19727582074
0.362685869603
-0.362685869603
0.0
0.238302841788
-0.238302841788
0.221235462544
-0.221235462544
0.0
0.0
0.487885432916
-0.487885432916
0.0
0.0159620820208
-0.0159620820208
0.0
0.0
0.240585382912
-0.240585382912
0.665185351894
-0.665185351894
0.0
0.0
0.658437803636
-0.658437803636
0.0
0.0
0.0
0.658670366199
-0.658670366199
0.658970812272
-0.658970812272
0.658428280114
-0.658428280114
0.0182702978273
-0.0182702978273
0.651555856185
-0.651555856185
0.638071727746
-0.638071727746
0.0975811518678
-0.0975811518678
0.0
0.0
0.647439728567
-0.647439728567
0.240585382912
-0.240585382912
0.0
0.0
0.0
0.00208236630827
-0.00208236630827
0.0
0.0
0.648632504884
-0.648632504884
0.647140201309
-0.647140201309
0.0
0.0
0.0
0.642658954496
-0.642658954496
0.0
0.0
0.0
0.0
0.441189811008
-0.441189811008
0.0
0.0
0.0182702978273
-0.0182702978273
0.0
0.0975811518678
-0.0975811518678
0.491764389584
-0.491764389584
0.228028129839
-0.228028129839
0.125708913532
-0.125708913532
0.441189811008
-0.441189811008
0.0
0.0
0.491764389584
-0.491764389584
0.0
0.0020823663082
-0.0020823663082
0.0
0.215846983021
-0.215846983021
0.633225154282
-0.633225154282
0.0
0.632276093007
-0.632276093007
0.625898455118
-0.625898455118
0.0
0.0
0.0
0.633250986527
-0.633250986527
0.626905307677
-0.626905307677
0.228028129839
-0.228028129839
0.627765100319
-0.627765100319
0.0
0.0
0.621010044993
-0.621010044993
0.626195353871
-0.626195353871
0.625311512388
-0.625311512388
0.623648307005
-0.623648307005
0.623671707811
-0.623671707811
0.0
0.0
0.624180962751
-0.624180962751
0.125708913532
-0.125708913532
0.0
0.61618532463
-0.61618532463
0.334300316189
-0.334300316189
0.617244168725
-0.617244168725
0.575939015413
-0.575939015413
0.575939015413
-0.575939015413
0.215846983021
-0.215846983021
0.612561730737
-0.612561730737
0.0
0.0
0.334300316189
-0.334300316189
0.614279369707
-0.614279369707
0.0
0.444725174349
-0.444725174349
0.215106395477
-0.215106395477
0.611810187669
-0.611810187669
0.60783287338
-0.60783287338
0.444725174349
-0.444725174349
0.591662940557
-0.591662940557
0.59734333499
-0.59734333499
0.601409401628
-0.601409401628
0.598596842904
-0.598596842904
0.548270418197
-0.548270418197
0.592421504315
-0.592421504315
0.602082784342
-0.602082784342
0.548270418197
-0.548270418197
0.0
0.0
0.0
0.0
0.597977936658
-0.597977936658
0.216583567566
-0.216583567566
0.194476412578
-0.194476412578
0.591147445229
-0.591147445229
0.226519902659
-0.226519902659
0.215106395477
-0.215106395477
0.589952517792
-0.589952517792
0.276490023852
-0.276490023852
0.0
0.0
0.0
0.0
0.0
0.0
0.0
0.0
0.0
0.427520157685
-0.427520157685
0.48331452211
-0.48331452211
0.0
0.0
0.0
0.520728522015
-0.520728522015
0.0
0.0
0.0
0.0
0.216583567566
-0.216583567566
0.226519902659
-0.226519902659
0.0
0.194476412578
-0.194476412578
0.48331452211
-0.48331452211
0.0
0.427520157685
-0.427520157685
0.520728522015
-0.520728522015
0.0
0.0
0.576695965812
-0.576695965812
0.0
0.276490023852
-0.276490023852
0.0
0.0
0.0
0.0
0.0
0.0
0.0
0.0
0.0
0.0
0.0
0.0
0.0
0.461486805464
-0.461486805464
0.0
0.0
0.0
0.579487810588
-0.579487810588
0.0
0.0
0.0
0.0
0.0
0.0
0.0
0.0
0.531941130551
-0.531941130551
0.0
0.0
0.531941130551
-0.531941130551
0.0
0.0
0.461486805464
-0.461486805464
0.287989625719
-0.287989625719
0.0
0.0
0.0
0.0
0.0
0.57328919895
-0.57328919895
0.0
0.0
0.567654593692
-0.567654593692
0.568294035151
-0.568294035151
0.0
0.0
0.0
0.569004149196
-0.569004149196
0.0
0.287989625719
-0.287989625719
0.442594005339
-0.442594005339
0.0
0.293713110745
-0.293713110745
0.0
0.0
0.442594005339
-0.442594005339
0.561960190522
-0.561960190522
0.0
0.293713110745
-0.293713110745
0.0
0.556760206211
-0.556760206211
0.0
0.111368485638
-0.111368485638
0.0
0.55110257039
-0.55110257039
0.0319568633787
-0.0319568633787
0.543118340709
-0.543118340709
0.0378047416523
-0.0378047416523
0.550414103942
-0.550414103942
0.0
0.550596381283
-0.550596381283
0.111368485638
-0.111368485638
0.549817132317
-0.549817132317
0.153306720851
-0.153306720851
0.547111128816
-0.547111128816
0.546480798404
-0.546480798404
0.0
0.0
0.0319568633787
-0.0319568633787
0.0
0.548453525467
-0.548453525467
0.0378047416523
-0.0378047416523
0.533805945836
-0.533805945836
0.539827887343
-0.539827887343
0.0
0.0
0.0
0.153306720851
-0.153306720851
0.543386121328
-0.543386121328
0.0
0.223856711997
-0.223856711997
0.0
0.0
0.0
0.223856711997
-0.223856711997
0.419446345592
-0.419446345592
0.0
0.0
0.0
0.0
0.419446345592
-0.419446345592
0.0
0.0
0.43403211245
-0.43403211245
0.532432678792
-0.532432678792
0.131254309926
-0.131254309926
0.403048558092
-0.403048558092
0.43403211245
-0.43403211245
0.531927969062
-0.531927969062
0.520260046009
-0.520260046009
0.530789197194
-0.530789197194
0.403048558092
-0.403048558092
0.131254309926
-0.131254309926
0.0
0.526152521681
-0.526152521681
0.0
0.0
0.518244011332
-0.518244011332
0.426616349477
-0.426616349477
0.0
0.426616349477
-0.426616349477
0.519603404178
-0.519603404178
0.519816049138
-0.519816049138
0.275366226242
-0.275366226242
0.0
0.0
0.275366226242
-0.275366226242
0.134328312333
-0.134328312333
0.0
0.0
0.0
0.0
0.134328312333
-0.134328312333
0.0
0.0
0.0
0.0
0.511971920759
-0.511971920759
0.0
0.0
0.50116591009
-0.50116591009
0.496639449721
-0.496639449721
0.496098017001
-0.496098017001
0.502969711539
-0.502969711539
0.497757539243
-0.497757539243
0.502053633048
-0.502053633048
0.499777956537
-0.499777956537
0.501214161282
-0.501214161282
0.0
0.0
0.0
0.0
0.488605874101
-0.488605874101
0.0
0.0
0.0
0.0
0.0
0.0
0.484693876206
-0.484693876206
0.493418493979
-0.493418493979
0.472187827382
-0.472187827382
0.0
0.0
0.0
0.112350683487
-0.112350683487
0.472187827382
-0.472187827382
0.111212114812
-0.111212114812
0.332569332127
-0.332569332127
0.157918799671
-0.157918799671
0.0
0.452096485609
-0.452096485609
0.452096485609
-0.452096485609
0.406521066408
-0.406521066408
0.333110773907
-0.333110773907
0.405490049514
-0.405490049514
0.406521066408
-0.406521066408
0.485694383042
-0.485694383042
0.474962351897
-0.474962351897
0.48162892513
-0.48162892513
0.483209227179
-0.483209227179
0.482517178941
-0.482517178941
0.474962351897
-0.474962351897
0.480298881619
-0.480298881619
0.0
0.0
0.405490049514
-0.405490049514
0.480866569011
-0.480866569011
0.0
0.0
0.332569332127
-0.332569332127
0.47542153409
-0.47542153409
0.0
0.0
0.477889776925
-0.477889776925
0.0
0.0
0.333110773907
-0.333110773907
0.0
0.0
0.0
0.112350683487
-0.112350683487
0.111212114812
-0.111212114812
0.157918799671
-0.157918799671
0.0
0.296708885584
-0.296708885584
0.0
0.0
0.276759227551
-0.276759227551
0.457989688713
-0.457989688713
0.114050522888
-0.114050522888
0.0
0.0
0.459949428386
-0.459949428386
0.296708885584
-0.296708885584
0.0
0.0
0.0
0.0
0.458009640361
-0.458009640361
0.0
0.276759227551
-0.276759227551
0.0
0.0
0.458354907345
-0.458354907345
0.0
0.457044785887
-0.457044785887
0.0
0.0
0.114050522888
-0.114050522888
0.0
0.0
0.0
0.322343517713
-0.322343517713
0.454985149748
-0.454985149748
0.452203745677
-0.452203745677
0.442989820388
-0.442989820388
0.442989820388
-0.442989820388
0.243546633135
-0.243546633135
0.442010861981
-0.442010861981
0.427339070312
-0.427339070312
0.427339070312
-0.427339070312
0.40907095183
-0.40907095183
0.448315947261
-0.448315947261
0.40907095183
-0.40907095183
0.322343517713
-0.322343517713
0.446743531632
-0.446743531632
0.44165162517
-0.44165162517
0.0
0.444708758069
-0.444708758069
0.443776391351
-0.443776391351
0.405956128535
-0.405956128535
0.405956128535
-0.405956128535
0.436137214105
-0.436137214105
0.0
0.243546633135
-0.243546633135
0.0
0.0
0.0
0.0
0.432136452802
-0.432136452802
0.0
0.0
0.232343597811
-0.232343597811
0.272071727208
-0.272071727208
0.260705244082
-0.260705244082
0.395670962338
-0.395670962338
0.395670962338
-0.395670962338
0.0
0.426448981456
-0.426448981456
0.427986249847
-0.427986249847
0.232343597811
-0.232343597811
0.272071727208
-0.272071727208
0.260705244082
-0.260705244082
0.0
0.423001586041
-0.423001586041
0.0468366660602
-0.0468366660602
0.423980165464
-0.423980165464
0.0
0.0
0.422008796097
-0.422008796097
0.0
0.418813590839
-0.418813590839
0.293898927595
-0.293898927595
0.409219202819
-0.409219202819
0.0
0.293898927595
-0.293898927595
0.0468366660602
-0.0468366660602
0.41285829321
-0.41285829321
0.413493744857
-0.413493744857
0.0
0.201401410601
-0.201401410601
0.406977632616
-0.406977632616
0.16518483936
-0.16518483936
0.0
0.0
0.0
0.0
0.201401410601
-0.201401410601
0.0
0.0
0.40340940734
-0.40340940734
0.0
0.16518483936
-0.16518483936
0.401763715762
-0.401763715762
0.0
0.0
0.0
0.0
0.0
0.0
0.0450731501988
-0.0450731501988
0.0
0.0
0.0
0.0
0.0
0.0
0.0
0.0450731501988
-0.0450731501988
0.0
0.00720331330222
-0.00720331330222
0.400541933192
-0.400541933192
0.0
0.00720331330222
-0.00720331330222
0.396531501089
-0.396531501089
0.0
0.0
0.0
0.0
0.38899926403
-0.38899926403
0.378271252658
-0.378271252658
0.246063851557
-0.246063851557
0.246063851557
-0.246063851557
0.304828979352
-0.304828979352
0.304828979352
-0.304828979352
0.386045490671
-0.386045490671
0.381054130461
-0.381054130461
0.0
0.0
0.382576436534
-0.382576436534
0.282267325674
-0.282267325674
0.0
0.0
0.379056035222
-0.379056035222
0.374482590801
-0.374482590801
0.282267325674
-0.282267325674
0.377876552906
-0.377876552906
0.0
0.0
0.0
0.36893196802
-0.36893196802
0.0
0.0
0.0
0.37106261629
-0.37106261629
0.0
0.0
0.0
0.362817821178
-0.362817821178
0.0
0.0
0.0
0.0
0.355830797672
-0.355830797672
0.0
0.0
0.0
0.0
0.0
0.0
0.0
0.0
0.0
0.0
0.0
0.0
0.0
0.0
0.0
0.0
0.0
0.0
0.0
0.025632499723
-0.025632499723
0.301803281533
-0.301803281533
0.0
0.0
0.0
0.301803281533
-0.301803281533
0.356773155881
-0.356773155881
0.0
0.0
0.351477538932
-0.351477538932
0.355742602415
-0.355742602415
0.0
0.025632499723
-0.025632499723
0.354272064641
-0.354272064641
0.0
0.0
0.190639128903
-0.190639128903
0.0
0.348977795057
-0.348977795057
0.0
0.190639128903
-0.190639128903
0.0
0.344879316781
-0.344879316781
0.0
0.343956078532
-0.343956078532
0.0
0.0
0.340991117279
-0.340991117279
0.338302468641
-0.338302468641
0.0
0.0
0.0
0.0
0.3335536765
-0.3335536765
0.336516477369
-0.336516477369
0.334416711749
-0.334416711749
0.141223934135
-0.141223934135
0.0
0.0
0.0
0.0
0.199011192964
-0.199011192964
0.0
0.0
0.334310683764
-0.334310683764
0.23891934991
-0.23891934991
0.141223934135
-0.141223934135
0.199011192964
-0.199011192964
0.23891934991
-0.23891934991
0.330343422949
-0.330343422949
0.326808787832
-0.326808787832
0.0
0.0
0.322624639918
-0.322624639918
0.0
0.0
0.32051975127
-0.32051975127
0.319578295198
-0.319578295198
0.0644237036836
-0.0644237036836
0.317185189574
-0.317185189574
0.314628836339
-0.314628836339
0.311880592154
-0.311880592154
0.313560876991
-0.313560876991
0.30890485782
-0.30890485782
0.302103949149
-0.302103949149
0.302217311133
-0.302217311133
0.306895430677
-0.306895430677
0.297725435025
-0.297725435025
0.305249855964
-0.305249855964
0.294516007062
-0.294516007062
0.303019593287
-0.303019593287
0.301844857849
-0.301844857849
0.299794097448
-0.299794097448
0.0644237036836
-0.0644237036836
0.0
0.29642427324
-0.29642427324
0.0
0.0
0.0
0.0
0.0
0.0
0.280859239856
-0.280859239856
0.280859239856
-0.280859239856
0.0
0.0
0.134654981268
-0.134654981268
0.0
0.284635089405
-0.284635089405
0.28970196823
-0.28970196823
0.288869597055
-0.288869597055
0.134654981268
-0.134654981268
0.10730626119
-0.10730626119
0.0173839800043
-0.0173839800043
0.274133747507
-0.274133747507
0.0
0.274133747507
-0.274133747507
0.0173839800043
-0.0173839800043
0.0
0.0
0.10730626119
-0.10730626119
0.0
0.0
0.0
0.0
0.277959860504
-0.277959860504
0.0
0.0
0.0
0.0715310795946
-0.0715310795946
0.0
0.0
0.275110937132
-0.275110937132
0.0
0.0
0.0
0.0
0.0715310795946
-0.0715310795946
0.0
0.0
0.275298423359
-0.275298423359
0.0
0.0
0.244099464242
-0.244099464242
0.244099464242
-0.244099464242
0.0233547006923
-0.0233547006923
0.264798102525
-0.264798102525
0.0233547006923
-0.0233547006923
0.266449122411
-0.266449122411
0.248746652264
-0.248746652264
0.248746652264
-0.248746652264
0.0
0.0
0.0
0.0
0.0
0.0
0.0
0.0
0.0535303011856
-0.0535303011856
0.264800490054
-0.264800490054
0.0
0.0
0.0
0.0
0.0535303011856
-0.0535303011856
0.0
0.0
0.0
0.0
0.0
0.0
0.256745315263
-0.256745315263
0.25681269537
-0.25681269537
0.0
0.255451362015
-0.255451362015
0.251894424931
-0.251894424931
0.0
0.252872737345
-0.252872737345
0.0
0.0
0.0
0.0
0.0
0.0
0.252483468485
-0.252483468485
0.0
0.0
0.245087720448
-0.245087720448
0.233390855015
-0.233390855015
0.2368445536
-0.2368445536
0.239565570823
-0.239565570823
0.237763853794
-0.237763853794
0.228630502541
-0.228630502541
0.228630502541
-0.228630502541
0.235237543492
-0.235237543492
0.227968310659
-0.227968310659
0.227968310659
-0.227968310659
0.234654032716
-0.234654032716
0.0
0.0729276015122
-0.0729276015122
0.0
0.227313658308
-0.227313658308
0.0729276015122
-0.0729276015122
0.0
0.226600384774
-0.226600384774
0.0
0.0
0.0
0.222535321727
-0.222535321727
0.0
0.0
0.219858227815
-0.219858227815
0.0
0.0
0.0
0.0
0.0474711773311
-0.0474711773311
0.0
0.0474711773311
-0.0474711773311
0.0
0.198532703463
-0.198532703463
0.198532703463
-0.198532703463
0.208085091458
-0.208085091458
0.0
0.0
0.0
0.0
0.0
0.206109345184
-0.206109345184
0.200674127994
-0.200674127994
0.204182233286
-0.204182233286
0.201797291049
-0.201797291049
0.198323086009
-0.198323086009
0.0
0.0
0.0
0.0
0.0
0.199162826465
-0.199162826465
0.0
0.0
0.0
0.0
0.0
0.0
0.186096145789
-0.186096145789
0.185251716615
-0.185251716615
0.183161268395
-0.183161268395
0.0
0.0
0.0
0.0
0.0
0.0
0.105424680726
-0.105424680726
0.144535455629
-0.144535455629
0.105424680726
-0.105424680726
0.0999819999875
-0.0999819999875
0.144535455629
-0.144535455629
0.0
0.0
0.112211071757
-0.112211071757
0.0999819999875
-0.0999819999875
0.112211071757
-0.112211071757
0.0
0.0
0.178841118613
-0.178841118613
0.0
0.0
0.17656528253
-0.17656528253
0.175220358585
-0.175220358585
0.174182874833
-0.174182874833
0.167728410388
-0.167728410388
0.170199939034
-0.170199939034
0.172354124812
-0.172354124812
0.171934886052
-0.171934886052
0.169260665591
-0.169260665591
0.169903808252
-0.169903808252
0.169864865465
-0.169864865465
0.170510617914
-0.170510617914
0.0
0.166871088273
-0.166871088273
0.161185918996
-0.161185918996
0.0
0.165833055302
-0.165833055302
0.0
0.0
0.163564643573
-0.163564643573
0.0
0.0
0.162189755032
-0.162189755032
0.0
0.0
0.15510443808
-0.15510443808
0.149188893718
-0.149188893718
0.14767378316
-0.14767378316
0.147936782905
-0.147936782905
0.0
0.0312395828016
-0.0312395828016
0.0
0.0
0.0563678479815
-0.0563678479815
0.0
0.0
0.0
0.139624277266
-0.139624277266
0.0
0.0
0.0312395828016
-0.0312395828016
0.0563678479815
-0.0563678479815
0.0
0.0
0.101407311823
-0.101407311823
0.135294808923
-0.135294808923
0.101407311823
-0.101407311823
0.0
0.0
0.130565760318
-0.130565760318
0.130749309386
-0.130749309386
0.0
0.0
0.127909803872
-0.127909803872
0.127128148517
-0.127128148517
0.0
0.125191017774
-0.125191017774
0.12568875161
-0.12568875161
0.0
0.119294413683
-0.119294413683
0.119294413683
-0.119294413683
0.0
0.117062776367
-0.117062776367
0.0
0.115377322752
-0.115377322752
0.115257302394
-0.115257302394
0.0
0.0
0.108606588404
-0.108606588404
0.109565216259
-0.109565216259
0.106417786979
-0.106417786979
0.0650146618106
-0.0650146618106
0.0
0.0650146618106
-0.0650146618106
0.0
0.0
0.0
0.0
0.101272220772
-0.101272220772
0.0
0.09841975482
-0.09841975482
0.0
0.0
0.0
0.0
0.0
0.0956336348853
-0.0956336348853
0.0370001272885
-0.0370001272885
0.0956529802406
-0.0956529802406
0.0
0.0370001272885
-0.0370001272885
0.0932480032413
-0.0932480032413
0.092627736031
-0.092627736031
0.0456392456594
-0.0456392456594
0.0859430766496
-0.0859430766496
0.0456392456594
-0.0456392456594
0.0860046107221
-0.0860046107221
0.0866523819119
-0.0866523819119
0.0819568276845
-0.0819568276845
0.0819568276845
-0.0819568276845
0.0
0.0804498018006
-0.0804498018006
0.0
0.0
0.0
0.0
0.0815224750633
-0.0815224750633
0.0
0.0
0.0
0.0
0.0
0.0262612897671
-0.0262612897671
0.0
0.0262612897671
-0.0262612897671
0.0775098467577
-0.0775098467577
0.0
0.0
0.0
0.0
0.0
0.0
0.0
0.0734841044746
-0.0734841044746
0.0
0.0
0.0745272254645
-0.0745272254645
0.0181277461755
-0.0181277461755
0.0181277461755
-0.0181277461755
0.0288106833871
-0.0288106833871
0.0288106833871
-0.0288106833871
0.0
0.0
0.0668898792384
-0.0668898792384
0.0675457743714
-0.0675457743714
0.0680525907878
-0.0680525907878
0.067621536687
-0.067621536687
0.052584358511
-0.052584358511
0.052584358511
-0.052584358511
0.0657550306795
-0.0657550306795
0.0649526436305
-0.0649526436305
0.0642273412266
-0.0642273412266
0.0642397344044
-0.0642397344044
0.0
0.0
0.0
0.0
0.0
0.0
0.0
0.0
0.0566664928225
-0.0566664928225
0.0
0.0
0.0557636752642
-0.0557636752642
0.0556259071299
-0.0556259071299
0.055537812964
-0.055537812964
0.0548594260824
-0.0548594260824
0.0530876310032
-0.0530876310032
0.0
0.0
0.0511342755713
-0.0511342755713
0.0519593227164
-0.0519593227164
0.0
0.0
0.0
0.0
0.0
0.0
0.0484890299176
-0.0484890299176
0.0467681170635
-0.0467681170635
0.0231048011894
-0.0231048011894
0.0231048011894
-0.0231048011894
0.0462943722598
-0.0462943722598
0.0461991118542
-0.0461991118542
0.042712110375
-0.042712110375
0.0
0.0
0.0
0.0
0.0
0.0
0.0
0.0
0.0382828289285
-0.0382828289285
0.0359798638687
-0.0359798638687
0.0359798638687
-0.0359798638687
0.0348461044082
-0.0348461044082
0.0347710193758
-0.0347710193758
0.0323886167336
-0.0323886167336
0.0322119311126
-0.0322119311126
0.0264471510424
-0.0264471510424
0.0
0.0
0.0
0.0
0.0
0.0
0.0221727884201
-0.0221727884201
0.0
0.0
0.0
0.0
0.0201201345941
-0.0201201345941
0.0
0.0
0.0184605744364
-0.0184605744364
0.0
0.0
0.0171641624379
-0.0171641624379
0.0171641624379
-0.0171641624379
0.0
0.0
0.015167314848
-0.015167314848
0.015167314848
-0.015167314848
0.0119165620654
-0.0119165620654
0.0117413005379
-0.0117413005379
0.0
0.0
0.0
0.0
0.0099112017756
-0.0099112017756
0.00979729627522
-0.00979729627522
0.0
0.00472171220012
-0.00472171220012
0.00472171220012
-0.00472171220012
0.0
0.0
0.0
0.00792323339352
-0.00792323339352
0.008082556969
-0.008082556969
0.00691501252368
-0.00691501252368
0.00712019480273
-0.00712019480273
0.0
0.0
0.0
0.0
0.00494169229947
-0.00494169229947
0.00527281259034
-0.00527281259034
0.00516036715719
-0.00516036715719
0.00476055872182
-0.00476055872182
0.00386109505469
-0.00386109505469
0.0
0.0
0.0
0.0
0.0
0.0
0.0029754297993
-0.0029754297993
0.00227932150326
-0.00227932150326
0.0
0.0
0.0
0.0
0.0
0.0
0.00133256955458
-0.00133256955458
0.0
0.0
0.0
0.0
0.00105304503536
-0.00105304503536
0.0
0.0
0.0
0.0
0.000453769095813
-0.000453769095813
0.0
0.0
0.000384853102977
-0.000384853102977
0.000303602212108
-0.000303602212108
0.000268767161578
-0.000268767161578
0.0
0.0
8.34755065104e-05
-8.34755065104e-05
5.20862066429e-05
-5.20862066429e-05
0.0
0.0
1.83883449528e-06
-1.83883449528e-06
0.0
1.83883449528e-06
-1.83883449528e-06
0.0
2.78855101101e-06
-2.78855101101e-06
1.63644946316e-07
-1.63644946316e-07
1.19793731359e-08
-1.19793731359e-08
1.4391401266e-09
-1.4391401266e-09
0.0
0.0
0.0
0.0
0.0
0.0
0.0
0.0
2.28719907071
-2.28719907071
1.77048293596
-1.77048293596
1.73292242954
-1.73292242954
0.0
2.39302743801
-2.39302743801
0.0
0.0
1.99127344721
-1.99127344721
2.01769722326
-2.01769722326
0.0
0.0
1.75805750777
-1.75805750777
0.0
0.0
1.68892490383
-1.68892490383
1.63298463281
-1.63298463281
1.4940766718
-1.4940766718
1.62942922369
-1.62942922369
1.76900364042
-1.76900364042
0.0
0.0
0.0
0.0
0.0
0.0
0.0
0.0
2.13703451853
-2.13703451853
2.12818080991
-2.12818080991
0.0
0.0
2.60273600244
-2.60273600244
0.0
0.0
0.0
0.0
0.0
0.0
1.98827056377
-1.98827056377
0.0
0.0
0.0
0.0
2.18295525594
-2.18295525594
0.0
0.0
0.0
0.0
0.0
0.0
0.0
0.0
0.0
0.0
0.0
0.0
0.0
1.73170684529
-1.73170684529
0.0
1.74892465364
-1.74892465364
1.79363510102
-1.79363510102
1.73111205902
-1.73111205902
2.04897979758
-2.04897979758
2.04897979758
-2.04897979758
1.6816343154
-1.6816343154
2.11696485306
-2.11696485306
1.49154718509
-1.49154718509
1.5719818824
-1.5719818824
1.78159211944
-1.78159211944
1.96036672292
-1.96036672292
0.0
0.0
0.0
0.0
2.14761905947
-2.14761905947
2.16280458498
-2.16280458498
0.0
0.0
2.36068947718
-2.36068947718
2.76821812053
-2.76821812053
2.38033661148
-2.38033661148
1.90554871935
-1.90554871935
2.23059316114
-2.23059316114
2.41268949144
-2.41268949144
2.25806968553
-2.25806968553
1.75512753748
-1.75512753748
2.20654164902
-2.20654164902
1.91598124564
-1.91598124564
0.0
2.33506385029
-2.33506385029
2.03173945713
-2.03173945713
0.0
2.00844698293
-2.00844698293
1.96186025664
-1.96186025664
0.0
0.0
0.0
0.0
2.05496388421
-2.05496388421
1.62194918543
-1.62194918543
1.62194918543
-1.62194918543
0.0
0.0
0.0
0.0
1.64942318892
-1.64942318892
1.64272561637
-1.64272561637
1.82199210201
-1.82199210201
0.0
2.26603277027
-2.26603277027
0.0
0.0
0.0
0.0
0.0
1.5474844453
-1.5474844453
1.91627624704
-1.91627624704
0.0
0.0
0.0
0.0
0.0
0.0
1.82938430086
-1.82938430086
0.0
0.0
2.12080278534
-2.12080278534
2.30667530998
-2.30667530998
2.06260914083
-2.06260914083
1.80435561764
-1.80435561764
0.0
0.0
0.0
0.0
0.0
0.0
0.0
0.0
0.0
0.0
0.0
0.0
2.00247673544
-2.00247673544
0.0
0.0
0.0
0.0
1.91271899471
-1.91271899471
0.0
0.0
1.82373788367
-1.82373788367
1.89135502402
-1.89135502402
0.0
0.0
0.0
0.0
0.0
0.0
0.0
0.0
1.82614714092
-1.82614714092
0.0
0.0
1.9049291247
-1.9049291247
0.0
0.0
0.0
0.0
0.0
0.0
0.0
0.0
1.94349767694
-1.94349767694
1.67904717722
-1.67904717722
0.0
0.0
0.0
1.77167103773
-1.77167103773
1.6749283813
-1.6749283813
1.55303343137
-1.55303343137
0.0
1.67057494196
-1.67057494196
1.56810945214
-1.56810945214
1.64260185252
-1.64260185252
0.0
0.0
0.0
0.0
0.0
0.0
0.0
0.0
0.0
1.59645364821
-1.59645364821
1.53964008588
-1.53964008588
0.0
0.0
1.79078606595
-1.79078606595
1.52648077227
-1.52648077227
0.0
0.0
1.64783574399
-1.64783574399
1.6532619295
-1.6532619295
1.8100011493
-1.8100011493
1.64742766081
-1.64742766081
1.74700404294
-1.74700404294
0.0
0.0
1.68450861843
-1.68450861843
1.70667483093
-1.70667483093
0.0
0.0
1.75143421629
-1.75143421629
1.49095438809
-1.49095438809
0.0
1.56896962167
-1.56896962167
1.55984466026
-1.55984466026
1.66483543517
-1.66483543517
0.0
0.0
0.0
0.0
1.60436627922
-1.60436627922
0.0
0.0
0.0
0.0
0.0
1.49810119053
-1.49810119053
1.56407227443
-1.56407227443
1.48629534421
-1.48629534421
1.41208240554
-1.41208240554
1.60504436834
-1.60504436834
1.40266883941
-1.40266883941
1.45795290224
-1.45795290224
1.53555886912
-1.53555886912
0.0
0.0
1.53610567571
-1.53610567571
1.65533003446
-1.65533003446
0.0
0.0
1.46163572732
-1.46163572732
1.47342104137
-1.47342104137
1.40266883941
-1.40266883941
0.0
0.0
0.0
1.50599629287
-1.50599629287
0.0
0.0
0.0
0.0
0.0
0.0
0.0
0.0
0.0
0.0
0.0
0.0
1.51436304555
-1.51436304555
0.0
0.0
0.0
1.49438005358
-1.49438005358
0.0
0.0
0.0
0.0
0.0
0.0
1.69192805131
-1.69192805131
0.0
1.50318467683
-1.50318467683
1.50318467683
-1.50318467683
0.0
0.0
0.0
1.5141442624
-1.5141442624
0.0
1.76360027091
-1.76360027091
0.0
0.0
0.0
1.709128008
-1.709128008
0.0
1.60470506906
-1.60470506906
0.0
0.0
1.68276692033
-1.68276692033
1.61423986921
-1.61423986921
0.0
0.0
0.0
0.0
0.0
0.0
0.0
1.66211514424
-1.66211514424
1.57426343017
-1.57426343017
0.0
0.0
0.0
0.0
0.0
1.61536001334
-1.61536001334
1.53712480011
-1.53712480011
1.54471663951
-1.54471663951
0.0
1.48958208419
-1.48958208419
1.57521423962
-1.57521423962
0.0
0.0
0.0
0.0
1.4751633705
-1.4751633705
1.49070343546
-1.49070343546
1.5163684916
-1.5163684916
1.57621458436
-1.57621458436
0.0
0.0
0.0
0.0
0.0
0.0
0.0
0.0
0.0
1.52874113152
-1.52874113152
0.0
0.0
0.0
0.0
1.48480249093
-1.48480249093
0.0
0.0
1.25129262228
-1.25129262228
0.0
0.0
0.0
1.25129262228
-1.25129262228
1.42213359751
-1.42213359751
0.0
0.0
1.47931454334
-1.47931454334
0.0
1.43019234198
-1.43019234198
1.40262067001
-1.40262067001
0.0
0.0
0.563959653899
-0.563959653899
0.563959653899
-0.563959653899
0.0
1.3163016391
-1.3163016391
1.3163016391
-1.3163016391
1.54561851668
-1.54561851668
0.536522997556
-0.536522997556
0.0
0.0
0.423856660607
-0.423856660607
0.536522997556
-0.536522997556
0.0
1.50177370694
-1.50177370694
0.0
0.0
0.0
0.423856660607
-0.423856660607
0.0
1.42880151267
-1.42880151267
0.0
0.0
0.0
0.0
0.0
1.3916424882
-1.3916424882
1.47087847748
-1.47087847748
1.36517225067
-1.36517225067
1.42143329487
-1.42143329487
1.27128718906
-1.27128718906
1.39556719578
-1.39556719578
1.39556719578
-1.39556719578
1.27128718906
-1.27128718906
0.0
1.5061893343
-1.5061893343
1.37966498502
-1.37966498502
0.0
1.45231327427
-1.45231327427
0.0
0.0
0.0
1.34431350472
-1.34431350472
1.39107441245
-1.39107441245
0.973574387149
-0.973574387149
0.0
0.0
1.48234351544
-1.48234351544
0.0
0.0
0.0
1.47841672256
-1.47841672256
0.0
0.973574387149
-0.973574387149
1.33821649718
-1.33821649718
0.0
1.34638306957
-1.34638306957
0.0
0.0
0.0
0.0
0.0
1.32427224592
-1.32427224592
1.43996129447
-1.43996129447
1.3821647195
-1.3821647195
0.0
1.45858557894
-1.45858557894
1.40693980025
-1.40693980025
1.45860672688
-1.45860672688
0.0
0.0
1.38991261467
-1.38991261467
0.0
0.0
0.0
1.41109168933
-1.41109168933
0.0
0.828363257859
-0.828363257859
0.828363257859
-0.828363257859
1.43486263966
-1.43486263966
1.29687144565
-1.29687144565
1.29687144565
-1.29687144565
0.0
1.35394271222
-1.35394271222
1.38551786162
-1.38551786162
1.35720279695
-1.35720279695
0.998058478892
-0.998058478892
0.998058478892
-0.998058478892
0.0
0.0
0.0
0.0
0.0
1.24491427884
-1.24491427884
0.0
1.24491427884
-1.24491427884
0.0
1.30772710146
-1.30772710146
1.38462557181
-1.38462557181
1.33669192139
-1.33669192139
1.38894536481
-1.38894536481
1.08455720175
-1.08455720175
1.35541041254
-1.35541041254
1.34306609975
-1.34306609975
1.28706646547
-1.28706646547
1.08455720175
-1.08455720175
0.0
0.0
1.36050061659
-1.36050061659
1.38292067708
-1.38292067708
1.3241009613
-1.3241009613
1.31873300709
-1.31873300709
1.33317105874
-1.33317105874
1.37113728709
-1.37113728709
0.0
1.36371999828
-1.36371999828
1.26977711183
-1.26977711183
0.0
1.26977711183
-1.26977711183
0.248412045931
-0.248412045931
0.0
0.0
0.186717991052
-0.186717991052
0.0
0.0
0.248412045931
-0.248412045931
0.0
0.0
0.0
0.0
0.0
0.186717991052
-0.186717991052
0.0
0.0
0.0
0.0
1.31315986059
-1.31315986059
0.0
0.0
0.0
0.0
0.0
0.0
0.775180606735
-0.775180606735
0.0
0.0
1.35782946412
-1.35782946412
0.0
0.0
1.29450784442
-1.29450784442
0.775180606735
-0.775180606735
0.0
1.29450784442
-1.29450784442
0.0
1.34012779159
-1.34012779159
1.29589959396
-1.29589959396
0.98607333921
-0.98607333921
1.3394347828
-1.3394347828
0.0
1.36267501344
-1.36267501344
1.27912021177
-1.27912021177
1.3536236249
-1.3536236249
0.98607333921
-0.98607333921
1.31286744313
-1.31286744313
0.0
1.29227145034
-1.29227145034
1.29361319736
-1.29361319736
0.204477849207
-0.204477849207
0.0
0.0
0.535645068013
-0.535645068013
1.29361319736
-1.29361319736
0.0
0.0
1.33618174048
-1.33618174048
0.535645068013
-0.535645068013
0.204477849207
-0.204477849207
0.0
0.0
0.0
0.0
0.65023580722
-0.65023580722
0.0
1.30599806697
-1.30599806697
0.0
0.0
0.0
1.31100534575
-1.31100534575
1.30693276521
-1.30693276521
1.30122981137
-1.30122981137
0.0
0.0
1.29716696119
-1.29716696119
1.27664364283
-1.27664364283
0.0
0.0
0.0
0.0
0.0
0.0
0.0
0.0
0.65023580722
-0.65023580722
0.0
0.0
1.26605406517
-1.26605406517
0.0
0.0
0.0
0.0
1.30090173235
-1.30090173235
0.0
0.0
0.0
0.781320482671
-0.781320482671
1.28458103367
-1.28458103367
0.0
0.0
0.0
0.0
0.0
0.0
0.0
0.0
0.0
0.0
0.0
0.0
0.0
0.0
1.25541079808
-1.25541079808
0.0
1.28299003013
-1.28299003013
0.0
0.0
0.0
0.549969692091
-0.549969692091
0.781320482671
-0.781320482671
0.0
0.0
1.27134225914
-1.27134225914
0.0
0.0
0.0
0.0
0.0
0.0
0.0
1.27961176392
-1.27961176392
1.25164072151
-1.25164072151
1.28764689261
-1.28764689261
1.28465809924
-1.28465809924
1.26752065201
-1.26752065201
1.2722590592
-1.2722590592
0.549969692091
-0.549969692091
0.640446363125
-0.640446363125
0.728869598302
-0.728869598302
1.22018808961
-1.22018808961
0.0
1.22618255546
-1.22618255546
1.24854184689
-1.24854184689
1.24854184689
-1.24854184689
1.2627691176
-1.2627691176
1.13625634132
-1.13625634132
0.0
1.13625634132
-1.13625634132
0.0
1.24090076992
-1.24090076992
0.640446363125
-0.640446363125
0.728869598302
-0.728869598302
1.24711437859
-1.24711437859
1.27550172564
-1.27550172564
0.0
0.0
0.358749011393
-0.358749011393
1.23892598456
-1.23892598456
0.0
0.0
1.22075513153
-1.22075513153
1.23089957815
-1.23089957815
0.0
0.0
1.23985623386
-1.23985623386
1.23887205085
-1.23887205085
0.0
1.03894021863
-1.03894021863
1.19012370418
-1.19012370418
0.0
0.358749011393
-0.358749011393
1.18094016934
-1.18094016934
1.03894021863
-1.03894021863
1.25352684558
-1.25352684558
1.21276923397
-1.21276923397
1.22300932861
-1.22300932861
1.23047260147
-1.23047260147
1.24110391326
-1.24110391326
0.0
1.23711209011
-1.23711209011
1.18445128651
-1.18445128651
0.0
0.0
1.2230372726
-1.2230372726
1.17761016403
-1.17761016403
0.0
0.0
0.0
1.21188185475
-1.21188185475
0.0
0.688578626424
-0.688578626424
1.19494484974
-1.19494484974
0.0
0.0
0.0
0.0
0.0
1.21538696391
-1.21538696391
1.23459303479
-1.23459303479
0.0
0.0
1.19728827199
-1.19728827199
0.688578626424
-0.688578626424
1.19374727328
-1.19374727328
1.16135102073
-1.16135102073
0.0
0.0
1.18840186984
-1.18840186984
0.0
1.20481013859
-1.20481013859
0.0
1.20640552852
-1.20640552852
0.0
0.0
1.20056854288
-1.20056854288
0.0
0.0
0.0
0.0
0.0
0.0
0.0
0.0
0.0
0.0
0.0
0.0
0.0
0.0
1.11285851126
-1.11285851126
0.0
0.0
0.0
1.17706063921
-1.17706063921
1.13230523489
-1.13230523489
1.11285851126
-1.11285851126
1.16379910369
-1.16379910369
1.14381320601
-1.14381320601
1.14823529981
-1.14823529981
1.13356731836
-1.13356731836
1.19008214737
-1.19008214737
0.0
0.0
0.0
0.0
0.0
0.0
0.0
0.0
0.0
0.0
0.0
0.0
1.16243004563
-1.16243004563
1.12378063733
-1.12378063733
0.0
0.0
0.0
0.601365108995
-0.601365108995
1.16181287315
-1.16181287315
0.0
0.0
0.0
0.0
0.0
0.0
0.0
0.0
0.0
0.0
1.02150001107
-1.02150001107
0.0
1.02150001107
-1.02150001107
1.16288826234
-1.16288826234
1.16288826234
-1.16288826234
0.0
1.06549541501
-1.06549541501
0.0
0.0
1.06549541501
-1.06549541501
0.0
1.09390047561
-1.09390047561
0.601365108995
-0.601365108995
1.09390047561
-1.09390047561
0.192512405837
-0.192512405837
1.16504493912
-1.16504493912
0.0
0.0
0.0
0.0
0.0
0.0
0.0
1.09332329556
-1.09332329556
0.0
0.0
0.0
0.0
0.0
1.1590712347
-1.1590712347
1.15515407842
-1.15515407842
1.15507343888
-1.15507343888
1.15507343888
-1.15507343888
0.0
0.0
0.0
1.12517127055
-1.12517127055
0.0
1.15218352996
-1.15218352996
0.0
0.0
0.0
0.0
1.12141244815
-1.12141244815
0.192512405837
-0.192512405837
0.0
0.0
0.0
0.0
1.11381462274
-1.11381462274
1.1291027216
-1.1291027216
0.0
0.0
0.0
0.0
0.0
0.0
0.0
0.0
0.287287060267
-0.287287060267
0.0
0.0
0.0
1.0860642382
-1.0860642382
0.0
0.0
0.0
0.0
0.0
0.0
0.0
0.0
0.0
0.0
1.11481439345
-1.11481439345
1.11910972535
-1.11910972535
1.07962902421
-1.07962902421
1.07751569692
-1.07751569692
1.12928720271
-1.12928720271
0.0
0.0
0.826229271167
-0.826229271167
1.10476357134
-1.10476357134
0.0
0.22013692316
-0.22013692316
0.0
1.09876708281
-1.09876708281
1.13086480762
-1.13086480762
0.0
0.0
1.05211311431
-1.05211311431
0.0
1.11179280063
-1.11179280063
0.287287060267
-0.287287060267
0.0
1.05176023625
-1.05176023625
0.826229271167
-0.826229271167
0.0
0.0
0.0
0.0
0.0
1.11731653379
-1.11731653379
0.0
0.0
1.11983464336
-1.11983464336
1.10533464589
-1.10533464589
0.0
1.08876755505
-1.08876755505
1.08876755505
-1.08876755505
0.0
0.0
0.0
0.0
1.005449645
-1.005449645
1.09726553012
-1.09726553012
1.08534643665
-1.08534643665
1.005449645
-1.005449645
1.03562468011
-1.03562468011
1.08797104626
-1.08797104626
0.0
0.22013692316
-0.22013692316
0.0
1.06981680743
-1.06981680743
1.09339392069
-1.09339392069
0.0
1.07655201479
-1.07655201479
0.0
1.07680427282
-1.07680427282
0.0
0.0
0.0
0.0
0.0
0.0
0.0
0.751112903616
-0.751112903616
0.751112903616
-0.751112903616
1.06761722334
-1.06761722334
1.06761722334
-1.06761722334
0.0
0.0
0.0
0.0
0.0
0.0
0.0
0.0
1.05367836275
-1.05367836275
1.04698135402
-1.04698135402
1.06443070552
-1.06443070552
1.04698135402
-1.04698135402
1.02404820681
-1.02404820681
1.07198454988
-1.07198454988
1.06330138298
-1.06330138298
1.02537535575
-1.02537535575
0.0
0.151312023011
-0.151312023011
0.319000247481
-0.319000247481
1.05644928586
-1.05644928586
0.0
0.0
1.05210602246
-1.05210602246
1.05255221053
-1.05255221053
0.0
0.0
0.319000247481
-0.319000247481
0.0
0.0
0.0
0.0
0.151312023011
-0.151312023011
0.0
1.01091622575
-1.01091622575
0.0
1.05918836467
-1.05918836467
1.0202826229
-1.0202826229
0.264442393758
-0.264442393758
0.264442393758
-0.264442393758
0.123984125172
-0.123984125172
0.123984125172
-0.123984125172
0.921065991797
-0.921065991797
0.921065991797
-0.921065991797
0.0
1.05604028049
-1.05604028049
1.02549128898
-1.02549128898
1.0380087332
-1.0380087332
0.0
0.0
0.776103482062
-0.776103482062
0.968789828925
-0.968789828925
1.04452162745
-1.04452162745
1.04590993915
-1.04590993915
0.968789828925
-0.968789828925
0.0
0.0
0.776103482062
-0.776103482062
0.503876128751
-0.503876128751
0.0
0.0
1.03665089867
-1.03665089867
0.503876128751
-0.503876128751
0.0
0.0
0.0
0.0
1.03338090459
-1.03338090459
1.03743289805
-1.03743289805
1.01705742875
-1.01705742875
0.982076046656
-0.982076046656
0.0
0.982076046656
-0.982076046656
0.311182653675
-0.311182653675
0.0
0.0
0.311182653675
-0.311182653675
0.0
1.00547075713
-1.00547075713
1.00047478389
-1.00047478389
0.0
1.02511656606
-1.02511656606
0.0
1.00690579088
-1.00690579088
1.02352461651
-1.02352461651
0.0
0.0
0.0
0.0
0.0
0.0
0.0
0.0
0.0721594101683
-0.0721594101683
0.0
0.0
0.145711284148
-0.145711284148
0.0
0.145711284148
-0.145711284148
0.0721594101683
-0.0721594101683
1.01141839997
-1.01141839997
0.264960282175
-0.264960282175
0.0
0.0
0.0
0.0
0.993228701152
-0.993228701152
0.264960282175
-0.264960282175
0.0
0.0924726443507
-0.0924726443507
0.0
0.0
0.818163674848
-0.818163674848
0.0
0.0
0.980542910818
-0.980542910818
0.77884809824
-0.77884809824
0.818163674848
-0.818163674848
0.0924726443507
-0.0924726443507
0.0
1.00076318232
-1.00076318232
0.77884809824
-0.77884809824
1.00673938044
-1.00673938044
0.818568917743
-0.818568917743
1.00471036228
-1.00471036228
0.0
0.0
0.230764052549
-0.230764052549
0.818568917743
-0.818568917743
0.0
0.230764052549
-0.230764052549
0.737604594734
-0.737604594734
0.0
0.714109487698
-0.714109487698
0.0
0.0
0.737604594734
-0.737604594734
0.0
0.714109487698
-0.714109487698
0.0
0.997494137543
-0.997494137543
0.986728760406
-0.986728760406
0.0
0.0
0.0
0.0
0.0
0.978423795508
-0.978423795508
0.373850241226
-0.373850241226
0.986360726434
-0.986360726434
0.0
0.0
0.373850241226
-0.373850241226
0.0
0.0
0.99083548382
-0.99083548382
0.0
0.0
0.0
0.0
0.0
0.0
0.551796018865
-0.551796018865
0.230747669164
-0.230747669164
0.230747669164
-0.230747669164
0.551796018865
-0.551796018865
0.0
0.0
0.435833054885
-0.435833054885
0.0
0.435833054885
-0.435833054885
0.0
0.0
0.0
0.943281927773
-0.943281927773
0.951659791204
-0.951659791204
0.0
0.967833753824
-0.967833753824
0.0
0.649727601217
-0.649727601217
0.974717518549
-0.974717518549
0.962314292353
-0.962314292353
0.861411542718
-0.861411542718
0.649727601217
-0.649727601217
0.965263501029
-0.965263501029
0.880810097369
-0.880810097369
0.861411542718
-0.861411542718
0.965443129127
-0.965443129127
0.880810097369
-0.880810097369
0.929398884251
-0.929398884251
0.0
0.958131890841
-0.958131890841
0.929398884251
-0.929398884251
0.0
0.0
0.0
0.958206180554
-0.958206180554
0.0
0.0
0.0
0.95425363604
-0.95425363604
0.0
0.515959513693
-0.515959513693
0.0
0.69635499246
-0.69635499246
0.0
0.927526671223
-0.927526671223
0.515959513693
-0.515959513693
0.0
0.0
0.936204974469
-0.936204974469
0.0
0.554643700055
-0.554643700055
0.69635499246
-0.69635499246
0.0
0.0
0.0
0.0
0.0
0.948288096974
-0.948288096974
0.554643700055
-0.554643700055
0.0
0.918840506829
-0.918840506829
0.0
0.0
0.0
0.0
0.807977039868
-0.807977039868
0.183157819452
-0.183157819452
0.0
0.0
0.0
0.0
0.807977039868
-0.807977039868
0.0618291830887
-0.0618291830887
0.933974748309
-0.933974748309
0.918687428475
-0.918687428475
0.933436145322
-0.933436145322
0.938955686703
-0.938955686703
0.938644501916
-0.938644501916
0.0
0.0
0.934756463105
-0.934756463105
0.93666687193
-0.93666687193
0.0
0.0
0.934770575908
-0.934770575908
0.920833072767
-0.920833072767
0.0
0.0
0.919636261534
-0.919636261534
0.0
0.0
0.183157819452
-0.183157819452
0.917496104218
-0.917496104218
0.0
0.0618291830887
-0.0618291830887
0.0
0.0
0.912461520757
-0.912461520757
0.0
0.0
0.0
0.0
0.924439445409
-0.924439445409
0.0
0.0
0.897718522493
-0.897718522493
0.0
0.0
0.90768915327
-0.90768915327
0.0
0.0
0.582901622232
-0.582901622232
0.908565724753
-0.908565724753
0.269659717745
-0.269659717745
0.0
0.0165364884945
-0.0165364884945
0.0
0.909552050598
-0.909552050598
0.0
0.0
0.0
0.0
0.0
0.0
0.0
0.582901622232
-0.582901622232
0.0
0.0
0.269659717745
-0.269659717745
0.0
0.0
0.0
0.0
0.0165364884945
-0.0165364884945
0.0
0.0
0.0
0.0
0.0
0.0
0.0
0.0
0.0
0.0
0.0
0.0
0.0
0.0
0.0
0.0
0.0
0.0
0.913381049589
-0.913381049589
0.0
0.0
0.0
0.0
0.90372052199
-0.90372052199
0.0
0.0
0.0
0.0
0.0
0.0
0.0
0.890097478237
-0.890097478237
0.0
0.712095131671
-0.712095131671
0.0
0.821959357982
-0.821959357982
0.0
0.821959357982
-0.821959357982
0.386828819222
-0.386828819222
0.784661524343
-0.784661524343
0.712095131671
-0.712095131671
0.894046313118
-0.894046313118
0.0
0.0
0.784661524343
-0.784661524343
0.89727104263
-0.89727104263
0.386828819222
-0.386828819222
0.897344578402
-0.897344578402
0.0
0.0
0.0
0.0
0.888695241303
-0.888695241303
0.0
0.879515546937
-0.879515546937
0.885532494203
-0.885532494203
0.878773122316
-0.878773122316
0.878773122316
-0.878773122316
0.868436497139
-0.868436497139
0.880010217692
-0.880010217692
0.874629235214
-0.874629235214
0.875879481167
-0.875879481167
0.0
0.86836268586
-0.86836268586
0.0
0.875447695653
-0.875447695653
0.0
0.0
0.872748529329
-0.872748529329
0.0
0.0
0.863437890259
-0.863437890259
0.0
0.0
0.0
0.0
0.0
0.588693749046
-0.588693749046
0.865324459227
-0.865324459227
0.0
0.852785709795
-0.852785709795
0.0
0.0
0.0
0.0
0.0
0.863496042449
-0.863496042449
0.588693749046
-0.588693749046
0.849121976601
-0.849121976601
0.860743084746
-0.860743084746
0.863885852452
-0.863885852452
0.863061465669
-0.863061465669
0.865531213422
-0.865531213422
0.832445833962
-0.832445833962
0.861634980683
-0.861634980683
0.861644371038
-0.861644371038
0.528211877649
-0.528211877649
0.837951622362
-0.837951622362
0.849490500277
-0.849490500277
0.85317977395
-0.85317977395
0.850805434955
-0.850805434955
0.798378032688
-0.798378032688
0.798378032688
-0.798378032688
0.81349019801
-0.81349019801
0.850664510032
-0.850664510032
0.851963231676
-0.851963231676
0.816382978128
-0.816382978128
0.829225431138
-0.829225431138
0.829225431138
-0.829225431138
0.84410889945
-0.84410889945
0.815474878507
-0.815474878507
0.83497353857
-0.83497353857
0.843505676301
-0.843505676301
0.838299462828
-0.838299462828
0.0
0.839881170018
-0.839881170018
0.528211877649
-0.528211877649
0.0
0.840290832758
-0.840290832758
0.0
0.0
0.832591960428
-0.832591960428
0.0
0.811844631511
-0.811844631511
0.832950141056
-0.832950141056
0.786956026947
-0.786956026947
0.807129687259
-0.807129687259
0.825429871084
-0.825429871084
0.0
0.0
0.805613693471
-0.805613693471
0.822690232373
-0.822690232373
0.824524666548
-0.824524666548
0.810244254886
-0.810244254886
0.0
0.277750636503
-0.277750636503
0.799861520261
-0.799861520261
0.0
0.0
0.277750636503
-0.277750636503
0.0
0.805677201854
-0.805677201854
0.425703379142
-0.425703379142
0.425703379142
-0.425703379142
0.731275410632
-0.731275410632
0.730457621251
-0.730457621251
0.731275410632
-0.731275410632
0.730457621251
-0.730457621251
0.305080898911
-0.305080898911
0.1425756347
-0.1425756347
0.305080898911
-0.305080898911
0.1425756347
-0.1425756347
0.236077150556
-0.236077150556
0.80368507796
-0.80368507796
0.802795735291
-0.802795735291
0.236077150556
-0.236077150556
0.799272295793
-0.799272295793
0.0
0.656039190434
-0.656039190434
0.791381513988
-0.791381513988
0.796075321621
-0.796075321621
0.791381513988
-0.791381513988
0.0
0.10717230299
-0.10717230299
0.0
0.656039190434
-0.656039190434
0.0
0.779887346112
-0.779887346112
0.785814408536
-0.785814408536
0.0
0.0
0.782022566643
-0.782022566643
0.10717230299
-0.10717230299
0.783410047027
-0.783410047027
0.0
0.0
0.0
0.0
0.784276404981
-0.784276404981
0.769486988634
-0.769486988634
0.764423916853
-0.764423916853
0.784473787304
-0.784473787304
0.0
0.781962993909
-0.781962993909
0.77942865781
-0.77942865781
0.777481552802
-0.777481552802
0.0
0.778305628744
-0.778305628744
0.0
0.0
0.77295759514
-0.77295759514
0.0
0.772932003578
-0.772932003578
0.0
0.55679167347
-0.55679167347
0.0
0.0
0.0
0.55679167347
-0.55679167347
0.0
0.762222809634
-0.762222809634
0.0
0.759863870431
-0.759863870431
0.0
0.0
0.0
0.0
0.0
0.0
0.0
0.769437863412
-0.769437863412
0.0760387262106
-0.0760387262106
0.0
0.0
0.762361671101
-0.762361671101
0.0760387262106
-0.0760387262106
0.224570381544
-0.224570381544
0.70819970908
-0.70819970908
0.224570381544
-0.224570381544
0.0
0.0
0.683349943187
-0.683349943187
0.70819970908
-0.70819970908
0.0
0.0
0.756934332129
-0.756934332129
0.746364586817
-0.746364586817
0.683349943187
-0.683349943187
0.0
0.0
0.731593149407
-0.731593149407
0.756774646345
-0.756774646345
0.0
0.545680906167
-0.545680906167
0.0
0.337919219474
-0.337919219474
0.7539983443
-0.7539983443
0.545680906167
-0.545680906167
0.337919219474
-0.337919219474
0.166654699924
-0.166654699924
0.74987435493
-0.74987435493
0.166654699924
-0.166654699924
0.744474015306
-0.744474015306
0.729553267411
-0.729553267411
0.0
0.746993865321
-0.746993865321
0.429356150672
-0.429356150672
0.0
0.0
0.710148572683
-0.710148572683
0.0
0.0
0.0
0.710148572683
-0.710148572683
0.429356150672
-0.429356150672
0.0
0.740665532599
-0.740665532599
0.743957514084
-0.743957514084
0.0
0.0246824001298
-0.0246824001298
0.0
0.0246824001298
-0.0246824001298
0.0
0.737886562287
-0.737886562287
0.719735138248
-0.719735138248
0.0
0.719735138248
-0.719735138248
0.0
0.318338421963
-0.318338421963
0.0
0.0
0.318338421963
-0.318338421963
0.260724956495
-0.260724956495
0.260724956495
-0.260724956495
0.713207309959
-0.713207309959
0.730183016218
-0.730183016218
0.0
0.0
0.0
0.0
0.0
0.0640441548216
-0.0640441548216
0.0
0.0
0.0
0.0
0.0
0.0
0.0
0.0
0.0640441548216
-0.0640441548216
0.0
0.0
0.0
0.0
0.0
0.0
0.72394897789
-0.72394897789
0.0
0.0
0.0
0.0
0.0
0.0
0.0
0.0
0.0
0.201192194642
-0.201192194642
0.0
0.0
0.0
0.0
0.201192194642
-0.201192194642
0.0
0.0
0.0
0.0
0.617630722738
-0.617630722738
0.716453187243
-0.716453187243
0.0
0.717293139949
-0.717293139949
0.721443838976
-0.721443838976
0.72090193083
-0.72090193083
0.617630722738
-0.617630722738
0.0
0.0
0.0
0.0
0.0
0.714557171937
-0.714557171937
0.715981116672
-0.715981116672
0.426112362757
-0.426112362757
0.707640585441
-0.707640585441
0.0
0.0
0.706113146839
-0.706113146839
0.714424817243
-0.714424817243
0.426112362757
-0.426112362757
0.0
0.0
0.673732893064
-0.673732893064
0.673732893064
-0.673732893064
0.0
0.425912740833
-0.425912740833
0.146187845756
-0.146187845756
0.0
0.38309725634
-0.38309725634
0.690060434413
-0.690060434413
0.334585146528
-0.334585146528
0.146187845756
-0.146187845756
0.425912740833
-0.425912740833
0.125829323018
-0.125829323018
0.10552021134
-0.10552021134
0.38309725634
-0.38309725634
0.334585146528
-0.334585146528
0.10552021134
-0.10552021134
0.125829323018
-0.125829323018
0.0
0.0
0.0
0.695642229266
-0.695642229266
0.689004983438
-0.689004983438
0.0
0.0
0.514033834692
-0.514033834692
0.0
0.0
0.0
0.538956362386
-0.538956362386
0.0
0.0
0.0201095311273
-0.0201095311273
0.0
0.0
0.514033834692
-0.514033834692
0.0
0.538956362386
-0.538956362386
0.0201095311273
-0.0201095311273
0.0
0.226467790106
-0.226467790106
0.69380701144
-0.69380701144
0.0
0.226467790106
-0.226467790106
0.678842415198
-0.678842415198
0.0
0.0
0.687045743453
-0.687045743453
0.0
0.0
0.0
0.0
0.168866308895
-0.168866308895
0.685782700549
-0.685782700549
0.0
0.674568164788
-0.674568164788
0.0
0.684688151551
-0.684688151551
0.675348143114
-0.675348143114
0.168866308895
-0.168866308895
0.0
0.684600674561
-0.684600674561
0.0
0.670072810173
-0.670072810173
0.0
0.682211357648
-0.682211357648
0.0
0.681039990106
-0.681039990106
0.0
0.0
0.494602901044
-0.494602901044
0.439848971414
-0.439848971414
0.675484197392
-0.675484197392
0.674784846146
-0.674784846146
0.494602901044
-0.494602901044
0.668424950883
-0.668424950883
0.670830603368
-0.670830603368
0.439848971414
-0.439848971414
0.48513637718
-0.48513637718
0.670047604385
-0.670047604385
0.669268788362
-0.669268788362
0.667319324207
-0.667319324207
0.662474633786
-0.662474633786
0.0
0.48513637718
-0.48513637718
0.658027267954
-0.658027267954
0.0
0.514830493816
-0.514830493816
0.0
0.514830493816
-0.514830493816
0.0
0.0
0.0
0.561061512799
-0.561061512799
0.0
0.561061512799
-0.561061512799
0.659366838598
-0.659366838598
0.0
0.0
0.0
0.647272379201
-0.647272379201
0.647272379201
-0.647272379201
0.0
0.645377296123
-0.645377296123
0.652233696503
-0.652233696503
0.0
0.652495895184
-0.652495895184
0.000427875281097
-0.000427875281097
0.0
0.0
0.0
0.0
0.000634525012197
-0.000634525012197
0.0
0.64502781543
-0.64502781543
0.0
0.0
0.0
0.641317943495
-0.641317943495
0.356068270514
-0.356068270514
0.0
0.0
0.000427875281158
-0.000427875281158
0.0
0.0
0.0
0.000634525012197
-0.000634525012197
0.630621768016
-0.630621768016
0.356068270514
-0.356068270514
0.0
0.643830805258
-0.643830805258
0.0
0.0
0.0
0.486005971429
-0.486005971429
0.00372889470563
-0.00372889470563
0.486005971429
-0.486005971429
0.609373589554
-0.609373589554
0.609373589554
-0.609373589554
0.556119248801
-0.556119248801
0.556119248801
-0.556119248801
0.0
0.0
0.00372889470566
-0.00372889470566
0.635799939508
-0.635799939508
0.63401263454
-0.63401263454
0.62789737082
-0.62789737082
0.192374720081
-0.192374720081
0.634873758503
-0.634873758503
0.633821490817
-0.633821490817
0.0
0.0
0.0
0.629192966982
-0.629192966982
0.0
0.0
0.0808393271768
-0.0808393271768
0.224985137391
-0.224985137391
0.374679327494
-0.374679327494
0.0
0.0808393271768
-0.0808393271768
0.192374720081
-0.192374720081
0.0
0.0
0.625697954224
-0.625697954224
0.374679327494
-0.374679327494
0.224985137391
-0.224985137391
0.631118868651
-0.631118868651
0.616551571711
-0.616551571711
0.0
0.0
0.626752793514
-0.626752793514
0.177817469644
-0.177817469644
0.0
0.0
0.0
0.0
0.0
0.0
0.177817469644
-0.177817469644
0.0
0.0
0.0
0.0
0.0
0.0
0.460558366637
-0.460558366637
0.460558366637
-0.460558366637
0.0
0.0
0.610460548794
-0.610460548794
0.302242802475
-0.302242802475
0.611832470452
-0.611832470452
0.59678345727
-0.59678345727
0.612712331531
-0.612712331531
0.522709304083
-0.522709304083
0.612621886682
-0.612621886682
0.594863471105
-0.594863471105
0.59678345727
-0.59678345727
0.486229215011
-0.486229215011
0.328847477821
-0.328847477821
0.594863471105
-0.594863471105
0.302242802475
-0.302242802475
0.0805423283802
-0.0805423283802
0.0
0.522709304083
-0.522709304083
0.0805423283802
-0.0805423283802
0.0
0.328847477821
-0.328847477821
0.486229215011
-0.486229215011
0.0
0.0
0.604669315592
-0.604669315592
0.603238383579
-0.603238383579
0.600789903153
-0.600789903153
0.112045156957
-0.112045156957
0.0
0.0
0.603607896651
-0.603607896651
0.601299323512
-0.601299323512
0.596402405549
-0.596402405549
0.186208930658
-0.186208930658
0.112045156957
-0.112045156957
0.332826026445
-0.332826026445
0.478878438269
-0.478878438269
0.0
0.0
0.186208930658
-0.186208930658
0.332826026445
-0.332826026445
0.495254677447
-0.495254677447
0.0
0.478878438269
-0.478878438269
0.598703550746
-0.598703550746
0.0
0.495254677447
-0.495254677447
0.0
0.0
0.0
0.0
0.0
0.0
0.0
0.58943031884
-0.58943031884
0.0
0.0
0.0
0.0
0.0
0.590511377069
-0.590511377069
0.589949852615
-0.589949852615
0.0
0.0
0.591391256729
-0.591391256729
0.0
0.0
0.0
0.0
0.0
0.0
0.0
0.0127549302433
-0.0127549302433
0.585238474284
-0.585238474284
0.0
0.515233731402
-0.515233731402
0.0
0.0
0.0
0.0
0.0
0.0
0.0
0.0
0.0127549302433
-0.0127549302433
0.0
0.515233731402
-0.515233731402
0.0
0.0
0.0
0.366692570496
-0.366692570496
0.573360373258
-0.573360373258
0.366692570496
-0.366692570496
0.366363063628
-0.366363063628
0.578504692523
-0.578504692523
0.366363063628
-0.366363063628
0.503802286931
-0.503802286931
0.503802286931
-0.503802286931
0.0
0.224227367856
-0.224227367856
0.573786005097
-0.573786005097
0.574672350134
-0.574672350134
0.569846701275
-0.569846701275
0.549695443072
-0.549695443072
0.563669608133
-0.563669608133
0.568029470258
-0.568029470258
0.568100882238
-0.568100882238
0.558081399305
-0.558081399305
0.567492135994
-0.567492135994
0.549695443072
-0.549695443072
0.559159314112
-0.559159314112
0.564013659576
-0.564013659576
0.0
0.563929843574
-0.563929843574
0.559337022063
-0.559337022063
0.224227367856
-0.224227367856
0.0
0.559686900295
-0.559686900295
0.0
0.558242941955
-0.558242941955
0.361630523958
-0.361630523958
0.474208372703
-0.474208372703
0.553477773128
-0.553477773128
0.361630523958
-0.361630523958
0.474208372703
-0.474208372703
0.554641784005
-0.554641784005
0.310175061207
-0.310175061207
0.386084327523
-0.386084327523
0.310175061207
-0.310175061207
0.386084327523
-0.386084327523
0.506090964207
-0.506090964207
0.506090964207
-0.506090964207
0.314691712177
-0.314691712177
0.543450654761
-0.543450654761
0.546257101316
-0.546257101316
0.542325247506
-0.542325247506
0.0
0.542349739268
-0.542349739268
0.0
0.542058869619
-0.542058869619
0.539533323551
-0.539533323551
0.314691712177
-0.314691712177
0.0
0.0
0.54015904827
-0.54015904827
0.52891311989
-0.52891311989
0.534835621191
-0.534835621191
0.524975784823
-0.524975784823
0.529048393947
-0.529048393947
0.524975784823
-0.524975784823
0.531938739433
-0.531938739433
0.0
0.0
0.513054024063
-0.513054024063
0.421477675916
-0.421477675916
0.0
0.421477675916
-0.421477675916
0.521380325332
-0.521380325332
0.0
0.0
0.0
0.516428561162
-0.516428561162
0.0
0.518587212621
-0.518587212621
0.0
0.0
0.0
0.0
0.0
0.0
0.391919095763
-0.391919095763
0.0
0.519539620511
-0.519539620511
0.0
0.488742101817
-0.488742101817
0.502505390621
-0.502505390621
0.488742101817
-0.488742101817
0.504765831628
-0.504765831628
0.391919095763
-0.391919095763
0.510482565788
-0.510482565788
0.302248492982
-0.302248492982
0.511108113893
-0.511108113893
0.0
0.506634525366
-0.506634525366
0.128280011383
-0.128280011383
0.302248492982
-0.302248492982
0.490717128238
-0.490717128238
0.0
0.0
0.0
0.0
0.488958577534
-0.488958577534
0.481184920429
-0.481184920429
0.481184920429
-0.481184920429
0.0
0.0
0.495507967936
-0.495507967936
0.448550670187
-0.448550670187
0.128280011383
-0.128280011383
0.448550670187
-0.448550670187
0.486156315856
-0.486156315856
0.322716869104
-0.322716869104
0.0
0.322716869104
-0.322716869104
0.0
0.0
0.0
0.102947063889
-0.102947063889
0.0
0.314866900068
-0.314866900068
0.274677081844
-0.274677081844
0.0
0.0444055484869
-0.0444055484869
0.0176181573569
-0.0176181573569
0.0
0.0
0.0
0.440670499342
-0.440670499342
0.102947063889
-0.102947063889
0.314866900068
-0.314866900068
0.440670499342
-0.440670499342
0.467823787985
-0.467823787985
0.472328163027
-0.472328163027
0.0
0.0
0.475387875507
-0.475387875507
0.0
0.274677081844
-0.274677081844
0.0
0.0
0.207305461357
-0.207305461357
0.228111265395
-0.228111265395
0.0
0.0444055484869
-0.0444055484869
0.0176181573569
-0.0176181573569
0.0
0.207305461357
-0.207305461357
0.0
0.0
0.228111265395
-0.228111265395
0.0
0.0
0.0
0.0
0.150034619946
-0.150034619946
0.0
0.368633886888
-0.368633886888
0.283267320531
-0.283267320531
0.0
0.463621582759
-0.463621582759
0.0
0.0
0.0
0.152610141716
-0.152610141716
0.0
0.0
0.102594518088
-0.102594518088
0.0
0.0
0.150034619946
-0.150034619946
0.368633886888
-0.368633886888
0.283267320531
-0.283267320531
0.460423074771
-0.460423074771
0.458587025792
-0.458587025792
0.0
0.460114746024
-0.460114746024
0.459616869407
-0.459616869407
0.456142320595
-0.456142320595
0.152610141716
-0.152610141716
0.454261844148
-0.454261844148
0.454567587465
-0.454567587465
0.453388642978
-0.453388642978
0.449529409806
-0.449529409806
0.449765519139
-0.449765519139
0.0
0.0
0.0
0.0
0.0
0.0
0.450746155021
-0.450746155021
0.102594518088
-0.102594518088
0.0
0.448214694944
-0.448214694944
0.0
0.448513117092
-0.448513117092
0.0707674073988
-0.0707674073988
0.443957780503
-0.443957780503
0.228924449591
-0.228924449591
0.190551200704
-0.190551200704
0.440227090146
-0.440227090146
0.0
0.44114130227
-0.44114130227
0.441762114436
-0.441762114436
0.0
0.0
0.440659263605
-0.440659263605
0.436661131425
-0.436661131425
0.0
0.228924449591
-0.228924449591
0.433304086262
-0.433304086262
0.425002094458
-0.425002094458
0.424607616268
-0.424607616268
0.433438881087
-0.433438881087
0.432049349301
-0.432049349301
0.429190642563
-0.429190642563
0.206868145521
-0.206868145521
0.190551200704
-0.190551200704
0.0
0.0707674073988
-0.0707674073988
0.42692978709
-0.42692978709
0.42661197126
-0.42661197126
0.00506797127253
-0.00506797127253
0.206868145521
-0.206868145521
0.413798287465
-0.413798287465
0.0
0.0
0.417986559843
-0.417986559843
0.417986559843
-0.417986559843
0.421256585297
-0.421256585297
0.145174239187
-0.145174239187
0.0
0.0
0.0
0.0
0.0
0.0
0.0
0.0
0.0
0.0
0.0
0.0
0.0
0.419427866112
-0.419427866112
0.0
0.0
0.0
0.0
0.0
0.413397935378
-0.413397935378
0.413584098649
-0.413584098649
0.41351201506
-0.41351201506
0.411237943469
-0.411237943469
0.40431104655
-0.40431104655
0.0
0.404057623571
-0.404057623571
0.403878128206
-0.403878128206
0.00506797127253
-0.00506797127253
0.348797474284
-0.348797474284
0.403725226799
-0.403725226799
0.404529543883
-0.404529543883
0.399636352639
-0.399636352639
0.403119094991
-0.403119094991
0.0
0.0
0.0
0.145174239187
-0.145174239187
0.397963167868
-0.397963167868
0.29523103323
-0.29523103323
0.0
0.0
0.383402106542
-0.383402106542
0.0
0.348797474284
-0.348797474284
0.0
0.0
0.0
0.0
0.0
0.0
0.0
0.394372554455
-0.394372554455
0.0
0.0
0.0
0.0
0.0
0.0
0.394461991604
-0.394461991604
0.0
0.0
0.0
0.0
0.0
0.0951390098421
-0.0951390098421
0.0
0.391173486753
-0.391173486753
0.391241219982
-0.391241219982
0.0
0.0
0.0
0.128024086046
-0.128024086046
0.0
0.387911223333
-0.387911223333
0.379572088905
-0.379572088905
0.29523103323
-0.29523103323
0.379315277013
-0.379315277013
0.380625574027
-0.380625574027
0.363189521589
-0.363189521589
0.0
0.0
0.0
0.180543971044
-0.180543971044
0.0
0.0
0.0
0.363189521589
-0.363189521589
0.0
0.0951390098421
-0.0951390098421
0.0
0.215877579861
-0.215877579861
0.0
0.0
0.145123630532
-0.145123630532
0.117398600594
-0.117398600594
0.0
0.360991589631
-0.360991589631
0.128024086046
-0.128024086046
0.363537038672
-0.363537038672
0.372020237468
-0.372020237468
0.360991589631
-0.360991589631
0.373976871683
-0.373976871683
0.361170813943
-0.361170813943
0.0
0.0154323092727
-0.0154323092727
0.363537038672
-0.363537038672
0.0764709657862
-0.0764709657862
0.369136925549
-0.369136925549
0.0
0.337676138216
-0.337676138216
0.180543971044
-0.180543971044
0.0
0.30498161952
-0.30498161952
0.0
0.215877579861
-0.215877579861
0.276211360069
-0.276211360069
0.337676138216
-0.337676138216
0.359458802298
-0.359458802298
0.145123630532
-0.145123630532
0.362030865606
-0.362030865606
0.0
0.117398600594
-0.117398600594
0.0
0.347547117277
-0.347547117277
0.30498161952
-0.30498161952
0.0
0.35957976933
-0.35957976933
0.0
0.348027072804
-0.348027072804
0.0
0.168036047786
-0.168036047786
0.0
0.354577430567
-0.354577430567
0.0
0.0128272099837
-0.0128272099837
0.0
0.0154323092727
-0.0154323092727
0.276211360069
-0.276211360069
0.0764709657862
-0.0764709657862
0.0
0.168036047786
-0.168036047786
0.350240407591
-0.350240407591
0.0
0.0
0.0
0.0
0.344615664846
-0.344615664846
0.0128272099837
-0.0128272099837
0.296933154422
-0.296933154422
0.289877517986
-0.289877517986
0.340349879811
-0.340349879811
0.324053591688
-0.324053591688
0.0
0.0
0.296933154422
-0.296933154422
0.289877517986
-0.289877517986
0.335889299437
-0.335889299437
0.0
0.334376257408
-0.334376257408
0.330848629091
-0.330848629091
0.0
0.047271653707
-0.047271653707
0.252896516365
-0.252896516365
0.252896516365
-0.252896516365
0.0
0.0
0.047271653707
-0.047271653707
0.0
0.0
0.0137771879073
-0.0137771879073
0.0
0.0
0.0
0.320267912608
-0.320267912608
0.319388150279
-0.319388150279
0.0
0.0
0.0
0.0137771879073
-0.0137771879073
0.317025825799
-0.317025825799
0.315691260742
-0.315691260742
0.0
0.0
0.0
0.308868763368
-0.308868763368
0.22814295143
-0.22814295143
0.22814295143
-0.22814295143
0.305071636723
-0.305071636723
0.292056280551
-0.292056280551
0.302299901035
-0.302299901035
0.29909447845
-0.29909447845
0.0
0.299361701805
-0.299361701805
0.297682016658
-0.297682016658
0.292056280551
-0.292056280551
0.0709961505153
-0.0709961505153
0.296967030079
-0.296967030079
0.0
0.0709961505153
-0.0709961505153
0.294787122117
-0.294787122117
0.117327362197
-0.117327362197
0.0
0.287328202909
-0.287328202909
0.288311168221
-0.288311168221
0.0
0.290760744169
-0.290760744169
0.0
0.0
0.0
0.194675883222
-0.194675883222
0.289881771928
-0.289881771928
0.0518788008663
-0.0518788008663
0.117327362197
-0.117327362197
0.0
0.0
0.0619670469813
-0.0619670469813
0.194675883222
-0.194675883222
0.0
0.0
0.0
0.0
0.0
0.126981940915
-0.126981940915
0.2804277015
-0.2804277015
0.0518788008663
-0.0518788008663
0.0
0.0
0.0
0.0619670469813
-0.0619670469813
0.0
0.254051002653
-0.254051002653
0.27765175887
-0.27765175887
0.109623518249
-0.109623518249
0.126981940915
-0.126981940915
0.254051002653
-0.254051002653
0.0
0.0
0.0508986814274
-0.0508986814274
0.0
0.0
0.0
0.0
0.0
0.109623518249
-0.109623518249
0.272914185505
-0.272914185505
0.271096972637
-0.271096972637
0.0
0.0508986814274
-0.0508986814274
0.263222670317
-0.263222670317
0.267880678521
-0.267880678521
0.258456775936
-0.258456775936
0.0
0.26712122331
-0.26712122331
0.0
0.266269106412
-0.266269106412
0.263544881902
-0.263544881902
0.259618065773
-0.259618065773
0.260553383066
-0.260553383066
0.0386618487931
-0.0386618487931
0.0386618487931
-0.0386618487931
0.0
0.255209885062
-0.255209885062
0.253357517724
-0.253357517724
0.254436484851
-0.254436484851
0.249356675376
-0.249356675376
0.251636027436
-0.251636027436
0.0
0.248053354762
-0.248053354762
0.14548373355
-0.14548373355
0.246196782402
-0.246196782402
0.245491863129
-0.245491863129
0.14548373355
-0.14548373355
0.243469609085
-0.243469609085
0.238079265928
-0.238079265928
0.132989197056
-0.132989197056
0.132989197056
-0.132989197056
0.0
0.0
0.0
0.0
0.0
0.0
0.0
0.0
0.0
0.235654055372
-0.235654055372
0.234606888096
-0.234606888096
0.0
0.23544968614
-0.23544968614
0.126097855995
-0.126097855995
0.126097855995
-0.126097855995
0.229070005495
-0.229070005495
0.232306766607
-0.232306766607
0.0816910201113
-0.0816910201113
0.0816910201113
-0.0816910201113
0.0
0.0
0.226526820707
-0.226526820707
0.0
0.0
0.227109841975
-0.227109841975
0.0
0.0
0.0558109809171
-0.0558109809171
0.0
0.0558109809171
-0.0558109809171
0.0
0.0
0.0
0.0
0.120747024038
-0.120747024038
0.0
0.120747024038
-0.120747024038
0.219907289359
-0.219907289359
0.0
0.0
0.0
0.0
0.0
0.0
0.0
0.000648707041099
-0.000648707041099
0.0
0.000648707041099
-0.000648707041099
0.0
0.216104257253
-0.216104257253
0.0
0.0
0.0
0.0
0.0
0.211126018184
-0.211126018184
0.211031940784
-0.211031940784
0.207837282212
-0.207837282212
0.207568753021
-0.207568753021
0.0
0.0
0.0
0.0
0.0
0.0
0.0
0.0
0.0
0.0
0.0
0.0
0.0
0.0
0.196060898031
-0.196060898031
0.193742418225
-0.193742418225
0.0
0.0
0.193628236893
-0.193628236893
0.0
0.0889369115414
-0.0889369115414
0.0
0.0889369115414
-0.0889369115414
0.0
0.0432528180689
-0.0432528180689
0.0
0.0432528180689
-0.0432528180689
0.0986310499596
-0.0986310499596
0.0986310499596
-0.0986310499596
0.187362266893
-0.187362266893
0.183853590127
-0.183853590127
0.181623533697
-0.181623533697
0.161019314029
-0.161019314029
0.161019314029
-0.161019314029
0.177350897251
-0.177350897251
0.0
0.0
0.180461866665
-0.180461866665
0.179948839722
-0.179948839722
0.0
0.0
0.0
0.0
0.0
0.0
0.0
0.0
0.167351012205
-0.167351012205
0.16915964715
-0.16915964715
0.168421232882
-0.168421232882
0.163245335996
-0.163245335996
0.162192915178
-0.162192915178
0.167634780206
-0.167634780206
0.165603610643
-0.165603610643
0.0
0.0
0.0
0.0
0.161357463426
-0.161357463426
0.162911939227
-0.162911939227
0.104176124826
-0.104176124826
0.104176124826
-0.104176124826
0.153694186802
-0.153694186802
0.156320602755
-0.156320602755
0.0
0.0
0.0
0.0
0.0
0.0
0.0
0.0
0.0
0.0
0.152690273356
-0.152690273356
0.150268484112
-0.150268484112
0.149200717876
-0.149200717876
0.147790657653
-0.147790657653
0.14967682671
-0.14967682671
0.148262148194
-0.148262148194
0.149028512624
-0.149028512624
0.0
0.0
0.125318299494
-0.125318299494
0.125318299494
-0.125318299494
0.134302821703
-0.134302821703
0.138980872069
-0.138980872069
0.135902751865
-0.135902751865
0.134371603467
-0.134371603467
0.0
0.0
0.0887681036172
-0.0887681036172
0.0887681036172
-0.0887681036172
0.123561756841
-0.123561756841
0.130454952653
-0.130454952653
0.0
0.0
0.0
0.0
0.0
0.0
0.0
0.0
0.0
0.128438195235
-0.128438195235
0.0
0.0
0.0
0.0
0.0
0.124262118233
-0.124262118233
0.125110904573
-0.125110904573
0.0
0.0
0.12488999307
-0.12488999307
0.122064909376
-0.122064909376
0.0
0.0
0.0
0.0
0.0
0.0
0.0
0.0
0.0
0.0
0.0
0.0
0.116101616246
-0.116101616246
0.0
0.0
0.117882282172
-0.117882282172
0.0
0.0
0.0
0.0
0.0
0.0947422603638
-0.0947422603638
0.0947422603638
-0.0947422603638
0.0
0.0
0.0
0.109277671165
-0.109277671165
0.107749859202
-0.107749859202
0.109621775773
-0.109621775773
0.0990546671291
-0.0990546671291
0.107184322751
-0.107184322751
0.101901118459
-0.101901118459
0.0890813639004
-0.0890813639004
0.102249448761
-0.102249448761
0.0942972194737
-0.0942972194737
0.0932088606042
-0.0932088606042
0.0934255611953
-0.0934255611953
0.0934021074444
-0.0934021074444
0.0
0.0
0.0859121600722
-0.0859121600722
0.0
0.0
0.0254375198296
-0.0254375198296
0.0
0.0
0.0
0.0
0.0254375198296
-0.0254375198296
0.0824266810146
-0.0824266810146
0.069400653063
-0.069400653063
0.069400653063
-0.069400653063
0.0847650786598
-0.0847650786598
0.0136049387924
-0.0136049387924
0.0136049387924
-0.0136049387924
0.0
0.0
0.0804575720397
-0.0804575720397
0.0
0.0
0.0
0.0
0.0707932857089
-0.0707932857089
0.0
0.0
0.0
0.0
0.0592718318556
-0.0592718318556
0.0605456868444
-0.0605456868444
0.0310308019169
-0.0310308019169
0.0310308019169
-0.0310308019169
0.0
0.0
0.0
0.0
0.0
0.0
0.0
0.0
0.0517764145131
-0.0517764145131
0.0507289714181
-0.0507289714181
0.0504010482698
-0.0504010482698
0.0440440978832
-0.0440440978832
0.0
0.0
0.0
0.0
0.0438479151834
-0.0438479151834
0.0
0.0
0.0
0.0
0.0
0.0
0.0
0.0
0.0429460648665
-0.0429460648665
0.0427340337358
-0.0427340337358
0.0
0.0
0.0
0.0
0.0405564694261
-0.0405564694261
0.0398972464168
-0.0398972464168
0.0
0.0
0.0371865953974
-0.0371865953974
0.0
0.0
0.0
0.0
0.0
0.0
0.030669248755
-0.030669248755
0.0
0.0
0.0286126066705
-0.0286126066705
0.0263677030445
-0.0263677030445
0.0
0.0254040023623
-0.0254040023623
0.0
0.0227032567494
-0.0227032567494
0.0
0.0
0.0220493764642
-0.0220493764642
0.0
0.0
0.0
0.0
0.0215320039555
-0.0215320039555
0.0
0.0
0.0198694027656
-0.0198694027656
0.0
0.0
0.0
0.0
0.0168607361677
-0.0168607361677
0.0
0.0
0.0
0.0
0.0112325158395
-0.0112325158395
0.0112325158395
-0.0112325158395
0.0
0.0
0.0141505562653
-0.0141505562653
0.0
0.0
0.0121401077148
-0.0121401077148
0.0113100672736
-0.0113100672736
0.0118831619441
-0.0118831619441
0.0
0.0
0.0
0.0
0.0106333386325
-0.0106333386325
0.0
0.0
0.0
0.0
0.00742396385331
-0.00742396385331
0.0
0.0
0.0
0.0
0.0
0.0
0.00435172025343
-0.00435172025343
0.00297506005018
-0.00297506005018
0.0
0.0
0.00297506005018
-0.00297506005018
0.0
0.0
0.00357990817302
-0.00357990817302
0.00333735647272
-0.00333735647272
0.00276458846355
-0.00276458846355
0.0
0.0
0.0
0.0
0.00160059448368
-0.00160059448368
0.0
0.0
0.0
0.0
0.0
0.0
0.00127965890496
-0.00127965890496
0.00134436796944
-0.00134436796944
0.0
0.0
0.0
0.0
0.0
0.0
0.000409921574114
-0.000409921574114
0.000398004388161
-0.000398004388161
0.0
0.0
0.000164919960824
-0.000164919960824
9.80166939909e-05
-9.80166939909e-05
1.72930739734e-05
-1.72930739734e-05
0.0
0.0
1.72930739734e-05
-1.72930739734e-05
0.0
0.0
0.0
0.0
0.0
0.0
0.0
0.0
2.18954755214e-07
-2.18954755214e-07
1.02059291289e-07
-1.02059291289e-07
0.0
0.0
3.17939632776e-08
-3.17939632776e-08
1.21758259149e-09
-1.21758259149e-09
0.0
0.0
