Actually entered program!

------------------------------------------------------------
Sender: LSF System <lsfadmin@c02b03>
Subject: Job 7741895: <d.3050.56> in cluster <umghpcc> Exited

Job <d.3050.56> was submitted from host <ghpcc06> by user <yh58b> in cluster <umghpcc> at Mon Jul 15 13:31:40 2019.
Job was executed on host(s) <c02b03>, in queue <short>, as user <yh58b> in cluster <umghpcc> at Mon Jul 15 18:59:55 2019.
</home/yh58b> was used as the home directory.
</home/yh58b/RMT/3050.doubly> was used as the working directory.
Started at Mon Jul 15 18:59:55 2019.
Terminated at Mon Jul 15 20:00:00 2019.
Results reported at Mon Jul 15 20:00:00 2019.

Your job looked like:

------------------------------------------------------------
# LSBATCH: User input
./eigen.exec 3050.pf 3050.56.eigen
------------------------------------------------------------

TERM_RUNLIMIT: job killed after reaching LSF run time limit.
Exited with exit code 140.

Resource usage summary:

    CPU time :                                   3603.38 sec.
    Max Memory :                                 82 MB
    Average Memory :                             81.89 MB
    Total Requested Memory :                     512.00 MB
    Delta Memory :                               430.00 MB
    Max Swap :                                   -
    Max Processes :                              3
    Max Threads :                                4
    Run time :                                   3605 sec.
    Turnaround time :                            23300 sec.

The output (if any) is above this job summary.



PS:

Read file <3050.56.error> for stderr output of this job.

