Actually entered program!

------------------------------------------------------------
Sender: LSF System <lsfadmin@c04b05>
Subject: Job 7741879: <d.3050.40> in cluster <umghpcc> Exited

Job <d.3050.40> was submitted from host <ghpcc06> by user <yh58b> in cluster <umghpcc> at Mon Jul 15 13:31:39 2019.
Job was executed on host(s) <c04b05>, in queue <short>, as user <yh58b> in cluster <umghpcc> at Mon Jul 15 18:56:25 2019.
</home/yh58b> was used as the home directory.
</home/yh58b/RMT/3050.doubly> was used as the working directory.
Started at Mon Jul 15 18:56:25 2019.
Terminated at Mon Jul 15 19:56:39 2019.
Results reported at Mon Jul 15 19:56:39 2019.

Your job looked like:

------------------------------------------------------------
# LSBATCH: User input
./eigen.exec 3050.pf 3050.40.eigen
------------------------------------------------------------

TERM_RUNLIMIT: job killed after reaching LSF run time limit.
Exited with exit code 140.

Resource usage summary:

    CPU time :                                   3613.00 sec.
    Max Memory :                                 82 MB
    Average Memory :                             81.88 MB
    Total Requested Memory :                     512.00 MB
    Delta Memory :                               430.00 MB
    Max Swap :                                   -
    Max Processes :                              3
    Max Threads :                                4
    Run time :                                   3614 sec.
    Turnaround time :                            23100 sec.

The output (if any) is above this job summary.



PS:

Read file <3050.40.error> for stderr output of this job.

