Actually entered program!
Running with size: 2850, Trials: 30, OutputFile: 2850.8.eigen, Appending?: 0

------------------------------------------------------------
Sender: LSF System <lsfadmin@c02b08>
Subject: Job 7846511: <s.2850.8> in cluster <umghpcc> Done

Job <s.2850.8> was submitted from host <ghpcc06> by user <yh58b> in cluster <umghpcc> at Tue Jul 16 15:35:57 2019.
Job was executed on host(s) <c02b08>, in queue <long>, as user <yh58b> in cluster <umghpcc> at Tue Jul 16 18:54:43 2019.
</home/yh58b> was used as the home directory.
</home/yh58b/RMT/2850.singly> was used as the working directory.
Started at Tue Jul 16 18:54:43 2019.
Terminated at Tue Jul 16 20:13:54 2019.
Results reported at Tue Jul 16 20:13:54 2019.

Your job looked like:

------------------------------------------------------------
# LSBATCH: User input
./eigen.exec 2850.pf 2850.8.eigen
------------------------------------------------------------

Successfully completed.

Resource usage summary:

    CPU time :                                   4749.57 sec.
    Max Memory :                                 73 MB
    Average Memory :                             72.90 MB
    Total Requested Memory :                     256.00 MB
    Delta Memory :                               183.00 MB
    Max Swap :                                   -
    Max Processes :                              3
    Max Threads :                                4
    Run time :                                   4751 sec.
    Turnaround time :                            16677 sec.

The output (if any) is above this job summary.



PS:

Read file <2850.8.error> for stderr output of this job.

