Actually entered program!

------------------------------------------------------------
Sender: LSF System <lsfadmin@c19b06>
Subject: Job 7743912: <d.4000.48> in cluster <umghpcc> Exited

Job <d.4000.48> was submitted from host <ghpcc06> by user <yh58b> in cluster <umghpcc> at Mon Jul 15 13:34:05 2019.
Job was executed on host(s) <c19b06>, in queue <short>, as user <yh58b> in cluster <umghpcc> at Mon Jul 15 22:11:03 2019.
</home/yh58b> was used as the home directory.
</home/yh58b/RMT/4000.doubly> was used as the working directory.
Started at Mon Jul 15 22:11:03 2019.
Terminated at Mon Jul 15 23:11:06 2019.
Results reported at Mon Jul 15 23:11:06 2019.

Your job looked like:

------------------------------------------------------------
# LSBATCH: User input
./eigen.exec 4000.pf 4000.48.eigen
------------------------------------------------------------

TERM_RUNLIMIT: job killed after reaching LSF run time limit.
Exited with exit code 140.

Resource usage summary:

    CPU time :                                   3602.23 sec.
    Max Memory :                                 134 MB
    Average Memory :                             134.00 MB
    Total Requested Memory :                     512.00 MB
    Delta Memory :                               378.00 MB
    Max Swap :                                   -
    Max Processes :                              3
    Max Threads :                                4
    Run time :                                   3604 sec.
    Turnaround time :                            34621 sec.

The output (if any) is above this job summary.



PS:

Read file <4000.48.error> for stderr output of this job.

