Actually entered program!
Running with size: 4000, Trials: 4, OutputFile: 4000.14.eigen, Appending?: 0

------------------------------------------------------------
Sender: LSF System <lsfadmin@c07b01>
Subject: Job 7743878: <d.4000.14> in cluster <umghpcc> Done

Job <d.4000.14> was submitted from host <ghpcc06> by user <yh58b> in cluster <umghpcc> at Mon Jul 15 13:34:02 2019.
Job was executed on host(s) <c07b01>, in queue <short>, as user <yh58b> in cluster <umghpcc> at Mon Jul 15 22:08:00 2019.
</home/yh58b> was used as the home directory.
</home/yh58b/RMT/4000.doubly> was used as the working directory.
Started at Mon Jul 15 22:08:00 2019.
Terminated at Mon Jul 15 23:07:04 2019.
Results reported at Mon Jul 15 23:07:04 2019.

Your job looked like:

------------------------------------------------------------
# LSBATCH: User input
./eigen.exec 4000.pf 4000.14.eigen
------------------------------------------------------------

Successfully completed.

Resource usage summary:

    CPU time :                                   3542.69 sec.
    Max Memory :                                 134 MB
    Average Memory :                             133.59 MB
    Total Requested Memory :                     512.00 MB
    Delta Memory :                               378.00 MB
    Max Swap :                                   -
    Max Processes :                              3
    Max Threads :                                4
    Run time :                                   3544 sec.
    Turnaround time :                            34382 sec.

The output (if any) is above this job summary.



PS:

Read file <4000.14.error> for stderr output of this job.

