Actually entered program!
Running with size: 4450, Trials: 6, OutputFile: 4450.58.eigen, Appending?: 0

------------------------------------------------------------
Sender: LSF System <lsfadmin@c04b04>
Subject: Job 7739577: <s.4450.58> in cluster <umghpcc> Done

Job <s.4450.58> was submitted from host <ghpcc06> by user <yh58b> in cluster <umghpcc> at Mon Jul 15 13:28:46 2019.
Job was executed on host(s) <c04b04>, in queue <short>, as user <yh58b> in cluster <umghpcc> at Mon Jul 15 15:36:53 2019.
</home/yh58b> was used as the home directory.
</home/yh58b/RMT/4450.singly> was used as the working directory.
Started at Mon Jul 15 15:36:53 2019.
Terminated at Mon Jul 15 16:35:23 2019.
Results reported at Mon Jul 15 16:35:23 2019.

Your job looked like:

------------------------------------------------------------
# LSBATCH: User input
./eigen.exec 4450.pf 4450.58.eigen
------------------------------------------------------------

Successfully completed.

Resource usage summary:

    CPU time :                                   3509.34 sec.
    Max Memory :                                 164 MB
    Average Memory :                             163.53 MB
    Total Requested Memory :                     512.00 MB
    Delta Memory :                               348.00 MB
    Max Swap :                                   -
    Max Processes :                              3
    Max Threads :                                4
    Run time :                                   3510 sec.
    Turnaround time :                            11197 sec.

The output (if any) is above this job summary.



PS:

Read file <4450.58.error> for stderr output of this job.

