Actually entered program!

------------------------------------------------------------
Sender: LSF System <lsfadmin@c07b07>
Subject: Job 7745619: <d.4600.114> in cluster <umghpcc> Exited

Job <d.4600.114> was submitted from host <ghpcc06> by user <yh58b> in cluster <umghpcc> at Mon Jul 15 13:36:07 2019.
Job was executed on host(s) <c07b07>, in queue <short>, as user <yh58b> in cluster <umghpcc> at Tue Jul 16 01:04:54 2019.
</home/yh58b> was used as the home directory.
</home/yh58b/RMT/4600.doubly> was used as the working directory.
Started at Tue Jul 16 01:04:54 2019.
Terminated at Tue Jul 16 02:05:01 2019.
Results reported at Tue Jul 16 02:05:01 2019.

Your job looked like:

------------------------------------------------------------
# LSBATCH: User input
./eigen.exec 4600.pf 4600.114.eigen
------------------------------------------------------------

TERM_RUNLIMIT: job killed after reaching LSF run time limit.
Exited with exit code 140.

Resource usage summary:

    CPU time :                                   3599.35 sec.
    Max Memory :                                 174 MB
    Average Memory :                             172.76 MB
    Total Requested Memory :                     512.00 MB
    Delta Memory :                               338.00 MB
    Max Swap :                                   -
    Max Processes :                              3
    Max Threads :                                4
    Run time :                                   3607 sec.
    Turnaround time :                            44934 sec.

The output (if any) is above this job summary.



PS:

Read file <4600.114.error> for stderr output of this job.

