Actually entered program!

------------------------------------------------------------
Sender: LSF System <lsfadmin@c02b05>
Subject: Job 7741821: <d.3000.38> in cluster <umghpcc> Exited

Job <d.3000.38> was submitted from host <ghpcc06> by user <yh58b> in cluster <umghpcc> at Mon Jul 15 13:31:35 2019.
Job was executed on host(s) <c02b05>, in queue <short>, as user <yh58b> in cluster <umghpcc> at Mon Jul 15 18:47:18 2019.
</home/yh58b> was used as the home directory.
</home/yh58b/RMT/3000.doubly> was used as the working directory.
Started at Mon Jul 15 18:47:18 2019.
Terminated at Mon Jul 15 19:47:30 2019.
Results reported at Mon Jul 15 19:47:30 2019.

Your job looked like:

------------------------------------------------------------
# LSBATCH: User input
./eigen.exec 3000.pf 3000.38.eigen
------------------------------------------------------------

TERM_RUNLIMIT: job killed after reaching LSF run time limit.
Exited with exit code 140.

Resource usage summary:

    CPU time :                                   3610.39 sec.
    Max Memory :                                 79 MB
    Average Memory :                             78.91 MB
    Total Requested Memory :                     512.00 MB
    Delta Memory :                               433.00 MB
    Max Swap :                                   -
    Max Processes :                              3
    Max Threads :                                4
    Run time :                                   3612 sec.
    Turnaround time :                            22555 sec.

The output (if any) is above this job summary.



PS:

Read file <3000.38.error> for stderr output of this job.

