Actually entered program!
Running with size: 4000, Trials: 7, OutputFile: 4000.8.eigen, Appending?: 0

------------------------------------------------------------
Sender: LSF System <lsfadmin@c36b11>
Subject: Job 7847600: <s.4000.8> in cluster <umghpcc> Done

Job <s.4000.8> was submitted from host <ghpcc06> by user <yh58b> in cluster <umghpcc> at Tue Jul 16 15:37:19 2019.
Job was executed on host(s) <c36b11>, in queue <long>, as user <yh58b> in cluster <umghpcc> at Wed Jul 17 05:10:17 2019.
</home/yh58b> was used as the home directory.
</home/yh58b/RMT/4000.singly> was used as the working directory.
Started at Wed Jul 17 05:10:17 2019.
Terminated at Wed Jul 17 05:31:04 2019.
Results reported at Wed Jul 17 05:31:04 2019.

Your job looked like:

------------------------------------------------------------
# LSBATCH: User input
./eigen.exec 4000.pf 4000.8.eigen
------------------------------------------------------------

Successfully completed.

Resource usage summary:

    CPU time :                                   1245.26 sec.
    Max Memory :                                 133 MB
    Average Memory :                             132.88 MB
    Total Requested Memory :                     256.00 MB
    Delta Memory :                               123.00 MB
    Max Swap :                                   -
    Max Processes :                              3
    Max Threads :                                4
    Run time :                                   1246 sec.
    Turnaround time :                            50025 sec.

The output (if any) is above this job summary.



PS:

Read file <4000.8.error> for stderr output of this job.

