Actually entered program!
Running with size: 4300, Trials: 7, OutputFile: 4300.50.eigen, Appending?: 0

------------------------------------------------------------
Sender: LSF System <lsfadmin@c03b08>
Subject: Job 7739370: <s.4300.50> in cluster <umghpcc> Done

Job <s.4300.50> was submitted from host <ghpcc06> by user <yh58b> in cluster <umghpcc> at Mon Jul 15 13:28:30 2019.
Job was executed on host(s) <c03b08>, in queue <short>, as user <yh58b> in cluster <umghpcc> at Mon Jul 15 15:25:19 2019.
</home/yh58b> was used as the home directory.
</home/yh58b/RMT/4300.singly> was used as the working directory.
Started at Mon Jul 15 15:25:19 2019.
Terminated at Mon Jul 15 16:14:57 2019.
Results reported at Mon Jul 15 16:14:57 2019.

Your job looked like:

------------------------------------------------------------
# LSBATCH: User input
./eigen.exec 4300.pf 4300.50.eigen
------------------------------------------------------------

Successfully completed.

Resource usage summary:

    CPU time :                                   2975.96 sec.
    Max Memory :                                 152 MB
    Average Memory :                             151.88 MB
    Total Requested Memory :                     512.00 MB
    Delta Memory :                               360.00 MB
    Max Swap :                                   -
    Max Processes :                              3
    Max Threads :                                4
    Run time :                                   2977 sec.
    Turnaround time :                            9987 sec.

The output (if any) is above this job summary.



PS:

Read file <4300.50.error> for stderr output of this job.

