Actually entered program!

------------------------------------------------------------
Sender: LSF System <lsfadmin@c30b02>
Subject: Job 7737824: <s.3200.16> in cluster <umghpcc> Exited

Job <s.3200.16> was submitted from host <ghpcc06> by user <yh58b> in cluster <umghpcc> at Mon Jul 15 13:26:36 2019.
Job was executed on host(s) <c30b02>, in queue <short>, as user <yh58b> in cluster <umghpcc> at Mon Jul 15 13:56:01 2019.
</home/yh58b> was used as the home directory.
</home/yh58b/RMT/3200.singly> was used as the working directory.
Started at Mon Jul 15 13:56:01 2019.
Terminated at Mon Jul 15 14:56:09 2019.
Results reported at Mon Jul 15 14:56:09 2019.

Your job looked like:

------------------------------------------------------------
# LSBATCH: User input
./eigen.exec 3200.pf 3200.16.eigen
------------------------------------------------------------

TERM_RUNLIMIT: job killed after reaching LSF run time limit.
Exited with exit code 152.

Resource usage summary:

    CPU time :                                   3606.69 sec.
    Max Memory :                                 91 MB
    Average Memory :                             90.48 MB
    Total Requested Memory :                     512.00 MB
    Delta Memory :                               421.00 MB
    Max Swap :                                   -
    Max Processes :                              3
    Max Threads :                                4
    Run time :                                   3607 sec.
    Turnaround time :                            5373 sec.

The output (if any) is above this job summary.



PS:

Read file <3200.16.error> for stderr output of this job.

