Actually entered program!
Running with size: 3200, Trials: 16, OutputFile: 3200.4.eigen, Appending?: 0

------------------------------------------------------------
Sender: LSF System <lsfadmin@c29b15>
Subject: Job 7737812: <s.3200.4> in cluster <umghpcc> Done

Job <s.3200.4> was submitted from host <ghpcc06> by user <yh58b> in cluster <umghpcc> at Mon Jul 15 13:26:34 2019.
Job was executed on host(s) <c29b15>, in queue <short>, as user <yh58b> in cluster <umghpcc> at Mon Jul 15 13:55:54 2019.
</home/yh58b> was used as the home directory.
</home/yh58b/RMT/3200.singly> was used as the working directory.
Started at Mon Jul 15 13:55:54 2019.
Terminated at Mon Jul 15 14:27:04 2019.
Results reported at Mon Jul 15 14:27:04 2019.

Your job looked like:

------------------------------------------------------------
# LSBATCH: User input
./eigen.exec 3200.pf 3200.4.eigen
------------------------------------------------------------

Successfully completed.

Resource usage summary:

    CPU time :                                   1866.35 sec.
    Max Memory :                                 90 MB
    Average Memory :                             88.98 MB
    Total Requested Memory :                     512.00 MB
    Delta Memory :                               422.00 MB
    Max Swap :                                   -
    Max Processes :                              3
    Max Threads :                                4
    Run time :                                   1870 sec.
    Turnaround time :                            3630 sec.

The output (if any) is above this job summary.



PS:

Read file <3200.4.error> for stderr output of this job.

