Actually entered program!
Running with size: 3950, Trials: 8, OutputFile: 3950.61.eigen, Appending?: 0

------------------------------------------------------------
Sender: LSF System <lsfadmin@c33b03>
Subject: Job 7738675: <s.3950.61> in cluster <umghpcc> Done

Job <s.3950.61> was submitted from host <ghpcc06> by user <yh58b> in cluster <umghpcc> at Mon Jul 15 13:27:38 2019.
Job was executed on host(s) <c33b03>, in queue <short>, as user <yh58b> in cluster <umghpcc> at Mon Jul 15 14:53:13 2019.
</home/yh58b> was used as the home directory.
</home/yh58b/RMT/3950.singly> was used as the working directory.
Started at Mon Jul 15 14:53:13 2019.
Terminated at Mon Jul 15 15:44:11 2019.
Results reported at Mon Jul 15 15:44:11 2019.

Your job looked like:

------------------------------------------------------------
# LSBATCH: User input
./eigen.exec 3950.pf 3950.61.eigen
------------------------------------------------------------

Successfully completed.

Resource usage summary:

    CPU time :                                   3055.71 sec.
    Max Memory :                                 130 MB
    Average Memory :                             129.24 MB
    Total Requested Memory :                     512.00 MB
    Delta Memory :                               382.00 MB
    Max Swap :                                   -
    Max Processes :                              3
    Max Threads :                                4
    Run time :                                   3057 sec.
    Turnaround time :                            8193 sec.

The output (if any) is above this job summary.



PS:

Read file <3950.61.error> for stderr output of this job.

