Actually entered program!
Running with size: 3550, Trials: 12, OutputFile: 3550.36.eigen, Appending?: 0

------------------------------------------------------------
Sender: LSF System <lsfadmin@c38b04>
Subject: Job 7738127: <s.3550.36> in cluster <umghpcc> Done

Job <s.3550.36> was submitted from host <ghpcc06> by user <yh58b> in cluster <umghpcc> at Mon Jul 15 13:26:59 2019.
Job was executed on host(s) <c38b04>, in queue <short>, as user <yh58b> in cluster <umghpcc> at Mon Jul 15 14:25:21 2019.
</home/yh58b> was used as the home directory.
</home/yh58b/RMT/3550.singly> was used as the working directory.
Started at Mon Jul 15 14:25:21 2019.
Terminated at Mon Jul 15 14:48:55 2019.
Results reported at Mon Jul 15 14:48:55 2019.

Your job looked like:

------------------------------------------------------------
# LSBATCH: User input
./eigen.exec 3550.pf 3550.36.eigen
------------------------------------------------------------

Successfully completed.

Resource usage summary:

    CPU time :                                   1413.63 sec.
    Max Memory :                                 109 MB
    Average Memory :                             109.00 MB
    Total Requested Memory :                     512.00 MB
    Delta Memory :                               403.00 MB
    Max Swap :                                   -
    Max Processes :                              3
    Max Threads :                                4
    Run time :                                   1414 sec.
    Turnaround time :                            4916 sec.

The output (if any) is above this job summary.



PS:

Read file <3550.36.error> for stderr output of this job.

