Actually entered program!
Running with size: 3650, Trials: 9, OutputFile: 3650.stray.eigen, Appending?: 0

------------------------------------------------------------
Sender: LSF System <lsfadmin@c38b09>
Subject: Job 7738231: <s.3650.stray> in cluster <umghpcc> Done

Job <s.3650.stray> was submitted from host <ghpcc06> by user <yh58b> in cluster <umghpcc> at Mon Jul 15 13:27:06 2019.
Job was executed on host(s) <c38b09>, in queue <short>, as user <yh58b> in cluster <umghpcc> at Mon Jul 15 14:27:02 2019.
</home/yh58b> was used as the home directory.
</home/yh58b/RMT/3650.singly> was used as the working directory.
Started at Mon Jul 15 14:27:02 2019.
Terminated at Mon Jul 15 14:42:34 2019.
Results reported at Mon Jul 15 14:42:34 2019.

Your job looked like:

------------------------------------------------------------
# LSBATCH: User input
./eigen.exec 3650.stray.pf 3650.stray.eigen
------------------------------------------------------------

Successfully completed.

Resource usage summary:

    CPU time :                                   931.29 sec.
    Max Memory :                                 112 MB
    Average Memory :                             112.00 MB
    Total Requested Memory :                     512.00 MB
    Delta Memory :                               400.00 MB
    Max Swap :                                   -
    Max Processes :                              3
    Max Threads :                                4
    Run time :                                   931 sec.
    Turnaround time :                            4528 sec.

The output (if any) is above this job summary.



PS:

Read file <3650.stray.error> for stderr output of this job.

