Actually entered program!
Running with size: 4750, Trials: 5, OutputFile: 4750.69.eigen, Appending?: 0

------------------------------------------------------------
Sender: LSF System <lsfadmin@c01b16>
Subject: Job 7740162: <s.4750.69> in cluster <umghpcc> Done

Job <s.4750.69> was submitted from host <ghpcc06> by user <yh58b> in cluster <umghpcc> at Mon Jul 15 13:29:29 2019.
Job was executed on host(s) <c01b16>, in queue <short>, as user <yh58b> in cluster <umghpcc> at Mon Jul 15 16:18:11 2019.
</home/yh58b> was used as the home directory.
</home/yh58b/RMT/4750.singly> was used as the working directory.
Started at Mon Jul 15 16:18:11 2019.
Terminated at Mon Jul 15 17:02:01 2019.
Results reported at Mon Jul 15 17:02:01 2019.

Your job looked like:

------------------------------------------------------------
# LSBATCH: User input
./eigen.exec 4750.pf 4750.69.eigen
------------------------------------------------------------

Successfully completed.

Resource usage summary:

    CPU time :                                   2628.27 sec.
    Max Memory :                                 183 MB
    Average Memory :                             183.00 MB
    Total Requested Memory :                     512.00 MB
    Delta Memory :                               329.00 MB
    Max Swap :                                   -
    Max Processes :                              3
    Max Threads :                                4
    Run time :                                   2629 sec.
    Turnaround time :                            12752 sec.

The output (if any) is above this job summary.



PS:

Read file <4750.69.error> for stderr output of this job.

