Actually entered program!
Running with size: 4750, Trials: 5, OutputFile: 4750.33.eigen, Appending?: 0

------------------------------------------------------------
Sender: LSF System <lsfadmin@c23b05>
Subject: Job 7740126: <s.4750.33> in cluster <umghpcc> Done

Job <s.4750.33> was submitted from host <ghpcc06> by user <yh58b> in cluster <umghpcc> at Mon Jul 15 13:29:27 2019.
Job was executed on host(s) <c23b05>, in queue <short>, as user <yh58b> in cluster <umghpcc> at Mon Jul 15 16:14:54 2019.
</home/yh58b> was used as the home directory.
</home/yh58b/RMT/4750.singly> was used as the working directory.
Started at Mon Jul 15 16:14:54 2019.
Terminated at Mon Jul 15 17:13:53 2019.
Results reported at Mon Jul 15 17:13:53 2019.

Your job looked like:

------------------------------------------------------------
# LSBATCH: User input
./eigen.exec 4750.pf 4750.33.eigen
------------------------------------------------------------

Successfully completed.

Resource usage summary:

    CPU time :                                   3538.11 sec.
    Max Memory :                                 183 MB
    Average Memory :                             183.00 MB
    Total Requested Memory :                     512.00 MB
    Delta Memory :                               329.00 MB
    Max Swap :                                   -
    Max Processes :                              3
    Max Threads :                                4
    Run time :                                   3539 sec.
    Turnaround time :                            13466 sec.

The output (if any) is above this job summary.



PS:

Read file <4750.33.error> for stderr output of this job.

