Actually entered program!
Running with size: 4750, Trials: 5, OutputFile: 4750.61.eigen, Appending?: 0

------------------------------------------------------------
Sender: LSF System <lsfadmin@c01b08>
Subject: Job 7740154: <s.4750.61> in cluster <umghpcc> Done

Job <s.4750.61> was submitted from host <ghpcc06> by user <yh58b> in cluster <umghpcc> at Mon Jul 15 13:29:29 2019.
Job was executed on host(s) <c01b08>, in queue <short>, as user <yh58b> in cluster <umghpcc> at Mon Jul 15 16:17:27 2019.
</home/yh58b> was used as the home directory.
</home/yh58b/RMT/4750.singly> was used as the working directory.
Started at Mon Jul 15 16:17:27 2019.
Terminated at Mon Jul 15 16:59:19 2019.
Results reported at Mon Jul 15 16:59:19 2019.

Your job looked like:

------------------------------------------------------------
# LSBATCH: User input
./eigen.exec 4750.pf 4750.61.eigen
------------------------------------------------------------

Successfully completed.

Resource usage summary:

    CPU time :                                   2511.06 sec.
    Max Memory :                                 185 MB
    Average Memory :                             185.00 MB
    Total Requested Memory :                     512.00 MB
    Delta Memory :                               327.00 MB
    Max Swap :                                   -
    Max Processes :                              3
    Max Threads :                                4
    Run time :                                   2512 sec.
    Turnaround time :                            12590 sec.

The output (if any) is above this job summary.



PS:

Read file <4750.61.error> for stderr output of this job.

