Actually entered program!
Running with size: 3750, Trials: 5, OutputFile: 3750.29.eigen, Appending?: 0

------------------------------------------------------------
Sender: LSF System <lsfadmin@c01b11>
Subject: Job 7743277: <d.3750.29> in cluster <umghpcc> Done

Job <d.3750.29> was submitted from host <ghpcc06> by user <yh58b> in cluster <umghpcc> at Mon Jul 15 13:33:19 2019.
Job was executed on host(s) <c01b11>, in queue <short>, as user <yh58b> in cluster <umghpcc> at Mon Jul 15 21:13:29 2019.
</home/yh58b> was used as the home directory.
</home/yh58b/RMT/3750.doubly> was used as the working directory.
Started at Mon Jul 15 21:13:29 2019.
Terminated at Mon Jul 15 21:48:14 2019.
Results reported at Mon Jul 15 21:48:14 2019.

Your job looked like:

------------------------------------------------------------
# LSBATCH: User input
./eigen.exec 3750.pf 3750.29.eigen
------------------------------------------------------------

Successfully completed.

Resource usage summary:

    CPU time :                                   2083.71 sec.
    Max Memory :                                 119 MB
    Average Memory :                             118.51 MB
    Total Requested Memory :                     512.00 MB
    Delta Memory :                               393.00 MB
    Max Swap :                                   -
    Max Processes :                              3
    Max Threads :                                4
    Run time :                                   2084 sec.
    Turnaround time :                            29695 sec.

The output (if any) is above this job summary.



PS:

Read file <3750.29.error> for stderr output of this job.

