Actually entered program!
Running with size: 2550, Trials: 31, OutputFile: 2550.1.eigen, Appending?: 0

------------------------------------------------------------
Sender: LSF System <lsfadmin@c09b02>
Subject: Job 7846353: <s.2550.1> in cluster <umghpcc> Done

Job <s.2550.1> was submitted from host <ghpcc06> by user <yh58b> in cluster <umghpcc> at Tue Jul 16 15:35:46 2019.
Job was executed on host(s) <c09b02>, in queue <long>, as user <yh58b> in cluster <umghpcc> at Tue Jul 16 17:50:29 2019.
</home/yh58b> was used as the home directory.
</home/yh58b/RMT/2550.singly> was used as the working directory.
Started at Tue Jul 16 17:50:29 2019.
Terminated at Tue Jul 16 18:59:02 2019.
Results reported at Tue Jul 16 18:59:02 2019.

Your job looked like:

------------------------------------------------------------
# LSBATCH: User input
./eigen.exec 2550.pf 2550.1.eigen
------------------------------------------------------------

Successfully completed.

Resource usage summary:

    CPU time :                                   4110.69 sec.
    Max Memory :                                 61 MB
    Average Memory :                             60.44 MB
    Total Requested Memory :                     256.00 MB
    Delta Memory :                               195.00 MB
    Max Swap :                                   -
    Max Processes :                              3
    Max Threads :                                4
    Run time :                                   4112 sec.
    Turnaround time :                            12196 sec.

The output (if any) is above this job summary.



PS:

Read file <2550.1.error> for stderr output of this job.

