Actually entered program!
Running with size: 2300, Trials: 49, OutputFile: 2300.2.eigen, Appending?: 0

------------------------------------------------------------
Sender: LSF System <lsfadmin@c40b14>
Subject: Job 7846238: <s.2300.2> in cluster <umghpcc> Done

Job <s.2300.2> was submitted from host <ghpcc06> by user <yh58b> in cluster <umghpcc> at Tue Jul 16 15:35:37 2019.
Job was executed on host(s) <c40b14>, in queue <long>, as user <yh58b> in cluster <umghpcc> at Tue Jul 16 16:49:18 2019.
</home/yh58b> was used as the home directory.
</home/yh58b/RMT/2300.singly> was used as the working directory.
Started at Tue Jul 16 16:49:18 2019.
Terminated at Tue Jul 16 17:13:07 2019.
Results reported at Tue Jul 16 17:13:07 2019.

Your job looked like:

------------------------------------------------------------
# LSBATCH: User input
./eigen.exec 2300.pf 2300.2.eigen
------------------------------------------------------------

Successfully completed.

Resource usage summary:

    CPU time :                                   1429.41 sec.
    Max Memory :                                 51 MB
    Average Memory :                             51.00 MB
    Total Requested Memory :                     256.00 MB
    Delta Memory :                               205.00 MB
    Max Swap :                                   -
    Max Processes :                              3
    Max Threads :                                4
    Run time :                                   1429 sec.
    Turnaround time :                            5850 sec.

The output (if any) is above this job summary.



PS:

Read file <2300.2.error> for stderr output of this job.

