Actually entered program!
Running with size: 2300, Trials: 49, OutputFile: 2300.11.eigen, Appending?: 0

------------------------------------------------------------
Sender: LSF System <lsfadmin@c40b04>
Subject: Job 7846247: <s.2300.11> in cluster <umghpcc> Done

Job <s.2300.11> was submitted from host <ghpcc06> by user <yh58b> in cluster <umghpcc> at Tue Jul 16 15:35:37 2019.
Job was executed on host(s) <c40b04>, in queue <long>, as user <yh58b> in cluster <umghpcc> at Tue Jul 16 16:53:18 2019.
</home/yh58b> was used as the home directory.
</home/yh58b/RMT/2300.singly> was used as the working directory.
Started at Tue Jul 16 16:53:18 2019.
Terminated at Tue Jul 16 17:17:39 2019.
Results reported at Tue Jul 16 17:17:39 2019.

Your job looked like:

------------------------------------------------------------
# LSBATCH: User input
./eigen.exec 2300.pf 2300.11.eigen
------------------------------------------------------------

Successfully completed.

Resource usage summary:

    CPU time :                                   1461.30 sec.
    Max Memory :                                 53 MB
    Average Memory :                             53.00 MB
    Total Requested Memory :                     256.00 MB
    Delta Memory :                               203.00 MB
    Max Swap :                                   -
    Max Processes :                              3
    Max Threads :                                4
    Run time :                                   1460 sec.
    Turnaround time :                            6122 sec.

The output (if any) is above this job summary.



PS:

Read file <2300.11.error> for stderr output of this job.

