Actually entered program!
Running with size: 3950, Trials: 2, OutputFile: 3950.stray.eigen, Appending?: 0

------------------------------------------------------------
Sender: LSF System <lsfadmin@c36b10>
Subject: Job 7847592: <s.3950.stray> in cluster <umghpcc> Done

Job <s.3950.stray> was submitted from host <ghpcc06> by user <yh58b> in cluster <umghpcc> at Tue Jul 16 15:37:18 2019.
Job was executed on host(s) <c36b10>, in queue <long>, as user <yh58b> in cluster <umghpcc> at Wed Jul 17 05:07:30 2019.
</home/yh58b> was used as the home directory.
</home/yh58b/RMT/3950.singly> was used as the working directory.
Started at Wed Jul 17 05:07:30 2019.
Terminated at Wed Jul 17 05:12:37 2019.
Results reported at Wed Jul 17 05:12:37 2019.

Your job looked like:

------------------------------------------------------------
# LSBATCH: User input
./eigen.exec 3950.stray.pf 3950.stray.eigen
------------------------------------------------------------

Successfully completed.

Resource usage summary:

    CPU time :                                   305.81 sec.
    Max Memory :                                 130 MB
    Average Memory :                             129.45 MB
    Total Requested Memory :                     256.00 MB
    Delta Memory :                               126.00 MB
    Max Swap :                                   -
    Max Processes :                              3
    Max Threads :                                4
    Run time :                                   307 sec.
    Turnaround time :                            48919 sec.

The output (if any) is above this job summary.



PS:

Read file <3950.stray.error> for stderr output of this job.

