Actually entered program!
Running with size: 3300, Trials: 5, OutputFile: 3300.23.eigen, Appending?: 0

------------------------------------------------------------
Sender: LSF System <lsfadmin@c05b06>
Subject: Job 7742248: <d.3300.23> in cluster <umghpcc> Done

Job <d.3300.23> was submitted from host <ghpcc06> by user <yh58b> in cluster <umghpcc> at Mon Jul 15 13:32:06 2019.
Job was executed on host(s) <c05b06>, in queue <short>, as user <yh58b> in cluster <umghpcc> at Mon Jul 15 19:38:32 2019.
</home/yh58b> was used as the home directory.
</home/yh58b/RMT/3300.doubly> was used as the working directory.
Started at Mon Jul 15 19:38:32 2019.
Terminated at Mon Jul 15 20:08:30 2019.
Results reported at Mon Jul 15 20:08:30 2019.

Your job looked like:

------------------------------------------------------------
# LSBATCH: User input
./eigen.exec 3300.pf 3300.23.eigen
------------------------------------------------------------

Successfully completed.

Resource usage summary:

    CPU time :                                   1787.71 sec.
    Max Memory :                                 95 MB
    Average Memory :                             94.69 MB
    Total Requested Memory :                     512.00 MB
    Delta Memory :                               417.00 MB
    Max Swap :                                   -
    Max Processes :                              3
    Max Threads :                                4
    Run time :                                   1798 sec.
    Turnaround time :                            23784 sec.

The output (if any) is above this job summary.



PS:

Read file <3300.23.error> for stderr output of this job.

