Actually entered program!
Running with size: 3300, Trials: 5, OutputFile: 3300.79.eigen, Appending?: 0

------------------------------------------------------------
Sender: LSF System <lsfadmin@c07b04>
Subject: Job 7742304: <d.3300.79> in cluster <umghpcc> Done

Job <d.3300.79> was submitted from host <ghpcc06> by user <yh58b> in cluster <umghpcc> at Mon Jul 15 13:32:09 2019.
Job was executed on host(s) <c07b04>, in queue <short>, as user <yh58b> in cluster <umghpcc> at Mon Jul 15 19:42:09 2019.
</home/yh58b> was used as the home directory.
</home/yh58b/RMT/3300.doubly> was used as the working directory.
Started at Mon Jul 15 19:42:09 2019.
Terminated at Mon Jul 15 20:23:05 2019.
Results reported at Mon Jul 15 20:23:05 2019.

Your job looked like:

------------------------------------------------------------
# LSBATCH: User input
./eigen.exec 3300.pf 3300.79.eigen
------------------------------------------------------------

Successfully completed.

Resource usage summary:

    CPU time :                                   2455.05 sec.
    Max Memory :                                 94 MB
    Average Memory :                             93.85 MB
    Total Requested Memory :                     512.00 MB
    Delta Memory :                               418.00 MB
    Max Swap :                                   -
    Max Processes :                              3
    Max Threads :                                4
    Run time :                                   2456 sec.
    Turnaround time :                            24656 sec.

The output (if any) is above this job summary.



PS:

Read file <3300.79.error> for stderr output of this job.

