Actually entered program!
Running with size: 4350, Trials: 7, OutputFile: 4350.7.eigen, Appending?: 0

------------------------------------------------------------
Sender: LSF System <lsfadmin@c30b06>
Subject: Job 7739394: <s.4350.7> in cluster <umghpcc> Done

Job <s.4350.7> was submitted from host <ghpcc06> by user <yh58b> in cluster <umghpcc> at Mon Jul 15 13:28:32 2019.
Job was executed on host(s) <c30b06>, in queue <short>, as user <yh58b> in cluster <umghpcc> at Mon Jul 15 15:25:42 2019.
</home/yh58b> was used as the home directory.
</home/yh58b/RMT/4350.singly> was used as the working directory.
Started at Mon Jul 15 15:25:42 2019.
Terminated at Mon Jul 15 16:25:11 2019.
Results reported at Mon Jul 15 16:25:11 2019.

Your job looked like:

------------------------------------------------------------
# LSBATCH: User input
./eigen.exec 4350.pf 4350.7.eigen
------------------------------------------------------------

Successfully completed.

Resource usage summary:

    CPU time :                                   3555.83 sec.
    Max Memory :                                 155 MB
    Average Memory :                             155.00 MB
    Total Requested Memory :                     512.00 MB
    Delta Memory :                               357.00 MB
    Max Swap :                                   -
    Max Processes :                              3
    Max Threads :                                4
    Run time :                                   3569 sec.
    Turnaround time :                            10599 sec.

The output (if any) is above this job summary.



PS:

Read file <4350.7.error> for stderr output of this job.

