Actually entered program!
Running with size: 4350, Trials: 7, OutputFile: 4350.32.eigen, Appending?: 0

------------------------------------------------------------
Sender: LSF System <lsfadmin@c37b16>
Subject: Job 7739419: <s.4350.32> in cluster <umghpcc> Done

Job <s.4350.32> was submitted from host <ghpcc06> by user <yh58b> in cluster <umghpcc> at Mon Jul 15 13:28:34 2019.
Job was executed on host(s) <c37b16>, in queue <short>, as user <yh58b> in cluster <umghpcc> at Mon Jul 15 15:27:21 2019.
</home/yh58b> was used as the home directory.
</home/yh58b/RMT/4350.singly> was used as the working directory.
Started at Mon Jul 15 15:27:21 2019.
Terminated at Mon Jul 15 15:48:43 2019.
Results reported at Mon Jul 15 15:48:43 2019.

Your job looked like:

------------------------------------------------------------
# LSBATCH: User input
./eigen.exec 4350.pf 4350.32.eigen
------------------------------------------------------------

Successfully completed.

Resource usage summary:

    CPU time :                                   1279.64 sec.
    Max Memory :                                 157 MB
    Average Memory :                             155.10 MB
    Total Requested Memory :                     512.00 MB
    Delta Memory :                               355.00 MB
    Max Swap :                                   -
    Max Processes :                              3
    Max Threads :                                4
    Run time :                                   1282 sec.
    Turnaround time :                            8409 sec.

The output (if any) is above this job summary.



PS:

Read file <4350.32.error> for stderr output of this job.

