Actually entered program!
Running with size: 4500, Trials: 3, OutputFile: 4500.117.eigen, Appending?: 0

------------------------------------------------------------
Sender: LSF System <lsfadmin@c38b07>
Subject: Job 7739711: <s.4500.117> in cluster <umghpcc> Done

Job <s.4500.117> was submitted from host <ghpcc06> by user <yh58b> in cluster <umghpcc> at Mon Jul 15 13:28:56 2019.
Job was executed on host(s) <c38b07>, in queue <short>, as user <yh58b> in cluster <umghpcc> at Mon Jul 15 15:45:04 2019.
</home/yh58b> was used as the home directory.
</home/yh58b/RMT/4500.singly> was used as the working directory.
Started at Mon Jul 15 15:45:04 2019.
Terminated at Mon Jul 15 15:55:29 2019.
Results reported at Mon Jul 15 15:55:29 2019.

Your job looked like:

------------------------------------------------------------
# LSBATCH: User input
./eigen.exec 4500.pf 4500.117.eigen
------------------------------------------------------------

Successfully completed.

Resource usage summary:

    CPU time :                                   623.82 sec.
    Max Memory :                                 167 MB
    Average Memory :                             167.00 MB
    Total Requested Memory :                     512.00 MB
    Delta Memory :                               345.00 MB
    Max Swap :                                   -
    Max Processes :                              3
    Max Threads :                                4
    Run time :                                   624 sec.
    Turnaround time :                            8793 sec.

The output (if any) is above this job summary.



PS:

Read file <4500.117.error> for stderr output of this job.

