Actually entered program!
Running with size: 4500, Trials: 3, OutputFile: 4500.24.eigen, Appending?: 0

------------------------------------------------------------
Sender: LSF System <lsfadmin@c19b07>
Subject: Job 7739618: <s.4500.24> in cluster <umghpcc> Done

Job <s.4500.24> was submitted from host <ghpcc06> by user <yh58b> in cluster <umghpcc> at Mon Jul 15 13:28:49 2019.
Job was executed on host(s) <c19b07>, in queue <short>, as user <yh58b> in cluster <umghpcc> at Mon Jul 15 15:39:21 2019.
</home/yh58b> was used as the home directory.
</home/yh58b/RMT/4500.singly> was used as the working directory.
Started at Mon Jul 15 15:39:21 2019.
Terminated at Mon Jul 15 16:10:10 2019.
Results reported at Mon Jul 15 16:10:10 2019.

Your job looked like:

------------------------------------------------------------
# LSBATCH: User input
./eigen.exec 4500.pf 4500.24.eigen
------------------------------------------------------------

Successfully completed.

Resource usage summary:

    CPU time :                                   1847.69 sec.
    Max Memory :                                 168 MB
    Average Memory :                             167.60 MB
    Total Requested Memory :                     512.00 MB
    Delta Memory :                               344.00 MB
    Max Swap :                                   -
    Max Processes :                              3
    Max Threads :                                4
    Run time :                                   1849 sec.
    Turnaround time :                            9681 sec.

The output (if any) is above this job summary.



PS:

Read file <4500.24.error> for stderr output of this job.

