Actually entered program!
Running with size: 4500, Trials: 3, OutputFile: 4500.122.eigen, Appending?: 0

------------------------------------------------------------
Sender: LSF System <lsfadmin@c37b12>
Subject: Job 7739716: <s.4500.122> in cluster <umghpcc> Done

Job <s.4500.122> was submitted from host <ghpcc06> by user <yh58b> in cluster <umghpcc> at Mon Jul 15 13:28:56 2019.
Job was executed on host(s) <c37b12>, in queue <short>, as user <yh58b> in cluster <umghpcc> at Mon Jul 15 15:45:26 2019.
</home/yh58b> was used as the home directory.
</home/yh58b/RMT/4500.singly> was used as the working directory.
Started at Mon Jul 15 15:45:26 2019.
Terminated at Mon Jul 15 15:55:34 2019.
Results reported at Mon Jul 15 15:55:34 2019.

Your job looked like:

------------------------------------------------------------
# LSBATCH: User input
./eigen.exec 4500.pf 4500.122.eigen
------------------------------------------------------------

Successfully completed.

Resource usage summary:

    CPU time :                                   606.89 sec.
    Max Memory :                                 165 MB
    Average Memory :                             165.00 MB
    Total Requested Memory :                     512.00 MB
    Delta Memory :                               347.00 MB
    Max Swap :                                   -
    Max Processes :                              3
    Max Threads :                                4
    Run time :                                   608 sec.
    Turnaround time :                            8798 sec.

The output (if any) is above this job summary.



PS:

Read file <4500.122.error> for stderr output of this job.

