-33.7454469986
16.1108626862
-16.1108626862
44.9086436675
-44.9086436675
1.34785607464
-1.34785607464
25.3496295377
-25.3496295377
26.8507106849
-26.8507106849
30.2688182629
-30.2688182629
36.9179479936
-36.9179479936
33.5114972688
-33.5114972688
28.51884976
-28.51884976
24.6076905835
-24.6076905835
38.7323290927
-38.7323290927
40.9755419184
-40.9755419184
44.691344387
-44.691344387
42.547114819
-42.547114819
0.0
14.9702127243
-14.9702127243
20.0495877673
-20.0495877673
21.9867968504
-21.9867968504
40.4532313945
-40.4532313945
41.8989796862
-41.8989796862
38.6842594492
-38.6842594492
37.2755913425
-37.2755913425
27.0223262131
-27.0223262131
24.48104992
-24.48104992
27.5735144351
-27.5735144351
32.4996432039
-32.4996432039
30.6763933052
-30.6763933052
34.6520039087
-34.6520039087
29.37485143
-29.37485143
24.8894282776
-24.8894282776
39.1557535014
-39.1557535014
33.0887583295
-33.0887583295
29.7377429821
-29.7377429821
30.8497712069
-30.8497712069
18.4094526644
-18.4094526644
6.12482324355
-6.12482324355
3.25230068921
-3.25230068921
12.7681507375
-12.7681507375
44.7011936795
-44.7011936795
42.4825233326
-42.4825233326
41.6580834993
-41.6580834993
35.1149037057
-35.1149037057
15.0800736797
-15.0800736797
36.0807599138
-36.0807599138
29.2916580312
-29.2916580312
38.916383927
-38.916383927
22.7565183366
-22.7565183366
42.7778716003
-42.7778716003
30.1265468105
-30.1265468105
26.2243922246
-26.2243922246
43.5237827573
-43.5237827573
20.0260053267
-20.0260053267
18.8634491989
-18.8634491989
36.8758330049
-36.8758330049
24.0529305655
-24.0529305655
43.633003266
-43.633003266
4.84175458099
-4.84175458099
33.4124635161
-33.4124635161
31.1087741569
-31.1087741569
43.8060051478
-43.8060051478
3.36771270294
-3.36771270294
24.7293514688
-24.7293514688
40.7354832056
-40.7354832056
7.68731025603
-7.68731025603
43.6127907862
-43.6127907862
43.963946234
-43.963946234
30.065962594
-30.065962594
39.1290540959
-39.1290540959
0.0
10.2238044235
-10.2238044235
20.4963202934
-20.4963202934
42.665587578
-42.665587578
23.785717067
-23.785717067
4.57725672776
-4.57725672776
32.7574716217
-32.7574716217
11.005021978
-11.005021978
0.0
38.3206219301
-38.3206219301
40.3337039113
-40.3337039113
41.2418257425
-41.2418257425
16.7066633756
-16.7066633756
27.0547698907
-27.0547698907
25.9563256008
-25.9563256008
12.8332791553
-12.8332791553
18.9926143114
-18.9926143114
34.5207550494
-34.5207550494
25.5929362738
-25.5929362738
34.1310214746
-34.1310214746
41.8750990435
-41.8750990435
30.6825185914
-30.6825185914
41.5184149269
-41.5184149269
8.02231348565
-8.02231348565
2.79351289746
-2.79351289746
7.96802730948
-7.96802730948
19.9992941908
-19.9992941908
22.6317562776
-22.6317562776
28.3327967815
-28.3327967815
27.5347410424
-27.5347410424
43.1577638178
-43.1577638178
17.8981411771
-17.8981411771
21.986639264
-21.986639264
33.1679443278
-33.1679443278
42.4344076217
-42.4344076217
38.9482709205
-38.9482709205
30.8935920176
-30.8935920176
42.4095301587
-42.4095301587
38.7934756807
-38.7934756807
32.6474857621
-32.6474857621
6.08590531285
-6.08590531285
8.9958955127
-8.9958955127
13.1896139203
-13.1896139203
2.83881345287
-2.83881345287
36.1543023858
-36.1543023858
34.9764364148
-34.9764364148
13.6526250693
-13.6526250693
11.0392583028
-11.0392583028
36.0980394276
-36.0980394276
16.004043672
-16.004043672
42.3816540696
-42.3816540696
0.82173145402
-0.82173145402
22.3726566139
-22.3726566139
23.3403746551
-23.3403746551
32.6394453845
-32.6394453845
28.9565436309
-28.9565436309
36.9054399708
-36.9054399708
40.912866208
-40.912866208
30.1293218697
-30.1293218697
41.0977126478
-41.0977126478
35.4192133412
-35.4192133412
26.5838559777
-26.5838559777
42.6609853889
-42.6609853889
10.3718499157
-10.3718499157
4.01187358482
-4.01187358482
0.0
0.787711971937
-0.787711971937
36.3713039146
-36.3713039146
41.1283077207
-41.1283077207
42.156332392
-42.156332392
3.18010506064
-3.18010506064
34.3787695013
-34.3787695013
41.9056823365
-41.9056823365
5.16785481323
-5.16785481323
38.6145623499
-38.6145623499
37.900826483
-37.900826483
37.4736608479
-37.4736608479
11.3258439274
-11.3258439274
17.3648070603
-17.3648070603
24.7101363494
-24.7101363494
18.9154911435
-18.9154911435
39.4763105961
-39.4763105961
38.3321858631
-38.3321858631
14.366484433
-14.366484433
14.1704486246
-14.1704486246
15.4158440424
-15.4158440424
34.5740880142
-34.5740880142
34.6768097668
-34.6768097668
24.8493834112
-24.8493834112
6.82854121567
-6.82854121567
31.318276657
-31.318276657
32.473506802
-32.473506802
41.5366476581
-41.5366476581
30.3194135739
-30.3194135739
33.1156711405
-33.1156711405
41.798402812
-41.798402812
41.7498442969
-41.7498442969
25.9559881654
-25.9559881654
40.5641384626
-40.5641384626
4.98812349658
-4.98812349658
40.877436792
-40.877436792
19.7572268619
-19.7572268619
8.01037163303
-8.01037163303
26.9151334642
-26.9151334642
25.4797462361
-25.4797462361
14.5583000611
-14.5583000611
16.3847712063
-16.3847712063
28.995693887
-28.995693887
28.8126092366
-28.8126092366
10.399320352
-10.399320352
8.25131736439
-8.25131736439
21.3135960646
-21.3135960646
36.425526941
-36.425526941
39.7676141328
-39.7676141328
38.7423497138
-38.7423497138
39.2640440188
-39.2640440188
36.374980437
-36.374980437
39.5299987597
-39.5299987597
40.9690266291
-40.9690266291
9.2235824845
-9.2235824845
37.8413855791
-37.8413855791
5.77722987975
-5.77722987975
21.3973554023
-21.3973554023
22.6667197414
-22.6667197414
41.041696638
-41.041696638
1.68475148025
-1.68475148025
7.7250262912
-7.7250262912
0.0
20.7509945466
-20.7509945466
34.2959583002
-34.2959583002
32.268806467
-32.268806467
10.9434668117
-10.9434668117
26.3414282534
-26.3414282534
22.3158549879
-22.3158549879
29.0489455714
-29.0489455714
18.6453092222
-18.6453092222
18.7888595015
-18.7888595015
10.0420841301
-10.0420841301
39.6104098191
-39.6104098191
30.0647986981
-30.0647986981
12.3545420254
-12.3545420254
2.4530898748
-2.4530898748
13.3206359149
-13.3206359149
16.8058388556
-16.8058388556
37.9474089137
-37.9474089137
40.0335995241
-40.0335995241
39.757664003
-39.757664003
40.3678076967
-40.3678076967
27.5680994121
-27.5680994121
39.805253965
-39.805253965
40.168237489
-40.168237489
38.5606088693
-38.5606088693
14.2857408043
-14.2857408043
34.3731826735
-34.3731826735
34.9888017577
-34.9888017577
38.1168368373
-38.1168368373
19.399415441
-19.399415441
39.6198137446
-39.6198137446
4.01471837956
-4.01471837956
5.4858521928
-5.4858521928
39.6203498925
-39.6203498925
13.0437112628
-13.0437112628
0.0
16.110189182
-16.110189182
8.17435202328
-8.17435202328
6.56522364182
-6.56522364182
1.78164704413
-1.78164704413
7.55662311142
-7.55662311142
0.0
14.3663440404
-14.3663440404
37.6250529073
-37.6250529073
32.5594732293
-32.5594732293
25.1545376172
-25.1545376172
30.2905088437
-30.2905088437
27.0089682854
-27.0089682854
17.9434071439
-17.9434071439
23.0287174423
-23.0287174423
21.3274425474
-21.3274425474
39.1227748115
-39.1227748115
31.2606943829
-31.2606943829
17.8175869175
-17.8175869175
27.8494520901
-27.8494520901
32.7186699606
-32.7186699606
36.4622301091
-36.4622301091
33.2615328088
-33.2615328088
27.4029675935
-27.4029675935
6.58046995661
-6.58046995661
2.40409185912
-2.40409185912
23.8759284141
-23.8759284141
21.5696243012
-21.5696243012
11.1736990317
-11.1736990317
25.4768024985
-25.4768024985
14.796159872
-14.796159872
29.5556045855
-29.5556045855
25.5000190656
-25.5000190656
36.8540295794
-36.8540295794
39.0490107438
-39.0490107438
19.6448304028
-19.6448304028
24.9068170781
-24.9068170781
29.6624089377
-29.6624089377
34.8681932292
-34.8681932292
4.20936380799
-4.20936380799
37.5694137265
-37.5694137265
33.9215478326
-33.9215478326
5.8843946622
-5.8843946622
38.8048285223
-38.8048285223
12.058545023
-12.058545023
3.74917037249
-3.74917037249
13.1598098666
-13.1598098666
18.6611266397
-18.6611266397
38.1916859388
-38.1916859388
8.7741982322
-8.7741982322
2.70419945436
-2.70419945436
31.2338223134
-31.2338223134
22.0566984642
-22.0566984642
21.3371916499
-21.3371916499
14.2322242659
-14.2322242659
37.9059374869
-37.9059374869
9.6829506523
-9.6829506523
11.0108614885
-11.0108614885
37.4219616836
-37.4219616836
34.996422017
-34.996422017
30.2877499804
-30.2877499804
13.6376217161
-13.6376217161
25.8856934077
-25.8856934077
28.1895734509
-28.1895734509
16.8316940946
-16.8316940946
17.1273945891
-17.1273945891
38.4474509136
-38.4474509136
37.7036503812
-37.7036503812
35.2194840443
-35.2194840443
22.0321642174
-22.0321642174
0.0
7.04826745892
-7.04826745892
34.9725486909
-34.9725486909
37.0991925331
-37.0991925331
36.7579501294
-36.7579501294
22.0071959297
-22.0071959297
31.7523250543
-31.7523250543
22.8002376903
-22.8002376903
14.8590341841
-14.8590341841
31.1976124937
-31.1976124937
36.0468257102
-36.0468257102
29.3058859346
-29.3058859346
30.968012039
-30.968012039
37.6301857394
-37.6301857394
36.3114016693
-36.3114016693
37.727051853
-37.727051853
37.5303580182
-37.5303580182
0.0
32.3198821959
-32.3198821959
12.6831917515
-12.6831917515
10.0096206013
-10.0096206013
7.75145602395
-7.75145602395
22.356707778
-22.356707778
5.11326941966
-5.11326941966
3.06390948749
-3.06390948749
33.0999543244
-33.0999543244
19.4342238192
-19.4342238192
36.6701695895
-36.6701695895
28.878846406
-28.878846406
35.5999786058
-35.5999786058
36.2722163379
-36.2722163379
37.1823722596
-37.1823722596
23.9611683615
-23.9611683615
25.0665025208
-25.0665025208
15.4981897523
-15.4981897523
1.74692468541
-1.74692468541
6.4413098963
-6.4413098963
8.33416510348
-8.33416510348
20.24491982
-20.24491982
37.2074774573
-37.2074774573
31.1517910142
-31.1517910142
36.6375526411
-36.6375526411
28.2569083078
-28.2569083078
23.4962632025
-23.4962632025
33.8537877644
-33.8537877644
14.5353441487
-14.5353441487
0.0
34.4513486001
-34.4513486001
9.70725645681
-9.70725645681
36.8458356936
-36.8458356936
25.0688634708
-25.0688634708
27.4176243053
-27.4176243053
15.8087407352
-15.8087407352
35.8404698253
-35.8404698253
26.0408217586
-26.0408217586
31.9732536032
-31.9732536032
2.20784125477
-2.20784125477
36.34434271
-36.34434271
16.6182782937
-16.6182782937
36.1868952833
-36.1868952833
34.2254361218
-34.2254361218
33.4571037193
-33.4571037193
17.8206220521
-17.8206220521
5.38942397749
-5.38942397749
23.8706359088
-23.8706359088
10.9162127136
-10.9162127136
6.14078951424
-6.14078951424
34.1877215232
-34.1877215232
9.53643737908
-9.53643737908
1.37440851352
-1.37440851352
34.5797923262
-34.5797923262
33.1128494728
-33.1128494728
32.5669332645
-32.5669332645
23.4862279133
-23.4862279133
25.411095326
-25.411095326
35.6772773571
-35.6772773571
7.02384495929
-7.02384495929
17.6473541683
-17.6473541683
11.0361381096
-11.0361381096
3.80123099655
-3.80123099655
19.3275694123
-19.3275694123
13.2592324538
-13.2592324538
35.6933680884
-35.6933680884
35.8397535302
-35.8397535302
28.1500010728
-28.1500010728
35.6451442781
-35.6451442781
20.0649678323
-20.0649678323
32.9483000184
-32.9483000184
20.9458377702
-20.9458377702
25.3942915564
-25.3942915564
24.5455931473
-24.5455931473
34.3934334541
-34.3934334541
31.7576083339
-31.7576083339
6.01650790514
-6.01650790514
0.420957369981
-0.420957369981
14.4361084735
-14.4361084735
17.8078918677
-17.8078918677
35.4616722393
-35.4616722393
12.8654935544
-12.8654935544
21.6552866894
-21.6552866894
26.2228509308
-26.2228509308
23.7079773805
-23.7079773805
14.6896124618
-14.6896124618
18.8547430088
-18.8547430088
30.5492867198
-30.5492867198
34.798353243
-34.798353243
31.6604491854
-31.6604491854
31.458729522
-31.458729522
35.0101254038
-35.0101254038
32.959561016
-32.959561016
33.54636163
-33.54636163
29.9727671476
-29.9727671476
24.0666492304
-24.0666492304
7.07923072361
-7.07923072361
27.611413402
-27.611413402
32.8775312486
-32.8775312486
3.53936026508
-3.53936026508
12.5961501232
-12.5961501232
16.5777608182
-16.5777608182
7.36044244867
-7.36044244867
25.4992630122
-25.4992630122
34.4598880689
-34.4598880689
17.9041700069
-17.9041700069
29.7483267504
-29.7483267504
2.28917889239
-2.28917889239
32.4545788321
-32.4545788321
19.2192501046
-19.2192501046
22.4286335066
-22.4286335066
7.76313464607
-7.76313464607
10.8246283732
-10.8246283732
9.84674367396
-9.84674367396
25.6283428201
-25.6283428201
26.7012642481
-26.7012642481
29.8906786436
-29.8906786436
31.8395412438
-31.8395412438
27.8413244673
-27.8413244673
27.0410416496
-27.0410416496
21.1231587745
-21.1231587745
9.12000991411
-9.12000991411
15.149383687
-15.149383687
19.1839016629
-19.1839016629
17.2849644674
-17.2849644674
13.582181411
-13.582181411
10.0624781768
-10.0624781768
20.8218797264
-20.8218797264
19.9690717506
-19.9690717506
0.0
1.52998877444
-1.52998877444
15.720436081
-15.720436081
30.5761978242
-30.5761978242
0.0
1.07990808274
-1.07990808274
26.2102856093
-26.2102856093
4.83679637578
-4.83679637578
33.3014912443
-33.3014912443
33.2406042279
-33.2406042279
33.62045543
-33.62045543
9.57939167125
-9.57939167125
12.1860747723
-12.1860747723
31.4019559245
-31.4019559245
31.9980117397
-31.9980117397
33.2064390777
-33.2064390777
27.5184441276
-27.5184441276
32.2213809544
-32.2213809544
14.7705917998
-14.7705917998
32.9676545273
-32.9676545273
28.782705263
-28.782705263
21.4638789064
-21.4638789064
24.5601783296
-24.5601783296
27.668162186
-27.668162186
26.4253918786
-26.4253918786
33.1521831582
-33.1521831582
32.6623072051
-32.6623072051
32.9156907315
-32.9156907315
22.4768748269
-22.4768748269
29.60198489
-29.60198489
4.86318063308
-4.86318063308
10.7573517548
-10.7573517548
3.8196488798
-3.8196488798
22.3226292966
-22.3226292966
25.6239455634
-25.6239455634
21.0719009303
-21.0719009303
28.2676493208
-28.2676493208
32.2954023949
-32.2954023949
30.7028301454
-30.7028301454
30.0063454106
-30.0063454106
9.00073565565
-9.00073565565
6.54237400431
-6.54237400431
13.8320688452
-13.8320688452
13.1081259184
-13.1081259184
19.8706278183
-19.8706278183
28.1292963873
-28.1292963873
2.22261923497
-2.22261923497
32.5500766765
-32.5500766765
29.9444367867
-29.9444367867
12.6105392822
-12.6105392822
19.195682526
-19.195682526
24.5807978881
-24.5807978881
21.8249398994
-21.8249398994
29.882430173
-29.882430173
31.4634716148
-31.4634716148
32.0454382857
-32.0454382857
31.6204327916
-31.6204327916
6.54151671189
-6.54151671189
15.1399275543
-15.1399275543
31.8125377113
-31.8125377113
9.62628273858
-9.62628273858
22.8646153641
-22.8646153641
23.7448391172
-23.7448391172
3.54467107725
-3.54467107725
8.01737611812
-8.01737611812
25.7971187509
-25.7971187509
2.19366839543
-2.19366839543
30.0264942393
-30.0264942393
17.5532870591
-17.5532870591
26.9913579616
-26.9913579616
10.9214276158
-10.9214276158
18.1672662931
-18.1672662931
6.01099873491
-6.01099873491
0.0
16.6428527716
-16.6428527716
16.6753854658
-16.6753854658
23.2133673621
-23.2133673621
29.1908863701
-29.1908863701
17.9869769443
-17.9869769443
24.7862019778
-24.7862019778
30.5770818871
-30.5770818871
22.0551658655
-22.0551658655
0.955590382782
-0.955590382782
28.9768781137
-28.9768781137
27.7231151573
-27.7231151573
14.9717281764
-14.9717281764
11.9220275615
-11.9220275615
27.4959006443
-27.4959006443
30.4678122096
-30.4678122096
26.604209829
-26.604209829
25.2516215472
-25.2516215472
12.6842041633
-12.6842041633
11.3493432741
-11.3493432741
29.8888355852
-29.8888355852
24.525582338
-24.525582338
25.7639037282
-25.7639037282
30.8630666116
-30.8630666116
13.3845895051
-13.3845895051
17.4053949521
-17.4053949521
6.59639019228
-6.59639019228
10.1733589589
-10.1733589589
30.9185628468
-30.9185628468
29.5583780164
-29.5583780164
0.279837490249
-0.279837490249
18.4415733036
-18.4415733036
21.6370889319
-21.6370889319
3.6467736941
-3.6467736941
30.4105166925
-30.4105166925
20.4795246853
-20.4795246853
13.9377772374
-13.9377772374
4.26392179305
-4.26392179305
5.60228664505
-5.60228664505
5.99145599349
-5.99145599349
13.0614083345
-13.0614083345
29.743495751
-29.743495751
30.188446667
-30.188446667
30.081434109
-30.081434109
28.6078529256
-28.6078529256
27.8423950269
-27.8423950269
27.1003895751
-27.1003895751
28.4773897621
-28.4773897621
30.0170000489
-30.0170000489
16.0086814113
-16.0086814113
19.7943808421
-19.7943808421
19.3093801801
-19.3093801801
17.4063489789
-17.4063489789
18.4561001091
-18.4561001091
20.7541010997
-20.7541010997
8.73133369487
-8.73133369487
15.3995597099
-15.3995597099
1.9087831471
-1.9087831471
28.8440474782
-28.8440474782
4.13190491364
-4.13190491364
29.6729859354
-29.6729859354
22.734454304
-22.734454304
13.6953916562
-13.6953916562
24.7022533401
-24.7022533401
0.0
28.9280234265
-28.9280234265
9.89889168823
-9.89889168823
10.8945757178
-10.8945757178
1.86780838818
-1.86780838818
21.5566072983
-21.5566072983
21.0491665542
-21.0491665542
24.8356165673
-24.8356165673
23.1438230098
-23.1438230098
17.2690107696
-17.2690107696
28.6419206486
-28.6419206486
17.7987501128
-17.7987501128
27.7590148598
-27.7590148598
20.7475949114
-20.7475949114
11.8464982152
-11.8464982152
7.80563907054
-7.80563907054
25.6364791905
-25.6364791905
0.506784898241
-0.506784898241
6.7393959233
-6.7393959233
8.10442927198
-8.10442927198
15.1558146051
-15.1558146051
25.2611542889
-25.2611542889
26.3253261048
-26.3253261048
28.5018761538
-28.5018761538
27.1038903427
-27.1038903427
26.4133581342
-26.4133581342
27.9108476471
-27.9108476471
23.4301422968
-23.4301422968
27.4121967293
-27.4121967293
2.74528063101
-2.74528063101
11.0347542979
-11.0347542979
12.7829212612
-12.7829212612
21.4816385178
-21.4816385178
16.0205750773
-16.0205750773
14.1905750981
-14.1905750981
8.42891181978
-8.42891181978
4.88660365655
-4.88660365655
12.0062990629
-12.0062990629
6.72593560124
-6.72593560124
22.7343114152
-22.7343114152
21.9567506133
-21.9567506133
2.59145016556
-2.59145016556
27.8445740981
-27.8445740981
26.6556168153
-26.6556168153
20.0369279558
-20.0369279558
18.4653524312
-18.4653524312
18.3181589816
-18.3181589816
15.9653147727
-15.9653147727
27.1495282064
-27.1495282064
0.837318113519
-0.837318113519
19.3690715586
-19.3690715586
2.61895947274
-2.61895947274
13.0925610825
-13.0925610825
14.3030516191
-14.3030516191
9.93223546004
-9.93223546004
0.0
25.8610524606
-25.8610524606
27.4903694649
-27.4903694649
24.9790654599
-24.9790654599
22.6478210108
-22.6478210108
26.9952032434
-26.9952032434
25.247720917
-25.247720917
5.79213445541
-5.79213445541
26.9038055808
-26.9038055808
26.2125896513
-26.2125896513
2.00779593941
-2.00779593941
8.68718276813
-8.68718276813
25.7428567584
-25.7428567584
11.9128716161
-11.9128716161
14.3417431433
-14.3417431433
23.6332800772
-23.6332800772
21.1144545163
-21.1144545163
22.9372922745
-22.9372922745
16.5027783643
-16.5027783643
5.35937546285
-5.35937546285
26.6881818175
-26.6881818175
13.3226954974
-13.3226954974
15.2665277066
-15.2665277066
16.600215444
-16.600215444
18.7960844698
-18.7960844698
19.416113381
-19.416113381
24.6873153364
-24.6873153364
5.14377276652
-5.14377276652
20.1839514939
-20.1839514939
4.64670018354
-4.64670018354
17.0349179658
-17.0349179658
7.31481151539
-7.31481151539
19.5956163372
-19.5956163372
10.6238083616
-10.6238083616
11.3948928004
-11.3948928004
18.0039268359
-18.0039268359
26.0546851209
-26.0546851209
26.0045011087
-26.0045011087
23.211072869
-23.211072869
23.8596685433
-23.8596685433
24.654378531
-24.654378531
21.3998201729
-21.3998201729
24.7948936785
-24.7948936785
7.03611361186
-7.03611361186
22.802667823
-22.802667823
23.9258006571
-23.9258006571
0.0
1.43605210574
-1.43605210574
19.7632777083
-19.7632777083
3.13779728558
-3.13779728558
4.86772590941
-4.86772590941
12.6016108069
-12.6016108069
24.8425675913
-24.8425675913
9.70068732317
-9.70068732317
14.6184086846
-14.6184086846
11.9909390093
-11.9909390093
4.80134874376
-4.80134874376
24.8285840802
-24.8285840802
20.8138823947
-20.8138823947
21.6211459222
-21.6211459222
24.1151112357
-24.1151112357
24.3445874541
-24.3445874541
0.819038786106
-0.819038786106
9.06143640936
-9.06143640936
14.3173754437
-14.3173754437
16.2864318615
-16.2864318615
12.6876338886
-12.6876338886
17.6453747923
-17.6453747923
5.96992068138
-5.96992068138
20.7652419176
-20.7652419176
7.51711009098
-7.51711009098
6.20744522126
-6.20744522126
24.1249668436
-24.1249668436
23.4381405894
-23.4381405894
22.7514789738
-22.7514789738
22.5523414172
-22.5523414172
15.0546333222
-15.0546333222
10.2193258549
-10.2193258549
0.0
14.5632147116
-14.5632147116
16.0404286695
-16.0404286695
17.9025991549
-17.9025991549
2.44032132896
-2.44032132896
4.54570325728
-4.54570325728
16.7001710755
-16.7001710755
6.20524241198
-6.20524241198
1.88134454406
-1.88134454406
8.47740215697
-8.47740215697
3.20935209215
-3.20935209215
10.2410756898
-10.2410756898
0.80887788433
-0.80887788433
11.9325455846
-11.9325455846
23.8930843608
-23.8930843608
11.9111761039
-11.9111761039
23.956198399
-23.956198399
23.8886698391
-23.8886698391
1.87846741361
-1.87846741361
22.2204776549
-22.2204776549
23.2950950606
-23.2950950606
22.5398375426
-22.5398375426
4.46539680281
-4.46539680281
19.7998199489
-19.7998199489
23.376015406
-23.376015406
20.7392405001
-20.7392405001
18.1032903326
-18.1032903326
22.9900990898
-22.9900990898
19.2035076203
-19.2035076203
22.9934451632
-22.9934451632
9.00643417946
-9.00643417946
13.7313539322
-13.7313539322
21.0008499612
-21.0008499612
7.59259568823
-7.59259568823
16.121853007
-16.121853007
4.87158425905
-4.87158425905
21.4197571341
-21.4197571341
11.226134086
-11.226134086
19.2278752455
-19.2278752455
18.5229500466
-18.5229500466
13.2887725883
-13.2887725883
20.3885686032
-20.3885686032
12.0752338615
-12.0752338615
19.8644069906
-19.8644069906
21.5034284113
-21.5034284113
13.6981881267
-13.6981881267
14.3973822698
-14.3973822698
16.2595582046
-16.2595582046
0.0
21.5375354574
-21.5375354574
3.0919708598
-3.0919708598
17.1229640853
-17.1229640853
15.9942568656
-15.9942568656
6.35190467208
-6.35190467208
20.24974094
-20.24974094
14.6346167935
-14.6346167935
9.43099531766
-9.43099531766
7.78159458767
-7.78159458767
0.0
2.43736255576
-2.43736255576
3.7281422211
-3.7281422211
15.3453112249
-15.3453112249
21.6753809633
-21.6753809633
21.695259834
-21.695259834
21.6766193717
-21.6766193717
20.8545589564
-20.8545589564
17.6347623679
-17.6347623679
19.8942590219
-19.8942590219
16.8562268997
-16.8562268997
5.61591836788
-5.61591836788
0.0
1.50278582986
-1.50278582986
17.948067947
-17.948067947
20.895330589
-20.895330589
18.3850004057
-18.3850004057
4.78186591266
-4.78186591266
0.0
20.1973282082
-20.1973282082
9.92735145466
-9.92735145466
16.6785525383
-16.6785525383
12.7157495133
-12.7157495133
13.1250224851
-13.1250224851
13.0775453701
-13.0775453701
20.8171870134
-20.8171870134
20.2156454641
-20.2156454641
10.7998789663
-10.7998789663
14.2562971587
-14.2562971587
6.64635630223
-6.64635630223
8.8753915794
-8.8753915794
20.6628131983
-20.6628131983
8.50218982764
-8.50218982764
20.069377695
-20.069377695
20.5404369665
-20.5404369665
14.3285351752
-14.3285351752
0.758651001662
-0.758651001662
4.88564635296
-4.88564635296
18.7949252558
-18.7949252558
17.9702630363
-17.9702630363
10.7336822959
-10.7336822959
18.1320920877
-18.1320920877
17.2623344612
-17.2623344612
3.56250266567
-3.56250266567
11.5435593869
-11.5435593869
7.82427316268
-7.82427316268
15.4865383733
-15.4865383733
0.0
19.7197075427
-19.7197075427
15.8458855858
-15.8458855858
11.3153297017
-11.3153297017
9.2563576824
-9.2563576824
6.26874956101
-6.26874956101
18.1711646724
-18.1711646724
8.11487617416
-8.11487617416
19.2310911092
-19.2310911092
0.0
12.0542460969
-12.0542460969
9.64604184538
-9.64604184538
18.7514308266
-18.7514308266
7.98942555652
-7.98942555652
14.9058006105
-14.9058006105
12.9864278657
-12.9864278657
6.08602793071
-6.08602793071
18.3845118801
-18.3845118801
18.7571699229
-18.7571699229
0.0
10.6394900877
-10.6394900877
14.1160389494
-14.1160389494
5.17994278145
-5.17994278145
3.1692184807
-3.1692184807
2.16103453199
-2.16103453199
12.9909586173
-12.9909586173
11.1456177851
-11.1456177851
2.78400366377
-2.78400366377
4.66250351092
-4.66250351092
15.5447336226
-15.5447336226
8.70526218685
-8.70526218685
16.551659428
-16.551659428
17.8140525978
-17.8140525978
0.53725923236
-0.53725923236
11.9361039232
-11.9361039232
13.6334305916
-13.6334305916
16.8519425764
-16.8519425764
15.6176102611
-15.6176102611
15.6321500539
-15.6321500539
7.16287860285
-7.16287860285
17.7131925269
-17.7131925269
1.16149934035
-1.16149934035
2.46793761933
-2.46793761933
5.55637180757
-5.55637180757
9.55989842555
-9.55989842555
16.0525368862
-16.0525368862
6.3251308635
-6.3251308635
16.4032499909
-16.4032499909
9.89290883356
-9.89290883356
17.0987620218
-17.0987620218
16.7703823529
-16.7703823529
0.0
13.9087647452
-13.9087647452
15.9696267076
-15.9696267076
10.5380932679
-10.5380932679
15.3918090235
-15.3918090235
5.66302551476
-5.66302551476
5.68114066141
-5.68114066141
14.5873808855
-14.5873808855
14.4693138477
-14.4693138477
15.9790820726
-15.9790820726
11.2952238958
-11.2952238958
7.54109364264
-7.54109364264
9.5129587934
-9.5129587934
8.16839064454
-8.16839064454
15.6764293188
-15.6764293188
0.0
1.10641182225
-1.10641182225
13.4254126278
-13.4254126278
10.8760971799
-10.8760971799
2.80626694011
-2.80626694011
8.99389456796
-8.99389456796
2.42086790598
-2.42086790598
14.5537261126
-14.5537261126
15.4072468594
-15.4072468594
14.7823574828
-14.7823574828
11.3704734222
-11.3704734222
5.98538299309
-5.98538299309
14.215847914
-14.215847914
14.6864609245
-14.6864609245
9.98078831388
-9.98078831388
3.8925172853
-3.8925172853
5.94438123997
-5.94438123997
6.09385983449
-6.09385983449
3.98595817729
-3.98595817729
7.85526026117
-7.85526026117
0.0
12.2042220567
-12.2042220567
4.57480607508
-4.57480607508
0.0
9.38176925647
-9.38176925647
11.1775791792
-11.1775791792
10.9795218598
-10.9795218598
7.42550291875
-7.42550291875
11.9454383198
-11.9454383198
6.67574203686
-6.67574203686
9.01765486463
-9.01765486463
2.59028617346
-2.59028617346
1.22353462893
-1.22353462893
13.8260574788
-13.8260574788
12.6963021459
-12.6963021459
10.2960934734
-10.2960934734
13.0546500051
-13.0546500051
6.67889982547
-6.67889982547
12.3022174698
-12.3022174698
3.46209257687
-3.46209257687
12.7839769367
-12.7839769367
12.6819216066
-12.6819216066
10.7270071644
-10.7270071644
11.4305416139
-11.4305416139
9.07490031865
-9.07490031865
4.46564959994
-4.46564959994
7.44689425822
-7.44689425822
1.06104891635
-1.06104891635
10.752942454
-10.752942454
1.40697657533
-1.40697657533
8.74620512087
-8.74620512087
4.66742384276
-4.66742384276
9.10792583209
-9.10792583209
9.76620408041
-9.76620408041
5.28008210107
-5.28008210107
6.86030266587
-6.86030266587
11.9021260549
-11.9021260549
2.93844006749
-2.93844006749
10.630630066
-10.630630066
11.3293069247
-11.3293069247
11.1924938259
-11.1924938259
1.12808254851
-1.12808254851
0.0
1.21236258157
-1.21236258157
0.839673554852
-0.839673554852
10.9773873612
-10.9773873612
8.69863762879
-8.69863762879
4.9432963764
-4.9432963764
7.71776501805
-7.71776501805
4.07210437989
-4.07210437989
3.22137397052
-3.22137397052
7.01224845744
-7.01224845744
10.5872908354
-10.5872908354
6.32322923521
-6.32322923521
9.96731370596
-9.96731370596
7.94353991164
-7.94353991164
8.60430901542
-8.60430901542
8.64454470361
-8.64454470361
5.14721371057
-5.14721371057
6.85764388857
-6.85764388857
2.26452756015
-2.26452756015
0.0
9.62953526732
-9.62953526732
3.13058649725
-3.13058649725
4.00886810422
-4.00886810422
0.362078549724
-0.362078549724
6.51530141193
-6.51530141193
8.38514221108
-8.38514221108
8.19909381063
-8.19909381063
8.18719017964
-8.18719017964
4.3726177308
-4.3726177308
5.24236837817
-5.24236837817
3.68937887621
-3.68937887621
1.91753667973
-1.91753667973
6.19526692335
-6.19526692335
1.61952109719
-1.61952109719
7.40699568485
-7.40699568485
7.02509868668
-7.02509868668
0.524632419982
-0.524632419982
6.09849657633
-6.09849657633
3.8956454159
-3.8956454159
1.96953792606
-1.96953792606
4.85144761597
-4.85144761597
0.262527303753
-0.262527303753
6.65338848167
-6.65338848167
2.50442271567
-2.50442271567
0.0
4.33814890387
-4.33814890387
5.72430457186
-5.72430457186
3.60697379964
-3.60697379964
0.0
5.79224106435
-5.79224106435
5.21959537935
-5.21959537935
0.0
5.17256564783
-5.17256564783
4.14896567789
-4.14896567789
3.09322950373
-3.09322950373
1.85698908757
-1.85698908757
2.87823388649
-2.87823388649
0.0
0.816210411758
-0.816210411758
2.56712598286
-2.56712598286
1.57728815961
-1.57728815961
2.19111142664
-2.19111142664
1.56066858029
-1.56066858029
0.0
1.21003074427
-1.21003074427
0.0
1.11533185936
-1.11533185936
0.0
0.0
