Actually entered program!
Running with size: 4650, Trials: 3, OutputFile: 4650.82.eigen, Appending?: 0

------------------------------------------------------------
Sender: LSF System <lsfadmin@c01b04>
Subject: Job 7745733: <d.4650.82> in cluster <umghpcc> Done

Job <d.4650.82> was submitted from host <ghpcc06> by user <yh58b> in cluster <umghpcc> at Mon Jul 15 13:36:15 2019.
Job was executed on host(s) <c01b04>, in queue <short>, as user <yh58b> in cluster <umghpcc> at Tue Jul 16 01:17:34 2019.
</home/yh58b> was used as the home directory.
</home/yh58b/RMT/4650.doubly> was used as the working directory.
Started at Tue Jul 16 01:17:34 2019.
Terminated at Tue Jul 16 01:58:01 2019.
Results reported at Tue Jul 16 01:58:01 2019.

Your job looked like:

------------------------------------------------------------
# LSBATCH: User input
./eigen.exec 4650.pf 4650.82.eigen
------------------------------------------------------------

Successfully completed.

Resource usage summary:

    CPU time :                                   2425.77 sec.
    Max Memory :                                 177 MB
    Average Memory :                             176.46 MB
    Total Requested Memory :                     512.00 MB
    Delta Memory :                               335.00 MB
    Max Swap :                                   -
    Max Processes :                              3
    Max Threads :                                4
    Run time :                                   2427 sec.
    Turnaround time :                            44506 sec.

The output (if any) is above this job summary.



PS:

Read file <4650.82.error> for stderr output of this job.

