Actually entered program!

------------------------------------------------------------
Sender: LSF System <lsfadmin@c08b04>
Subject: Job 7745685: <d.4650.34> in cluster <umghpcc> Exited

Job <d.4650.34> was submitted from host <ghpcc06> by user <yh58b> in cluster <umghpcc> at Mon Jul 15 13:36:12 2019.
Job was executed on host(s) <c08b04>, in queue <short>, as user <yh58b> in cluster <umghpcc> at Tue Jul 16 01:11:36 2019.
</home/yh58b> was used as the home directory.
</home/yh58b/RMT/4650.doubly> was used as the working directory.
Started at Tue Jul 16 01:11:36 2019.
Terminated at Tue Jul 16 02:11:42 2019.
Results reported at Tue Jul 16 02:11:42 2019.

Your job looked like:

------------------------------------------------------------
# LSBATCH: User input
./eigen.exec 4650.pf 4650.34.eigen
------------------------------------------------------------

TERM_RUNLIMIT: job killed after reaching LSF run time limit.
Exited with exit code 140.

Resource usage summary:

    CPU time :                                   3605.00 sec.
    Max Memory :                                 178 MB
    Average Memory :                             177.68 MB
    Total Requested Memory :                     512.00 MB
    Delta Memory :                               334.00 MB
    Max Swap :                                   -
    Max Processes :                              3
    Max Threads :                                4
    Run time :                                   3606 sec.
    Turnaround time :                            45330 sec.

The output (if any) is above this job summary.



PS:

Read file <4650.34.error> for stderr output of this job.

