Actually entered program!
Running with size: 4650, Trials: 1, OutputFile: 4650.stray.eigen, Appending?: 0

------------------------------------------------------------
Sender: LSF System <lsfadmin@c09b01>
Subject: Job 7745795: <d.4650.stray> in cluster <umghpcc> Done

Job <d.4650.stray> was submitted from host <ghpcc06> by user <yh58b> in cluster <umghpcc> at Mon Jul 15 13:36:21 2019.
Job was executed on host(s) <c09b01>, in queue <short>, as user <yh58b> in cluster <umghpcc> at Tue Jul 16 01:20:20 2019.
</home/yh58b> was used as the home directory.
</home/yh58b/RMT/4650.doubly> was used as the working directory.
Started at Tue Jul 16 01:20:20 2019.
Terminated at Tue Jul 16 01:43:00 2019.
Results reported at Tue Jul 16 01:43:00 2019.

Your job looked like:

------------------------------------------------------------
# LSBATCH: User input
./eigen.exec 4650.stray.pf 4650.stray.eigen
------------------------------------------------------------

Successfully completed.

Resource usage summary:

    CPU time :                                   1359.25 sec.
    Max Memory :                                 176 MB
    Average Memory :                             175.01 MB
    Total Requested Memory :                     512.00 MB
    Delta Memory :                               336.00 MB
    Max Swap :                                   -
    Max Processes :                              3
    Max Threads :                                4
    Run time :                                   1360 sec.
    Turnaround time :                            43599 sec.

The output (if any) is above this job summary.



PS:

Read file <4650.stray.error> for stderr output of this job.

