Actually entered program!
Running with size: 2100, Trials: 70, OutputFile: 2100.9.eigen, Appending?: 0

------------------------------------------------------------
Sender: LSF System <lsfadmin@c02b08>
Subject: Job 7846179: <s.2100.9> in cluster <umghpcc> Done

Job <s.2100.9> was submitted from host <ghpcc06> by user <yh58b> in cluster <umghpcc> at Tue Jul 16 15:35:32 2019.
Job was executed on host(s) <c02b08>, in queue <long>, as user <yh58b> in cluster <umghpcc> at Tue Jul 16 16:38:35 2019.
</home/yh58b> was used as the home directory.
</home/yh58b/RMT/2100.singly> was used as the working directory.
Started at Tue Jul 16 16:38:35 2019.
Terminated at Tue Jul 16 17:56:02 2019.
Results reported at Tue Jul 16 17:56:02 2019.

Your job looked like:

------------------------------------------------------------
# LSBATCH: User input
./eigen.exec 2100.pf 2100.9.eigen
------------------------------------------------------------

Successfully completed.

Resource usage summary:

    CPU time :                                   4644.80 sec.
    Max Memory :                                 46 MB
    Average Memory :                             46.00 MB
    Total Requested Memory :                     256.00 MB
    Delta Memory :                               210.00 MB
    Max Swap :                                   -
    Max Processes :                              3
    Max Threads :                                4
    Run time :                                   4647 sec.
    Turnaround time :                            8430 sec.

The output (if any) is above this job summary.



PS:

Read file <2100.9.error> for stderr output of this job.

