Actually entered program!

------------------------------------------------------------
Sender: LSF System <lsfadmin@c03b04>
Subject: Job 7741754: <d.2950.28> in cluster <umghpcc> Exited

Job <d.2950.28> was submitted from host <ghpcc06> by user <yh58b> in cluster <umghpcc> at Mon Jul 15 13:31:30 2019.
Job was executed on host(s) <c03b04>, in queue <short>, as user <yh58b> in cluster <umghpcc> at Mon Jul 15 18:40:58 2019.
</home/yh58b> was used as the home directory.
</home/yh58b/RMT/2950.doubly> was used as the working directory.
Started at Mon Jul 15 18:40:58 2019.
Terminated at Mon Jul 15 19:41:11 2019.
Results reported at Mon Jul 15 19:41:11 2019.

Your job looked like:

------------------------------------------------------------
# LSBATCH: User input
./eigen.exec 2950.pf 2950.28.eigen
------------------------------------------------------------

TERM_RUNLIMIT: job killed after reaching LSF run time limit.
Exited with exit code 140.

Resource usage summary:

    CPU time :                                   3612.21 sec.
    Max Memory :                                 80 MB
    Average Memory :                             78.71 MB
    Total Requested Memory :                     512.00 MB
    Delta Memory :                               432.00 MB
    Max Swap :                                   -
    Max Processes :                              3
    Max Threads :                                4
    Run time :                                   3614 sec.
    Turnaround time :                            22181 sec.

The output (if any) is above this job summary.



PS:

Read file <2950.28.error> for stderr output of this job.

