Actually entered program!
Running with size: 4200, Trials: 3, OutputFile: 4200.62.eigen, Appending?: 0

------------------------------------------------------------
Sender: LSF System <lsfadmin@c05b05>
Subject: Job 7739065: <s.4200.62> in cluster <umghpcc> Done

Job <s.4200.62> was submitted from host <ghpcc06> by user <yh58b> in cluster <umghpcc> at Mon Jul 15 13:28:07 2019.
Job was executed on host(s) <c05b05>, in queue <short>, as user <yh58b> in cluster <umghpcc> at Mon Jul 15 15:08:37 2019.
</home/yh58b> was used as the home directory.
</home/yh58b/RMT/4200.singly> was used as the working directory.
Started at Mon Jul 15 15:08:37 2019.
Terminated at Mon Jul 15 15:26:39 2019.
Results reported at Mon Jul 15 15:26:39 2019.

Your job looked like:

------------------------------------------------------------
# LSBATCH: User input
./eigen.exec 4200.pf 4200.62.eigen
------------------------------------------------------------

Successfully completed.

Resource usage summary:

    CPU time :                                   1087.16 sec.
    Max Memory :                                 148 MB
    Average Memory :                             145.42 MB
    Total Requested Memory :                     512.00 MB
    Delta Memory :                               364.00 MB
    Max Swap :                                   -
    Max Processes :                              3
    Max Threads :                                4
    Run time :                                   1083 sec.
    Turnaround time :                            7112 sec.

The output (if any) is above this job summary.



PS:

Read file <4200.62.error> for stderr output of this job.

