Actually entered program!
Running with size: 4200, Trials: 3, OutputFile: 4200.68.eigen, Appending?: 0

------------------------------------------------------------
Sender: LSF System <lsfadmin@c37b07>
Subject: Job 7739071: <s.4200.68> in cluster <umghpcc> Done

Job <s.4200.68> was submitted from host <ghpcc06> by user <yh58b> in cluster <umghpcc> at Mon Jul 15 13:28:08 2019.
Job was executed on host(s) <c37b07>, in queue <short>, as user <yh58b> in cluster <umghpcc> at Mon Jul 15 15:08:45 2019.
</home/yh58b> was used as the home directory.
</home/yh58b/RMT/4200.singly> was used as the working directory.
Started at Mon Jul 15 15:08:45 2019.
Terminated at Mon Jul 15 15:17:18 2019.
Results reported at Mon Jul 15 15:17:18 2019.

Your job looked like:

------------------------------------------------------------
# LSBATCH: User input
./eigen.exec 4200.pf 4200.68.eigen
------------------------------------------------------------

Successfully completed.

Resource usage summary:

    CPU time :                                   512.31 sec.
    Max Memory :                                 145 MB
    Average Memory :                             145.00 MB
    Total Requested Memory :                     512.00 MB
    Delta Memory :                               367.00 MB
    Max Swap :                                   -
    Max Processes :                              3
    Max Threads :                                4
    Run time :                                   513 sec.
    Turnaround time :                            6550 sec.

The output (if any) is above this job summary.



PS:

Read file <4200.68.error> for stderr output of this job.

