Actually entered program!
Running with size: 4200, Trials: 3, OutputFile: 4200.42.eigen, Appending?: 0

------------------------------------------------------------
Sender: LSF System <lsfadmin@c04b08>
Subject: Job 7739045: <s.4200.42> in cluster <umghpcc> Done

Job <s.4200.42> was submitted from host <ghpcc06> by user <yh58b> in cluster <umghpcc> at Mon Jul 15 13:28:06 2019.
Job was executed on host(s) <c04b08>, in queue <short>, as user <yh58b> in cluster <umghpcc> at Mon Jul 15 15:07:46 2019.
</home/yh58b> was used as the home directory.
</home/yh58b/RMT/4200.singly> was used as the working directory.
Started at Mon Jul 15 15:07:46 2019.
Terminated at Mon Jul 15 15:36:46 2019.
Results reported at Mon Jul 15 15:36:46 2019.

Your job looked like:

------------------------------------------------------------
# LSBATCH: User input
./eigen.exec 4200.pf 4200.42.eigen
------------------------------------------------------------

Successfully completed.

Resource usage summary:

    CPU time :                                   1738.23 sec.
    Max Memory :                                 145 MB
    Average Memory :                             145.00 MB
    Total Requested Memory :                     512.00 MB
    Delta Memory :                               367.00 MB
    Max Swap :                                   -
    Max Processes :                              3
    Max Threads :                                4
    Run time :                                   1740 sec.
    Turnaround time :                            7720 sec.

The output (if any) is above this job summary.



PS:

Read file <4200.42.error> for stderr output of this job.

