Actually entered program!

------------------------------------------------------------
Sender: LSF System <lsfadmin@c23b05>
Subject: Job 7737638: <s.2900.25> in cluster <umghpcc> Exited

Job <s.2900.25> was submitted from host <ghpcc06> by user <yh58b> in cluster <umghpcc> at Mon Jul 15 13:26:22 2019.
Job was executed on host(s) <c23b05>, in queue <short>, as user <yh58b> in cluster <umghpcc> at Mon Jul 15 13:43:33 2019.
</home/yh58b> was used as the home directory.
</home/yh58b/RMT/2900.singly> was used as the working directory.
Started at Mon Jul 15 13:43:33 2019.
Terminated at Mon Jul 15 14:43:43 2019.
Results reported at Mon Jul 15 14:43:43 2019.

Your job looked like:

------------------------------------------------------------
# LSBATCH: User input
./eigen.exec 2900.pf 2900.25.eigen
------------------------------------------------------------

TERM_RUNLIMIT: job killed after reaching LSF run time limit.
Exited with exit code 152.

Resource usage summary:

    CPU time :                                   3608.62 sec.
    Max Memory :                                 77 MB
    Average Memory :                             76.27 MB
    Total Requested Memory :                     512.00 MB
    Delta Memory :                               435.00 MB
    Max Swap :                                   -
    Max Processes :                              3
    Max Threads :                                4
    Run time :                                   3610 sec.
    Turnaround time :                            4641 sec.

The output (if any) is above this job summary.



PS:

Read file <2900.25.error> for stderr output of this job.

