Actually entered program!
Running with size: 3600, Trials: 4, OutputFile: 3600.101.eigen, Appending?: 0

------------------------------------------------------------
Sender: LSF System <lsfadmin@c05b13>
Subject: Job 7742890: <d.3600.101> in cluster <umghpcc> Done

Job <d.3600.101> was submitted from host <ghpcc06> by user <yh58b> in cluster <umghpcc> at Mon Jul 15 13:32:52 2019.
Job was executed on host(s) <c05b13>, in queue <short>, as user <yh58b> in cluster <umghpcc> at Mon Jul 15 20:33:36 2019.
</home/yh58b> was used as the home directory.
</home/yh58b/RMT/3600.doubly> was used as the working directory.
Started at Mon Jul 15 20:33:36 2019.
Terminated at Mon Jul 15 20:59:29 2019.
Results reported at Mon Jul 15 20:59:29 2019.

Your job looked like:

------------------------------------------------------------
# LSBATCH: User input
./eigen.exec 3600.pf 3600.101.eigen
------------------------------------------------------------

Successfully completed.

Resource usage summary:

    CPU time :                                   1550.92 sec.
    Max Memory :                                 110 MB
    Average Memory :                             109.54 MB
    Total Requested Memory :                     512.00 MB
    Delta Memory :                               402.00 MB
    Max Swap :                                   -
    Max Processes :                              3
    Max Threads :                                4
    Run time :                                   1553 sec.
    Turnaround time :                            26797 sec.

The output (if any) is above this job summary.



PS:

Read file <3600.101.error> for stderr output of this job.

