Actually entered program!
Running with size: 4050, Trials: 8, OutputFile: 4050.32.eigen, Appending?: 0

------------------------------------------------------------
Sender: LSF System <lsfadmin@c40b14>
Subject: Job 7847696: <s.4050.32> in cluster <umghpcc> Done

Job <s.4050.32> was submitted from host <ghpcc06> by user <yh58b> in cluster <umghpcc> at Tue Jul 16 15:37:25 2019.
Job was executed on host(s) <c40b14>, in queue <long>, as user <yh58b> in cluster <umghpcc> at Wed Jul 17 05:35:18 2019.
</home/yh58b> was used as the home directory.
</home/yh58b/RMT/4050.singly> was used as the working directory.
Started at Wed Jul 17 05:35:18 2019.
Terminated at Wed Jul 17 05:55:32 2019.
Results reported at Wed Jul 17 05:55:32 2019.

Your job looked like:

------------------------------------------------------------
# LSBATCH: User input
./eigen.exec 4050.pf 4050.32.eigen
------------------------------------------------------------

Successfully completed.

Resource usage summary:

    CPU time :                                   1213.71 sec.
    Max Memory :                                 136 MB
    Average Memory :                             136.00 MB
    Total Requested Memory :                     256.00 MB
    Delta Memory :                               120.00 MB
    Max Swap :                                   -
    Max Processes :                              3
    Max Threads :                                4
    Run time :                                   1213 sec.
    Turnaround time :                            51487 sec.

The output (if any) is above this job summary.



PS:

Read file <4050.32.error> for stderr output of this job.

