Actually entered program!
Running with size: 4050, Trials: 8, OutputFile: 4050.6.eigen, Appending?: 0

------------------------------------------------------------
Sender: LSF System <lsfadmin@c40b06>
Subject: Job 7847670: <s.4050.6> in cluster <umghpcc> Done

Job <s.4050.6> was submitted from host <ghpcc06> by user <yh58b> in cluster <umghpcc> at Tue Jul 16 15:37:24 2019.
Job was executed on host(s) <c40b06>, in queue <long>, as user <yh58b> in cluster <umghpcc> at Wed Jul 17 05:27:55 2019.
</home/yh58b> was used as the home directory.
</home/yh58b/RMT/4050.singly> was used as the working directory.
Started at Wed Jul 17 05:27:55 2019.
Terminated at Wed Jul 17 05:46:05 2019.
Results reported at Wed Jul 17 05:46:05 2019.

Your job looked like:

------------------------------------------------------------
# LSBATCH: User input
./eigen.exec 4050.pf 4050.6.eigen
------------------------------------------------------------

Successfully completed.

Resource usage summary:

    CPU time :                                   1090.85 sec.
    Max Memory :                                 136 MB
    Average Memory :                             136.00 MB
    Total Requested Memory :                     256.00 MB
    Delta Memory :                               120.00 MB
    Max Swap :                                   -
    Max Processes :                              3
    Max Threads :                                4
    Run time :                                   1090 sec.
    Turnaround time :                            50921 sec.

The output (if any) is above this job summary.



PS:

Read file <4050.6.error> for stderr output of this job.

