Actually entered program!
Running with size: 4050, Trials: 8, OutputFile: 4050.34.eigen, Appending?: 0

------------------------------------------------------------
Sender: LSF System <lsfadmin@c40b05>
Subject: Job 7847698: <s.4050.34> in cluster <umghpcc> Done

Job <s.4050.34> was submitted from host <ghpcc06> by user <yh58b> in cluster <umghpcc> at Tue Jul 16 15:37:26 2019.
Job was executed on host(s) <c40b05>, in queue <long>, as user <yh58b> in cluster <umghpcc> at Wed Jul 17 05:36:21 2019.
</home/yh58b> was used as the home directory.
</home/yh58b/RMT/4050.singly> was used as the working directory.
Started at Wed Jul 17 05:36:21 2019.
Terminated at Wed Jul 17 05:57:44 2019.
Results reported at Wed Jul 17 05:57:44 2019.

Your job looked like:

------------------------------------------------------------
# LSBATCH: User input
./eigen.exec 4050.pf 4050.34.eigen
------------------------------------------------------------

Successfully completed.

Resource usage summary:

    CPU time :                                   1283.09 sec.
    Max Memory :                                 136 MB
    Average Memory :                             136.00 MB
    Total Requested Memory :                     256.00 MB
    Delta Memory :                               120.00 MB
    Max Swap :                                   -
    Max Processes :                              3
    Max Threads :                                4
    Run time :                                   1283 sec.
    Turnaround time :                            51618 sec.

The output (if any) is above this job summary.



PS:

Read file <4050.34.error> for stderr output of this job.

