Actually entered program!
Running with size: 4000, Trials: 7, OutputFile: 4000.32.eigen, Appending?: 0

------------------------------------------------------------
Sender: LSF System <lsfadmin@c05b04>
Subject: Job 7738710: <s.4000.32> in cluster <umghpcc> Done

Job <s.4000.32> was submitted from host <ghpcc06> by user <yh58b> in cluster <umghpcc> at Mon Jul 15 13:27:41 2019.
Job was executed on host(s) <c05b04>, in queue <short>, as user <yh58b> in cluster <umghpcc> at Mon Jul 15 14:54:51 2019.
</home/yh58b> was used as the home directory.
</home/yh58b/RMT/4000.singly> was used as the working directory.
Started at Mon Jul 15 14:54:51 2019.
Terminated at Mon Jul 15 15:32:57 2019.
Results reported at Mon Jul 15 15:32:57 2019.

Your job looked like:

------------------------------------------------------------
# LSBATCH: User input
./eigen.exec 4000.pf 4000.32.eigen
------------------------------------------------------------

Successfully completed.

Resource usage summary:

    CPU time :                                   2283.75 sec.
    Max Memory :                                 133 MB
    Average Memory :                             132.89 MB
    Total Requested Memory :                     512.00 MB
    Delta Memory :                               379.00 MB
    Max Swap :                                   -
    Max Processes :                              3
    Max Threads :                                4
    Run time :                                   2286 sec.
    Turnaround time :                            7516 sec.

The output (if any) is above this job summary.



PS:

Read file <4000.32.error> for stderr output of this job.

