2000000 0.429526
2000000 0.441900
1999950 0.448850
2000000 0.457804
2000000 0.461565
2000100 0.462033
1999900 0.467584
2000000 0.469217
1999800 0.467642
2000000 0.472691
1999800 0.472895
1999800 0.469390
2000050 0.474371
1999900 0.471719
2000250 0.471237
2000000 0.473422
2000050 0.473145
1999800 0.469343
1999750 0.470576
2000000 0.475596
2000250 0.475719
1999800 0.473473
1999850 0.468474
2000400 0.472253
2000000 0.474291
1999400 0.475208
1999350 0.475341
2000600 0.469998
1999550 0.434576
1999500 0.473953
1999500 0.474658
2000000 0.477665
1999800 0.472521
1999200 0.472920
2000250 0.472554
1999800 0.468751
1999850 0.471014
2000700 0.474664
2000700 0.472704
2000000 0.474048
2000800 0.471659
1999200 0.471193
1999500 0.470770
1881000 0.468077
2000250 0.467789
2001000 0.467471
1929350 0.469421
1999200 0.471902
1999200 0.472972
2000000 0.475000
1999200 0.473154
1999400 0.475095
2000750 0.473422
2000700 0.468049
1999250 0.467184
1999200 0.469044
2000700 0.467215
2001000 0.469126
2000100 0.470072
2001000 0.472425
2000800 0.459125
1999500 0.462255
2000250 0.475380
2000000 0.472509
1998750 0.473814
1999800 0.471034
1999950 0.471503
1999200 0.468909
2001000 0.465454
1998500 0.467585
1998650 0.466306
2001600 0.457647
2000200 0.468923
2001700 0.467689
1998750 0.469698
1998800 0.467702
1998150 0.467998
2000700 0.472661
1998700 0.471759
2000000 0.471087
2000700 0.471174
2000800 0.471646
2000300 0.470682
1999200 0.472198
2001750 0.472030
1788800 0.470571
2001000 0.469800
2002000 0.469908
1998050 0.460910
1998000 0.462924
2002000 0.464727
2001000 0.465967
1999500 0.464420
2002200 0.458969
1999750 0.468724
2001600 0.467708
1998200 0.467455
1999200 0.470458
1999800 0.470986
2000000 0.429526
2000000 0.441900
1999950 0.448850
2000000 0.457804
2000000 0.461565
2000100 0.462033
1999900 0.467584
2000000 0.469217
1999800 0.467642
2000000 0.472691
1999800 0.472895
1999800 0.469390
2000050 0.474371
1999900 0.471719
2000250 0.471237
2000000 0.473422
2000050 0.473145
1999800 0.469343
1999750 0.470576
2000000 0.475596
2000250 0.475719
1999800 0.473473
1999850 0.468474
2000400 0.472253
2000000 0.474291
1999400 0.475208
1999350 0.475341
2000600 0.469998
1999550 0.434576
1999500 0.473953
1999500 0.474658
2000000 0.477665
1999800 0.472521
1999200 0.472920
2000250 0.472554
1999800 0.468751
1999850 0.471014
2000700 0.474664
2000700 0.472704
2000000 0.474048
2000800 0.471659
1999200 0.471193
1999500 0.470770
1881000 0.468077
2000250 0.467789
2001000 0.467471
1929350 0.469421
1999200 0.471902
1999200 0.472972
2000000 0.475000
1999200 0.473154
1999400 0.475095
2000750 0.473422
2000700 0.468049
1999250 0.467184
1999200 0.469044
2000700 0.467215
2001000 0.469126
2000100 0.470072
2001000 0.472425
2000800 0.459125
1999500 0.462255
2000250 0.475380
2000000 0.472509
1998750 0.473814
1999800 0.471034
1999950 0.471503
1999200 0.468909
2001000 0.465454
1998500 0.467585
1998650 0.466306
2001600 0.457647
2000200 0.468923
2001700 0.467689
1998750 0.469698
1998800 0.467702
1998150 0.467998
2000700 0.472661
1998700 0.471759
2000000 0.471087
2000700 0.471174
2000800 0.471646
2000300 0.470682
1999200 0.472198
2001750 0.472030
1788800 0.470571
2001000 0.469800
2002000 0.469908
1998050 0.460910
1998000 0.462924
2002000 0.464727
2001000 0.465967
1999500 0.464420
2002200 0.458969
1999750 0.468724
2001600 0.467708
1998200 0.467455
1999200 0.470458
1999800 0.470986
