Actually entered program!
Running with size: 1600, Trials: 67, OutputFile: 1600.8.eigen, Appending?: 0

------------------------------------------------------------
Sender: LSF System <lsfadmin@c24b07>
Subject: Job 7737112: <s.1600.8> in cluster <umghpcc> Done

Job <s.1600.8> was submitted from host <ghpcc06> by user <yh58b> in cluster <umghpcc> at Mon Jul 15 13:25:40 2019.
Job was executed on host(s) <c24b07>, in queue <short>, as user <yh58b> in cluster <umghpcc> at Mon Jul 15 13:25:41 2019.
</home/yh58b> was used as the home directory.
</home/yh58b/RMT/1600.singly> was used as the working directory.
Started at Mon Jul 15 13:25:41 2019.
Terminated at Mon Jul 15 13:42:18 2019.
Results reported at Mon Jul 15 13:42:18 2019.

Your job looked like:

------------------------------------------------------------
# LSBATCH: User input
./eigen.exec 1600.pf 1600.8.eigen
------------------------------------------------------------

Successfully completed.

Resource usage summary:

    CPU time :                                   994.69 sec.
    Max Memory :                                 32 MB
    Average Memory :                             31.38 MB
    Total Requested Memory :                     512.00 MB
    Delta Memory :                               480.00 MB
    Max Swap :                                   -
    Max Processes :                              3
    Max Threads :                                4
    Run time :                                   996 sec.
    Turnaround time :                            998 sec.

The output (if any) is above this job summary.



PS:

Read file <1600.8.error> for stderr output of this job.

