Actually entered program!
Running with size: 3550, Trials: 6, OutputFile: 3550.20.eigen, Appending?: 0

------------------------------------------------------------
Sender: LSF System <lsfadmin@c30b01>
Subject: Job 7742715: <d.3550.20> in cluster <umghpcc> Done

Job <d.3550.20> was submitted from host <ghpcc06> by user <yh58b> in cluster <umghpcc> at Mon Jul 15 13:32:40 2019.
Job was executed on host(s) <c30b01>, in queue <short>, as user <yh58b> in cluster <umghpcc> at Mon Jul 15 20:19:53 2019.
</home/yh58b> was used as the home directory.
</home/yh58b/RMT/3550.doubly> was used as the working directory.
Started at Mon Jul 15 20:19:53 2019.
Terminated at Mon Jul 15 21:18:09 2019.
Results reported at Mon Jul 15 21:18:09 2019.

Your job looked like:

------------------------------------------------------------
# LSBATCH: User input
./eigen.exec 3550.pf 3550.20.eigen
------------------------------------------------------------

Successfully completed.

Resource usage summary:

    CPU time :                                   3493.73 sec.
    Max Memory :                                 108 MB
    Average Memory :                             107.60 MB
    Total Requested Memory :                     512.00 MB
    Delta Memory :                               404.00 MB
    Max Swap :                                   -
    Max Processes :                              3
    Max Threads :                                4
    Run time :                                   3495 sec.
    Turnaround time :                            27929 sec.

The output (if any) is above this job summary.



PS:

Read file <3550.20.error> for stderr output of this job.

