Actually entered program!

------------------------------------------------------------
Sender: LSF System <lsfadmin@c04b01>
Subject: Job 7742758: <d.3550.63> in cluster <umghpcc> Exited

Job <d.3550.63> was submitted from host <ghpcc06> by user <yh58b> in cluster <umghpcc> at Mon Jul 15 13:32:42 2019.
Job was executed on host(s) <c04b01>, in queue <short>, as user <yh58b> in cluster <umghpcc> at Mon Jul 15 20:22:01 2019.
</home/yh58b> was used as the home directory.
</home/yh58b/RMT/3550.doubly> was used as the working directory.
Started at Mon Jul 15 20:22:01 2019.
Terminated at Mon Jul 15 21:22:02 2019.
Results reported at Mon Jul 15 21:22:02 2019.

Your job looked like:

------------------------------------------------------------
# LSBATCH: User input
./eigen.exec 3550.pf 3550.63.eigen
------------------------------------------------------------

TERM_RUNLIMIT: job killed after reaching LSF run time limit.
Exited with exit code 140.

Resource usage summary:

    CPU time :                                   3600.07 sec.
    Max Memory :                                 109 MB
    Average Memory :                             108.65 MB
    Total Requested Memory :                     512.00 MB
    Delta Memory :                               403.00 MB
    Max Swap :                                   -
    Max Processes :                              3
    Max Threads :                                4
    Run time :                                   3601 sec.
    Turnaround time :                            28160 sec.

The output (if any) is above this job summary.



PS:

Read file <3550.63.error> for stderr output of this job.

