Actually entered program!

------------------------------------------------------------
Sender: LSF System <lsfadmin@c03b04>
Subject: Job 7742733: <d.3550.38> in cluster <umghpcc> Exited

Job <d.3550.38> was submitted from host <ghpcc06> by user <yh58b> in cluster <umghpcc> at Mon Jul 15 13:32:41 2019.
Job was executed on host(s) <c03b04>, in queue <short>, as user <yh58b> in cluster <umghpcc> at Mon Jul 15 20:20:49 2019.
</home/yh58b> was used as the home directory.
</home/yh58b/RMT/3550.doubly> was used as the working directory.
Started at Mon Jul 15 20:20:49 2019.
Terminated at Mon Jul 15 21:20:57 2019.
Results reported at Mon Jul 15 21:20:57 2019.

Your job looked like:

------------------------------------------------------------
# LSBATCH: User input
./eigen.exec 3550.pf 3550.38.eigen
------------------------------------------------------------

TERM_RUNLIMIT: job killed after reaching LSF run time limit.
Exited with exit code 140.

Resource usage summary:

    CPU time :                                   3606.00 sec.
    Max Memory :                                 107 MB
    Average Memory :                             107.00 MB
    Total Requested Memory :                     512.00 MB
    Delta Memory :                               405.00 MB
    Max Swap :                                   -
    Max Processes :                              3
    Max Threads :                                4
    Run time :                                   3608 sec.
    Turnaround time :                            28096 sec.

The output (if any) is above this job summary.



PS:

Read file <3550.38.error> for stderr output of this job.

