Actually entered program!
Running with size: 2000, Trials: 69, OutputFile: 2000.11.eigen, Appending?: 0

------------------------------------------------------------
Sender: LSF System <lsfadmin@c29b09>
Subject: Job 7737234: <s.2000.11> in cluster <umghpcc> Done

Job <s.2000.11> was submitted from host <ghpcc06> by user <yh58b> in cluster <umghpcc> at Mon Jul 15 13:25:49 2019.
Job was executed on host(s) <c29b09>, in queue <short>, as user <yh58b> in cluster <umghpcc> at Mon Jul 15 13:26:07 2019.
</home/yh58b> was used as the home directory.
</home/yh58b/RMT/2000.singly> was used as the working directory.
Started at Mon Jul 15 13:26:07 2019.
Terminated at Mon Jul 15 13:55:11 2019.
Results reported at Mon Jul 15 13:55:11 2019.

Your job looked like:

------------------------------------------------------------
# LSBATCH: User input
./eigen.exec 2000.pf 2000.11.eigen
------------------------------------------------------------

Successfully completed.

Resource usage summary:

    CPU time :                                   1742.61 sec.
    Max Memory :                                 43 MB
    Average Memory :                             42.32 MB
    Total Requested Memory :                     512.00 MB
    Delta Memory :                               469.00 MB
    Max Swap :                                   -
    Max Processes :                              3
    Max Threads :                                4
    Run time :                                   1745 sec.
    Turnaround time :                            1762 sec.

The output (if any) is above this job summary.



PS:

Read file <2000.11.error> for stderr output of this job.

