Actually entered program!
Running with size: 4700, Trials: 5, OutputFile: 4700.45.eigen, Appending?: 0

------------------------------------------------------------
Sender: LSF System <lsfadmin@c18b05>
Subject: Job 7848966: <s.4700.45> in cluster <umghpcc> Done

Job <s.4700.45> was submitted from host <ghpcc06> by user <yh58b> in cluster <umghpcc> at Tue Jul 16 15:38:56 2019.
Job was executed on host(s) <c18b05>, in queue <long>, as user <yh58b> in cluster <umghpcc> at Wed Jul 17 12:11:28 2019.
</home/yh58b> was used as the home directory.
</home/yh58b/RMT/4700.singly> was used as the working directory.
Started at Wed Jul 17 12:11:28 2019.
Terminated at Wed Jul 17 13:06:55 2019.
Results reported at Wed Jul 17 13:06:55 2019.

Your job looked like:

------------------------------------------------------------
# LSBATCH: User input
./eigen.exec 4700.pf 4700.45.eigen
------------------------------------------------------------

Successfully completed.

Resource usage summary:

    CPU time :                                   3324.45 sec.
    Max Memory :                                 179 MB
    Average Memory :                             178.82 MB
    Total Requested Memory :                     256.00 MB
    Delta Memory :                               77.00 MB
    Max Swap :                                   -
    Max Processes :                              3
    Max Threads :                                4
    Run time :                                   3326 sec.
    Turnaround time :                            77279 sec.

The output (if any) is above this job summary.



PS:

Read file <4700.45.error> for stderr output of this job.

