Actually entered program!
Running with size: 4250, Trials: 3, OutputFile: 4250.149.eigen, Appending?: 0

------------------------------------------------------------
Sender: LSF System <lsfadmin@c19b06>
Subject: Job 7744627: <d.4250.149> in cluster <umghpcc> Done

Job <d.4250.149> was submitted from host <ghpcc06> by user <yh58b> in cluster <umghpcc> at Mon Jul 15 13:34:55 2019.
Job was executed on host(s) <c19b06>, in queue <short>, as user <yh58b> in cluster <umghpcc> at Mon Jul 15 23:17:36 2019.
</home/yh58b> was used as the home directory.
</home/yh58b/RMT/4250.doubly> was used as the working directory.
Started at Mon Jul 15 23:17:36 2019.
Terminated at Tue Jul 16 00:08:35 2019.
Results reported at Tue Jul 16 00:08:35 2019.

Your job looked like:

------------------------------------------------------------
# LSBATCH: User input
./eigen.exec 4250.pf 4250.149.eigen
------------------------------------------------------------

Successfully completed.

Resource usage summary:

    CPU time :                                   3057.25 sec.
    Max Memory :                                 150 MB
    Average Memory :                             150.00 MB
    Total Requested Memory :                     512.00 MB
    Delta Memory :                               362.00 MB
    Max Swap :                                   -
    Max Processes :                              3
    Max Threads :                                4
    Run time :                                   3058 sec.
    Turnaround time :                            38020 sec.

The output (if any) is above this job summary.



PS:

Read file <4250.149.error> for stderr output of this job.

