Actually entered program!
Running with size: 4250, Trials: 3, OutputFile: 4250.117.eigen, Appending?: 0

------------------------------------------------------------
Sender: LSF System <lsfadmin@c32b05>
Subject: Job 7744595: <d.4250.117> in cluster <umghpcc> Done

Job <d.4250.117> was submitted from host <ghpcc06> by user <yh58b> in cluster <umghpcc> at Mon Jul 15 13:34:53 2019.
Job was executed on host(s) <c32b05>, in queue <short>, as user <yh58b> in cluster <umghpcc> at Mon Jul 15 23:15:29 2019.
</home/yh58b> was used as the home directory.
</home/yh58b/RMT/4250.doubly> was used as the working directory.
Started at Mon Jul 15 23:15:29 2019.
Terminated at Tue Jul 16 00:04:55 2019.
Results reported at Tue Jul 16 00:04:55 2019.

Your job looked like:

------------------------------------------------------------
# LSBATCH: User input
./eigen.exec 4250.pf 4250.117.eigen
------------------------------------------------------------

Successfully completed.

Resource usage summary:

    CPU time :                                   2963.10 sec.
    Max Memory :                                 151 MB
    Average Memory :                             148.46 MB
    Total Requested Memory :                     512.00 MB
    Delta Memory :                               361.00 MB
    Max Swap :                                   -
    Max Processes :                              3
    Max Threads :                                4
    Run time :                                   2965 sec.
    Turnaround time :                            37802 sec.

The output (if any) is above this job summary.



PS:

Read file <4250.117.error> for stderr output of this job.

