Actually entered program!

------------------------------------------------------------
Sender: LSF System <lsfadmin@c03b05>
Subject: Job 7744561: <d.4250.83> in cluster <umghpcc> Exited

Job <d.4250.83> was submitted from host <ghpcc06> by user <yh58b> in cluster <umghpcc> at Mon Jul 15 13:34:51 2019.
Job was executed on host(s) <c03b05>, in queue <short>, as user <yh58b> in cluster <umghpcc> at Mon Jul 15 23:14:04 2019.
</home/yh58b> was used as the home directory.
</home/yh58b/RMT/4250.doubly> was used as the working directory.
Started at Mon Jul 15 23:14:04 2019.
Terminated at Tue Jul 16 00:14:15 2019.
Results reported at Tue Jul 16 00:14:15 2019.

Your job looked like:

------------------------------------------------------------
# LSBATCH: User input
./eigen.exec 4250.pf 4250.83.eigen
------------------------------------------------------------

TERM_RUNLIMIT: job killed after reaching LSF run time limit.
Exited with exit code 140.

Resource usage summary:

    CPU time :                                   3607.00 sec.
    Max Memory :                                 150 MB
    Average Memory :                             150.00 MB
    Total Requested Memory :                     512.00 MB
    Delta Memory :                               362.00 MB
    Max Swap :                                   -
    Max Processes :                              3
    Max Threads :                                4
    Run time :                                   3611 sec.
    Turnaround time :                            38364 sec.

The output (if any) is above this job summary.



PS:

Read file <4250.83.error> for stderr output of this job.

