Actually entered program!
Running with size: 4250, Trials: 3, OutputFile: 4250.18.eigen, Appending?: 0

------------------------------------------------------------
Sender: LSF System <lsfadmin@c08b05>
Subject: Job 7744496: <d.4250.18> in cluster <umghpcc> Done

Job <d.4250.18> was submitted from host <ghpcc06> by user <yh58b> in cluster <umghpcc> at Mon Jul 15 13:34:47 2019.
Job was executed on host(s) <c08b05>, in queue <short>, as user <yh58b> in cluster <umghpcc> at Mon Jul 15 23:10:47 2019.
</home/yh58b> was used as the home directory.
</home/yh58b/RMT/4250.doubly> was used as the working directory.
Started at Mon Jul 15 23:10:47 2019.
Terminated at Tue Jul 16 00:07:20 2019.
Results reported at Tue Jul 16 00:07:20 2019.

Your job looked like:

------------------------------------------------------------
# LSBATCH: User input
./eigen.exec 4250.pf 4250.18.eigen
------------------------------------------------------------

Successfully completed.

Resource usage summary:

    CPU time :                                   3392.32 sec.
    Max Memory :                                 149 MB
    Average Memory :                             148.50 MB
    Total Requested Memory :                     512.00 MB
    Delta Memory :                               363.00 MB
    Max Swap :                                   -
    Max Processes :                              3
    Max Threads :                                4
    Run time :                                   3393 sec.
    Turnaround time :                            37953 sec.

The output (if any) is above this job summary.



PS:

Read file <4250.18.error> for stderr output of this job.

