Actually entered program!
Running with size: 4250, Trials: 3, OutputFile: 4250.46.eigen, Appending?: 0

------------------------------------------------------------
Sender: LSF System <lsfadmin@c26b08>
Subject: Job 7744524: <d.4250.46> in cluster <umghpcc> Done

Job <d.4250.46> was submitted from host <ghpcc06> by user <yh58b> in cluster <umghpcc> at Mon Jul 15 13:34:48 2019.
Job was executed on host(s) <c26b08>, in queue <short>, as user <yh58b> in cluster <umghpcc> at Mon Jul 15 23:12:07 2019.
</home/yh58b> was used as the home directory.
</home/yh58b/RMT/4250.doubly> was used as the working directory.
Started at Mon Jul 15 23:12:07 2019.
Terminated at Tue Jul 16 00:01:22 2019.
Results reported at Tue Jul 16 00:01:22 2019.

Your job looked like:

------------------------------------------------------------
# LSBATCH: User input
./eigen.exec 4250.pf 4250.46.eigen
------------------------------------------------------------

Successfully completed.

Resource usage summary:

    CPU time :                                   2954.21 sec.
    Max Memory :                                 148 MB
    Average Memory :                             148.00 MB
    Total Requested Memory :                     512.00 MB
    Delta Memory :                               364.00 MB
    Max Swap :                                   -
    Max Processes :                              3
    Max Threads :                                4
    Run time :                                   2955 sec.
    Turnaround time :                            37594 sec.

The output (if any) is above this job summary.



PS:

Read file <4250.46.error> for stderr output of this job.

