Actually entered program!
Running with size: 4250, Trials: 3, OutputFile: 4250.29.eigen, Appending?: 0

------------------------------------------------------------
Sender: LSF System <lsfadmin@c03b05>
Subject: Job 7744507: <d.4250.29> in cluster <umghpcc> Done

Job <d.4250.29> was submitted from host <ghpcc06> by user <yh58b> in cluster <umghpcc> at Mon Jul 15 13:34:47 2019.
Job was executed on host(s) <c03b05>, in queue <short>, as user <yh58b> in cluster <umghpcc> at Mon Jul 15 23:11:21 2019.
</home/yh58b> was used as the home directory.
</home/yh58b/RMT/4250.doubly> was used as the working directory.
Started at Mon Jul 15 23:11:21 2019.
Terminated at Mon Jul 15 23:58:30 2019.
Results reported at Mon Jul 15 23:58:30 2019.

Your job looked like:

------------------------------------------------------------
# LSBATCH: User input
./eigen.exec 4250.pf 4250.29.eigen
------------------------------------------------------------

Successfully completed.

Resource usage summary:

    CPU time :                                   2826.50 sec.
    Max Memory :                                 148 MB
    Average Memory :                             148.00 MB
    Total Requested Memory :                     512.00 MB
    Delta Memory :                               364.00 MB
    Max Swap :                                   -
    Max Processes :                              3
    Max Threads :                                4
    Run time :                                   2828 sec.
    Turnaround time :                            37423 sec.

The output (if any) is above this job summary.



PS:

Read file <4250.29.error> for stderr output of this job.

