Actually entered program!
Running with size: 1900, Trials: 78, OutputFile: 1900.3.eigen, Appending?: 0

------------------------------------------------------------
Sender: LSF System <lsfadmin@c37b03>
Subject: Job 7846111: <s.1900.3> in cluster <umghpcc> Done

Job <s.1900.3> was submitted from host <ghpcc06> by user <yh58b> in cluster <umghpcc> at Tue Jul 16 15:35:27 2019.
Job was executed on host(s) <c37b03>, in queue <long>, as user <yh58b> in cluster <umghpcc> at Tue Jul 16 16:26:18 2019.
</home/yh58b> was used as the home directory.
</home/yh58b/RMT/1900.singly> was used as the working directory.
Started at Tue Jul 16 16:26:18 2019.
Terminated at Tue Jul 16 16:47:20 2019.
Results reported at Tue Jul 16 16:47:20 2019.

Your job looked like:

------------------------------------------------------------
# LSBATCH: User input
./eigen.exec 1900.pf 1900.3.eigen
------------------------------------------------------------

Successfully completed.

Resource usage summary:

    CPU time :                                   1259.68 sec.
    Max Memory :                                 40 MB
    Average Memory :                             40.00 MB
    Total Requested Memory :                     256.00 MB
    Delta Memory :                               216.00 MB
    Max Swap :                                   -
    Max Processes :                              3
    Max Threads :                                4
    Run time :                                   1262 sec.
    Turnaround time :                            4313 sec.

The output (if any) is above this job summary.



PS:

Read file <1900.3.error> for stderr output of this job.

