Actually entered program!
Running with size: 4400, Trials: 3, OutputFile: 4400.49.eigen, Appending?: 0

------------------------------------------------------------
Sender: LSF System <lsfadmin@c18b08>
Subject: Job 7744956: <d.4400.49> in cluster <umghpcc> Done

Job <d.4400.49> was submitted from host <ghpcc06> by user <yh58b> in cluster <umghpcc> at Mon Jul 15 13:35:19 2019.
Job was executed on host(s) <c18b08>, in queue <short>, as user <yh58b> in cluster <umghpcc> at Mon Jul 15 23:56:31 2019.
</home/yh58b> was used as the home directory.
</home/yh58b/RMT/4400.doubly> was used as the working directory.
Started at Mon Jul 15 23:56:31 2019.
Terminated at Tue Jul 16 00:45:15 2019.
Results reported at Tue Jul 16 00:45:15 2019.

Your job looked like:

------------------------------------------------------------
# LSBATCH: User input
./eigen.exec 4400.pf 4400.49.eigen
------------------------------------------------------------

Successfully completed.

Resource usage summary:

    CPU time :                                   2922.49 sec.
    Max Memory :                                 158 MB
    Average Memory :                             158.00 MB
    Total Requested Memory :                     512.00 MB
    Delta Memory :                               354.00 MB
    Max Swap :                                   -
    Max Processes :                              3
    Max Threads :                                4
    Run time :                                   2923 sec.
    Turnaround time :                            40196 sec.

The output (if any) is above this job summary.



PS:

Read file <4400.49.error> for stderr output of this job.

