Actually entered program!
Running with size: 4400, Trials: 3, OutputFile: 4400.110.eigen, Appending?: 0

------------------------------------------------------------
Sender: LSF System <lsfadmin@c01b07>
Subject: Job 7745017: <d.4400.110> in cluster <umghpcc> Done

Job <d.4400.110> was submitted from host <ghpcc06> by user <yh58b> in cluster <umghpcc> at Mon Jul 15 13:35:23 2019.
Job was executed on host(s) <c01b07>, in queue <short>, as user <yh58b> in cluster <umghpcc> at Tue Jul 16 00:01:17 2019.
</home/yh58b> was used as the home directory.
</home/yh58b/RMT/4400.doubly> was used as the working directory.
Started at Tue Jul 16 00:01:17 2019.
Terminated at Tue Jul 16 00:37:45 2019.
Results reported at Tue Jul 16 00:37:45 2019.

Your job looked like:

------------------------------------------------------------
# LSBATCH: User input
./eigen.exec 4400.pf 4400.110.eigen
------------------------------------------------------------

Successfully completed.

Resource usage summary:

    CPU time :                                   2188.41 sec.
    Max Memory :                                 160 MB
    Average Memory :                             159.82 MB
    Total Requested Memory :                     512.00 MB
    Delta Memory :                               352.00 MB
    Max Swap :                                   -
    Max Processes :                              3
    Max Threads :                                4
    Run time :                                   2188 sec.
    Turnaround time :                            39742 sec.

The output (if any) is above this job summary.



PS:

Read file <4400.110.error> for stderr output of this job.

