Actually entered program!
Running with size: 4400, Trials: 3, OutputFile: 4400.132.eigen, Appending?: 0

------------------------------------------------------------
Sender: LSF System <lsfadmin@c23b08>
Subject: Job 7745039: <d.4400.132> in cluster <umghpcc> Done

Job <d.4400.132> was submitted from host <ghpcc06> by user <yh58b> in cluster <umghpcc> at Mon Jul 15 13:35:25 2019.
Job was executed on host(s) <c23b08>, in queue <short>, as user <yh58b> in cluster <umghpcc> at Tue Jul 16 00:03:57 2019.
</home/yh58b> was used as the home directory.
</home/yh58b/RMT/4400.doubly> was used as the working directory.
Started at Tue Jul 16 00:03:57 2019.
Terminated at Tue Jul 16 00:59:10 2019.
Results reported at Tue Jul 16 00:59:10 2019.

Your job looked like:

------------------------------------------------------------
# LSBATCH: User input
./eigen.exec 4400.pf 4400.132.eigen
------------------------------------------------------------

Successfully completed.

Resource usage summary:

    CPU time :                                   3311.53 sec.
    Max Memory :                                 160 MB
    Average Memory :                             160.00 MB
    Total Requested Memory :                     512.00 MB
    Delta Memory :                               352.00 MB
    Max Swap :                                   -
    Max Processes :                              3
    Max Threads :                                4
    Run time :                                   3312 sec.
    Turnaround time :                            41025 sec.

The output (if any) is above this job summary.



PS:

Read file <4400.132.error> for stderr output of this job.

