Actually entered program!
Running with size: 4400, Trials: 3, OutputFile: 4400.81.eigen, Appending?: 0

------------------------------------------------------------
Sender: LSF System <lsfadmin@c08b04>
Subject: Job 7744988: <d.4400.81> in cluster <umghpcc> Done

Job <d.4400.81> was submitted from host <ghpcc06> by user <yh58b> in cluster <umghpcc> at Mon Jul 15 13:35:22 2019.
Job was executed on host(s) <c08b04>, in queue <short>, as user <yh58b> in cluster <umghpcc> at Tue Jul 16 00:00:10 2019.
</home/yh58b> was used as the home directory.
</home/yh58b/RMT/4400.doubly> was used as the working directory.
Started at Tue Jul 16 00:00:10 2019.
Terminated at Tue Jul 16 00:51:49 2019.
Results reported at Tue Jul 16 00:51:49 2019.

Your job looked like:

------------------------------------------------------------
# LSBATCH: User input
./eigen.exec 4400.pf 4400.81.eigen
------------------------------------------------------------

Successfully completed.

Resource usage summary:

    CPU time :                                   3098.07 sec.
    Max Memory :                                 161 MB
    Average Memory :                             158.44 MB
    Total Requested Memory :                     512.00 MB
    Delta Memory :                               351.00 MB
    Max Swap :                                   -
    Max Processes :                              3
    Max Threads :                                4
    Run time :                                   3099 sec.
    Turnaround time :                            40587 sec.

The output (if any) is above this job summary.



PS:

Read file <4400.81.error> for stderr output of this job.

