Actually entered program!

------------------------------------------------------------
Sender: LSF System <lsfadmin@c02b08>
Subject: Job 7744980: <d.4400.73> in cluster <umghpcc> Exited

Job <d.4400.73> was submitted from host <ghpcc06> by user <yh58b> in cluster <umghpcc> at Mon Jul 15 13:35:21 2019.
Job was executed on host(s) <c02b08>, in queue <short>, as user <yh58b> in cluster <umghpcc> at Mon Jul 15 23:59:25 2019.
</home/yh58b> was used as the home directory.
</home/yh58b/RMT/4400.doubly> was used as the working directory.
Started at Mon Jul 15 23:59:25 2019.
Terminated at Tue Jul 16 00:59:38 2019.
Results reported at Tue Jul 16 00:59:38 2019.

Your job looked like:

------------------------------------------------------------
# LSBATCH: User input
./eigen.exec 4400.pf 4400.73.eigen
------------------------------------------------------------

TERM_RUNLIMIT: job killed after reaching LSF run time limit.
Exited with exit code 140.

Resource usage summary:

    CPU time :                                   3602.43 sec.
    Max Memory :                                 158 MB
    Average Memory :                             158.00 MB
    Total Requested Memory :                     512.00 MB
    Delta Memory :                               354.00 MB
    Max Swap :                                   -
    Max Processes :                              3
    Max Threads :                                4
    Run time :                                   3613 sec.
    Turnaround time :                            41057 sec.

The output (if any) is above this job summary.



PS:

Read file <4400.73.error> for stderr output of this job.

