Actually entered program!
Running with size: 1100, Trials: 94, OutputFile: 1100.stray.eigen, Appending?: 0

------------------------------------------------------------
Sender: LSF System <lsfadmin@c28b15>
Subject: Job 7737005: <s.1100.stray> in cluster <umghpcc> Done

Job <s.1100.stray> was submitted from host <ghpcc06> by user <yh58b> in cluster <umghpcc> at Mon Jul 15 13:25:31 2019.
Job was executed on host(s) <c28b15>, in queue <short>, as user <yh58b> in cluster <umghpcc> at Mon Jul 15 13:25:34 2019.
</home/yh58b> was used as the home directory.
</home/yh58b/RMT/1100.singly> was used as the working directory.
Started at Mon Jul 15 13:25:34 2019.
Terminated at Mon Jul 15 13:31:51 2019.
Results reported at Mon Jul 15 13:31:51 2019.

Your job looked like:

------------------------------------------------------------
# LSBATCH: User input
./eigen.exec 1100.stray.pf 1100.stray.eigen
------------------------------------------------------------

Successfully completed.

Resource usage summary:

    CPU time :                                   376.59 sec.
    Max Memory :                                 22 MB
    Average Memory :                             21.84 MB
    Total Requested Memory :                     512.00 MB
    Delta Memory :                               490.00 MB
    Max Swap :                                   -
    Max Processes :                              3
    Max Threads :                                4
    Run time :                                   380 sec.
    Turnaround time :                            380 sec.

The output (if any) is above this job summary.



PS:

Read file <1100.stray.error> for stderr output of this job.

