Actually entered program!

------------------------------------------------------------
Sender: LSF System <lsfadmin@c06b05>
Subject: Job 7742443: <d.3400.21> in cluster <umghpcc> Exited

Job <d.3400.21> was submitted from host <ghpcc06> by user <yh58b> in cluster <umghpcc> at Mon Jul 15 13:32:20 2019.
Job was executed on host(s) <c06b05>, in queue <short>, as user <yh58b> in cluster <umghpcc> at Mon Jul 15 19:58:35 2019.
</home/yh58b> was used as the home directory.
</home/yh58b/RMT/3400.doubly> was used as the working directory.
Started at Mon Jul 15 19:58:35 2019.
Terminated at Mon Jul 15 20:58:36 2019.
Results reported at Mon Jul 15 20:58:36 2019.

Your job looked like:

------------------------------------------------------------
# LSBATCH: User input
./eigen.exec 3400.pf 3400.21.eigen
------------------------------------------------------------

TERM_RUNLIMIT: job killed after reaching LSF run time limit.
Exited with exit code 140.

Resource usage summary:

    CPU time :                                   3600.00 sec.
    Max Memory :                                 100 MB
    Average Memory :                             99.93 MB
    Total Requested Memory :                     512.00 MB
    Delta Memory :                               412.00 MB
    Max Swap :                                   -
    Max Processes :                              3
    Max Threads :                                4
    Run time :                                   3601 sec.
    Turnaround time :                            26776 sec.

The output (if any) is above this job summary.



PS:

Read file <3400.21.error> for stderr output of this job.

