Actually entered program!

------------------------------------------------------------
Sender: LSF System <lsfadmin@c19b04>
Subject: Job 7742482: <d.3400.60> in cluster <umghpcc> Exited

Job <d.3400.60> was submitted from host <ghpcc06> by user <yh58b> in cluster <umghpcc> at Mon Jul 15 13:32:22 2019.
Job was executed on host(s) <c19b04>, in queue <short>, as user <yh58b> in cluster <umghpcc> at Mon Jul 15 20:02:24 2019.
</home/yh58b> was used as the home directory.
</home/yh58b/RMT/3400.doubly> was used as the working directory.
Started at Mon Jul 15 20:02:24 2019.
Terminated at Mon Jul 15 21:02:31 2019.
Results reported at Mon Jul 15 21:02:31 2019.

Your job looked like:

------------------------------------------------------------
# LSBATCH: User input
./eigen.exec 3400.pf 3400.60.eigen
------------------------------------------------------------

TERM_RUNLIMIT: job killed after reaching LSF run time limit.
Exited with exit code 140.

Resource usage summary:

    CPU time :                                   3605.00 sec.
    Max Memory :                                 99 MB
    Average Memory :                             99.00 MB
    Total Requested Memory :                     512.00 MB
    Delta Memory :                               413.00 MB
    Max Swap :                                   -
    Max Processes :                              3
    Max Threads :                                4
    Run time :                                   3607 sec.
    Turnaround time :                            27009 sec.

The output (if any) is above this job summary.



PS:

Read file <3400.60.error> for stderr output of this job.

