Actually entered program!

------------------------------------------------------------
Sender: LSF System <lsfadmin@c08b05>
Subject: Job 7741154: <d.2300.3> in cluster <umghpcc> Exited

Job <d.2300.3> was submitted from host <ghpcc06> by user <yh58b> in cluster <umghpcc> at Mon Jul 15 13:30:45 2019.
Job was executed on host(s) <c08b05>, in queue <short>, as user <yh58b> in cluster <umghpcc> at Mon Jul 15 17:40:14 2019.
</home/yh58b> was used as the home directory.
</home/yh58b/RMT/2300.doubly> was used as the working directory.
Started at Mon Jul 15 17:40:14 2019.
Terminated at Mon Jul 15 18:40:19 2019.
Results reported at Mon Jul 15 18:40:19 2019.

Your job looked like:

------------------------------------------------------------
# LSBATCH: User input
./eigen.exec 2300.pf 2300.3.eigen
------------------------------------------------------------

TERM_RUNLIMIT: job killed after reaching LSF run time limit.
Exited with exit code 140.

Resource usage summary:

    CPU time :                                   3604.00 sec.
    Max Memory :                                 51 MB
    Average Memory :                             51.00 MB
    Total Requested Memory :                     512.00 MB
    Delta Memory :                               461.00 MB
    Max Swap :                                   -
    Max Processes :                              3
    Max Threads :                                4
    Run time :                                   3605 sec.
    Turnaround time :                            18574 sec.

The output (if any) is above this job summary.



PS:

Read file <2300.3.error> for stderr output of this job.

