Actually entered program!
Running with size: 4750, Trials: 2, OutputFile: 4750.42.eigen, Appending?: 0

------------------------------------------------------------
Sender: LSF System <lsfadmin@c03b04>
Subject: Job 7745980: <d.4750.42> in cluster <umghpcc> Done

Job <d.4750.42> was submitted from host <ghpcc06> by user <yh58b> in cluster <umghpcc> at Mon Jul 15 13:36:34 2019.
Job was executed on host(s) <c03b04>, in queue <short>, as user <yh58b> in cluster <umghpcc> at Tue Jul 16 01:45:40 2019.
</home/yh58b> was used as the home directory.
</home/yh58b/RMT/4750.doubly> was used as the working directory.
Started at Tue Jul 16 01:45:40 2019.
Terminated at Tue Jul 16 02:27:24 2019.
Results reported at Tue Jul 16 02:27:24 2019.

Your job looked like:

------------------------------------------------------------
# LSBATCH: User input
./eigen.exec 4750.pf 4750.42.eigen
------------------------------------------------------------

Successfully completed.

Resource usage summary:

    CPU time :                                   2502.46 sec.
    Max Memory :                                 183 MB
    Average Memory :                             183.00 MB
    Total Requested Memory :                     512.00 MB
    Delta Memory :                               329.00 MB
    Max Swap :                                   -
    Max Processes :                              3
    Max Threads :                                4
    Run time :                                   2503 sec.
    Turnaround time :                            46250 sec.

The output (if any) is above this job summary.



PS:

Read file <4750.42.error> for stderr output of this job.

