Actually entered program!
Running with size: 4750, Trials: 2, OutputFile: 4750.24.eigen, Appending?: 0

------------------------------------------------------------
Sender: LSF System <lsfadmin@c06b06>
Subject: Job 7745962: <d.4750.24> in cluster <umghpcc> Done

Job <d.4750.24> was submitted from host <ghpcc06> by user <yh58b> in cluster <umghpcc> at Mon Jul 15 13:36:32 2019.
Job was executed on host(s) <c06b06>, in queue <short>, as user <yh58b> in cluster <umghpcc> at Tue Jul 16 01:43:06 2019.
</home/yh58b> was used as the home directory.
</home/yh58b/RMT/4750.doubly> was used as the working directory.
Started at Tue Jul 16 01:43:06 2019.
Terminated at Tue Jul 16 02:29:20 2019.
Results reported at Tue Jul 16 02:29:20 2019.

Your job looked like:

------------------------------------------------------------
# LSBATCH: User input
./eigen.exec 4750.pf 4750.24.eigen
------------------------------------------------------------

Successfully completed.

Resource usage summary:

    CPU time :                                   2772.48 sec.
    Max Memory :                                 184 MB
    Average Memory :                             183.92 MB
    Total Requested Memory :                     512.00 MB
    Delta Memory :                               328.00 MB
    Max Swap :                                   -
    Max Processes :                              3
    Max Threads :                                4
    Run time :                                   2773 sec.
    Turnaround time :                            46368 sec.

The output (if any) is above this job summary.



PS:

Read file <4750.24.error> for stderr output of this job.

