Actually entered program!

------------------------------------------------------------
Sender: LSF System <lsfadmin@c02b03>
Subject: Job 7744176: <d.4100.62> in cluster <umghpcc> Exited

Job <d.4100.62> was submitted from host <ghpcc06> by user <yh58b> in cluster <umghpcc> at Mon Jul 15 13:34:24 2019.
Job was executed on host(s) <c02b03>, in queue <short>, as user <yh58b> in cluster <umghpcc> at Mon Jul 15 22:23:17 2019.
</home/yh58b> was used as the home directory.
</home/yh58b/RMT/4100.doubly> was used as the working directory.
Started at Mon Jul 15 22:23:17 2019.
Terminated at Mon Jul 15 23:23:19 2019.
Results reported at Mon Jul 15 23:23:19 2019.

Your job looked like:

------------------------------------------------------------
# LSBATCH: User input
./eigen.exec 4100.pf 4100.62.eigen
------------------------------------------------------------

TERM_RUNLIMIT: job killed after reaching LSF run time limit.
Exited with exit code 140.

Resource usage summary:

    CPU time :                                   3599.75 sec.
    Max Memory :                                 141 MB
    Average Memory :                             140.93 MB
    Total Requested Memory :                     512.00 MB
    Delta Memory :                               371.00 MB
    Max Swap :                                   -
    Max Processes :                              3
    Max Threads :                                4
    Run time :                                   3602 sec.
    Turnaround time :                            35335 sec.

The output (if any) is above this job summary.



PS:

Read file <4100.62.error> for stderr output of this job.

