Actually entered program!
Running with size: 4100, Trials: 4, OutputFile: 4100.119.eigen, Appending?: 0

------------------------------------------------------------
Sender: LSF System <lsfadmin@c01b07>
Subject: Job 7744233: <d.4100.119> in cluster <umghpcc> Done

Job <d.4100.119> was submitted from host <ghpcc06> by user <yh58b> in cluster <umghpcc> at Mon Jul 15 13:34:28 2019.
Job was executed on host(s) <c01b07>, in queue <short>, as user <yh58b> in cluster <umghpcc> at Mon Jul 15 22:25:38 2019.
</home/yh58b> was used as the home directory.
</home/yh58b/RMT/4100.doubly> was used as the working directory.
Started at Mon Jul 15 22:25:38 2019.
Terminated at Mon Jul 15 23:04:16 2019.
Results reported at Mon Jul 15 23:04:16 2019.

Your job looked like:

------------------------------------------------------------
# LSBATCH: User input
./eigen.exec 4100.pf 4100.119.eigen
------------------------------------------------------------

Successfully completed.

Resource usage summary:

    CPU time :                                   2317.38 sec.
    Max Memory :                                 141 MB
    Average Memory :                             140.15 MB
    Total Requested Memory :                     512.00 MB
    Delta Memory :                               371.00 MB
    Max Swap :                                   -
    Max Processes :                              3
    Max Threads :                                4
    Run time :                                   2318 sec.
    Turnaround time :                            34188 sec.

The output (if any) is above this job summary.



PS:

Read file <4100.119.error> for stderr output of this job.

