Actually entered program!
Running with size: 4700, Trials: 5, OutputFile: 4700.69.eigen, Appending?: 0

------------------------------------------------------------
Sender: LSF System <lsfadmin@c28b11>
Subject: Job 7740076: <s.4700.69> in cluster <umghpcc> Done

Job <s.4700.69> was submitted from host <ghpcc06> by user <yh58b> in cluster <umghpcc> at Mon Jul 15 13:29:23 2019.
Job was executed on host(s) <c28b11>, in queue <short>, as user <yh58b> in cluster <umghpcc> at Mon Jul 15 16:11:38 2019.
</home/yh58b> was used as the home directory.
</home/yh58b/RMT/4700.singly> was used as the working directory.
Started at Mon Jul 15 16:11:38 2019.
Terminated at Mon Jul 15 16:41:25 2019.
Results reported at Mon Jul 15 16:41:25 2019.

Your job looked like:

------------------------------------------------------------
# LSBATCH: User input
./eigen.exec 4700.pf 4700.69.eigen
------------------------------------------------------------

Successfully completed.

Resource usage summary:

    CPU time :                                   1783.72 sec.
    Max Memory :                                 183 MB
    Average Memory :                             180.97 MB
    Total Requested Memory :                     512.00 MB
    Delta Memory :                               329.00 MB
    Max Swap :                                   -
    Max Processes :                              3
    Max Threads :                                4
    Run time :                                   1787 sec.
    Turnaround time :                            11522 sec.

The output (if any) is above this job summary.



PS:

Read file <4700.69.error> for stderr output of this job.

