Actually entered program!

------------------------------------------------------------
Sender: LSF System <lsfadmin@c02b01>
Subject: Job 7744366: <d.4200.8> in cluster <umghpcc> Exited

Job <d.4200.8> was submitted from host <ghpcc06> by user <yh58b> in cluster <umghpcc> at Mon Jul 15 13:34:37 2019.
Job was executed on host(s) <c02b01>, in queue <short>, as user <yh58b> in cluster <umghpcc> at Mon Jul 15 22:51:46 2019.
</home/yh58b> was used as the home directory.
</home/yh58b/RMT/4200.doubly> was used as the working directory.
Started at Mon Jul 15 22:51:46 2019.
Terminated at Mon Jul 15 23:51:51 2019.
Results reported at Mon Jul 15 23:51:51 2019.

Your job looked like:

------------------------------------------------------------
# LSBATCH: User input
./eigen.exec 4200.pf 4200.8.eigen
------------------------------------------------------------

TERM_RUNLIMIT: job killed after reaching LSF run time limit.
Exited with exit code 140.

Resource usage summary:

    CPU time :                                   3603.43 sec.
    Max Memory :                                 149 MB
    Average Memory :                             148.11 MB
    Total Requested Memory :                     512.00 MB
    Delta Memory :                               363.00 MB
    Max Swap :                                   -
    Max Processes :                              3
    Max Threads :                                4
    Run time :                                   3605 sec.
    Turnaround time :                            37034 sec.

The output (if any) is above this job summary.



PS:

Read file <4200.8.error> for stderr output of this job.

