Actually entered program!

------------------------------------------------------------
Sender: LSF System <lsfadmin@c02b03>
Subject: Job 7744363: <d.4200.5> in cluster <umghpcc> Exited

Job <d.4200.5> was submitted from host <ghpcc06> by user <yh58b> in cluster <umghpcc> at Mon Jul 15 13:34:37 2019.
Job was executed on host(s) <c02b03>, in queue <short>, as user <yh58b> in cluster <umghpcc> at Mon Jul 15 22:52:21 2019.
</home/yh58b> was used as the home directory.
</home/yh58b/RMT/4200.doubly> was used as the working directory.
Started at Mon Jul 15 22:52:21 2019.
Terminated at Mon Jul 15 23:52:24 2019.
Results reported at Mon Jul 15 23:52:24 2019.

Your job looked like:

------------------------------------------------------------
# LSBATCH: User input
./eigen.exec 4200.pf 4200.5.eigen
------------------------------------------------------------

TERM_RUNLIMIT: job killed after reaching LSF run time limit.
Exited with exit code 140.

Resource usage summary:

    CPU time :                                   3599.19 sec.
    Max Memory :                                 145 MB
    Average Memory :                             145.00 MB
    Total Requested Memory :                     512.00 MB
    Delta Memory :                               367.00 MB
    Max Swap :                                   -
    Max Processes :                              3
    Max Threads :                                4
    Run time :                                   3603 sec.
    Turnaround time :                            37067 sec.

The output (if any) is above this job summary.



PS:

Read file <4200.5.error> for stderr output of this job.

