Actually entered program!

------------------------------------------------------------
Sender: LSF System <lsfadmin@c26b02>
Subject: Job 7744387: <d.4200.29> in cluster <umghpcc> Exited

Job <d.4200.29> was submitted from host <ghpcc06> by user <yh58b> in cluster <umghpcc> at Mon Jul 15 13:34:39 2019.
Job was executed on host(s) <c26b02>, in queue <short>, as user <yh58b> in cluster <umghpcc> at Mon Jul 15 22:57:48 2019.
</home/yh58b> was used as the home directory.
</home/yh58b/RMT/4200.doubly> was used as the working directory.
Started at Mon Jul 15 22:57:48 2019.
Terminated at Mon Jul 15 23:57:52 2019.
Results reported at Mon Jul 15 23:57:52 2019.

Your job looked like:

------------------------------------------------------------
# LSBATCH: User input
./eigen.exec 4200.pf 4200.29.eigen
------------------------------------------------------------

TERM_RUNLIMIT: job killed after reaching LSF run time limit.
Exited with exit code 140.

Resource usage summary:

    CPU time :                                   3602.15 sec.
    Max Memory :                                 145 MB
    Average Memory :                             145.00 MB
    Total Requested Memory :                     512.00 MB
    Delta Memory :                               367.00 MB
    Max Swap :                                   -
    Max Processes :                              3
    Max Threads :                                4
    Run time :                                   3604 sec.
    Turnaround time :                            37393 sec.

The output (if any) is above this job summary.



PS:

Read file <4200.29.error> for stderr output of this job.

