Actually entered program!
Running with size: 4250, Trials: 3, OutputFile: 4250.83.eigen, Appending?: 0

------------------------------------------------------------
Sender: LSF System <lsfadmin@c36b11>
Subject: Job 7848159: <s.4250.83> in cluster <umghpcc> Done

Job <s.4250.83> was submitted from host <ghpcc06> by user <yh58b> in cluster <umghpcc> at Tue Jul 16 15:37:59 2019.
Job was executed on host(s) <c36b11>, in queue <long>, as user <yh58b> in cluster <umghpcc> at Wed Jul 17 07:37:07 2019.
</home/yh58b> was used as the home directory.
</home/yh58b/RMT/4250.singly> was used as the working directory.
Started at Wed Jul 17 07:37:07 2019.
Terminated at Wed Jul 17 07:46:11 2019.
Results reported at Wed Jul 17 07:46:11 2019.

Your job looked like:

------------------------------------------------------------
# LSBATCH: User input
./eigen.exec 4250.pf 4250.83.eigen
------------------------------------------------------------

Successfully completed.

Resource usage summary:

    CPU time :                                   539.44 sec.
    Max Memory :                                 150 MB
    Average Memory :                             150.00 MB
    Total Requested Memory :                     256.00 MB
    Delta Memory :                               106.00 MB
    Max Swap :                                   -
    Max Processes :                              3
    Max Threads :                                4
    Run time :                                   544 sec.
    Turnaround time :                            58092 sec.

The output (if any) is above this job summary.



PS:

Read file <4250.83.error> for stderr output of this job.

