Actually entered program!

------------------------------------------------------------
Sender: LSF System <lsfadmin@c23b01>
Subject: Job 7742066: <d.3200.44> in cluster <umghpcc> Exited

Job <d.3200.44> was submitted from host <ghpcc06> by user <yh58b> in cluster <umghpcc> at Mon Jul 15 13:31:52 2019.
Job was executed on host(s) <c23b01>, in queue <short>, as user <yh58b> in cluster <umghpcc> at Mon Jul 15 19:22:06 2019.
</home/yh58b> was used as the home directory.
</home/yh58b/RMT/3200.doubly> was used as the working directory.
Started at Mon Jul 15 19:22:06 2019.
Terminated at Mon Jul 15 20:22:12 2019.
Results reported at Mon Jul 15 20:22:12 2019.

Your job looked like:

------------------------------------------------------------
# LSBATCH: User input
./eigen.exec 3200.pf 3200.44.eigen
------------------------------------------------------------

TERM_RUNLIMIT: job killed after reaching LSF run time limit.
Exited with exit code 140.

Resource usage summary:

    CPU time :                                   3604.21 sec.
    Max Memory :                                 89 MB
    Average Memory :                             89.00 MB
    Total Requested Memory :                     512.00 MB
    Delta Memory :                               423.00 MB
    Max Swap :                                   -
    Max Processes :                              3
    Max Threads :                                4
    Run time :                                   3606 sec.
    Turnaround time :                            24620 sec.

The output (if any) is above this job summary.



PS:

Read file <3200.44.error> for stderr output of this job.

