Actually entered program!

------------------------------------------------------------
Sender: LSF System <lsfadmin@c30b01>
Subject: Job 7737922: <s.3300.37> in cluster <umghpcc> Exited

Job <s.3300.37> was submitted from host <ghpcc06> by user <yh58b> in cluster <umghpcc> at Mon Jul 15 13:26:43 2019.
Job was executed on host(s) <c30b01>, in queue <short>, as user <yh58b> in cluster <umghpcc> at Mon Jul 15 14:02:04 2019.
</home/yh58b> was used as the home directory.
</home/yh58b/RMT/3300.singly> was used as the working directory.
Started at Mon Jul 15 14:02:04 2019.
Terminated at Mon Jul 15 15:04:13 2019.
Results reported at Mon Jul 15 15:04:13 2019.

Your job looked like:

------------------------------------------------------------
# LSBATCH: User input
./eigen.exec 3300.pf 3300.37.eigen
------------------------------------------------------------

TERM_RUNLIMIT: job killed after reaching LSF run time limit.
Exited with exit code 152.

Resource usage summary:

    CPU time :                                   3603.65 sec.
    Max Memory :                                 96 MB
    Average Memory :                             95.89 MB
    Total Requested Memory :                     512.00 MB
    Delta Memory :                               416.00 MB
    Max Swap :                                   -
    Max Processes :                              3
    Max Threads :                                4
    Run time :                                   3606 sec.
    Turnaround time :                            5850 sec.

The output (if any) is above this job summary.



PS:

Read file <3300.37.error> for stderr output of this job.

