Actually entered program!
Running with size: 4700, Trials: 3, OutputFile: 4700.140.eigen, Appending?: 0

------------------------------------------------------------
Sender: LSF System <lsfadmin@c06b07>
Subject: Job 7745935: <d.4700.140> in cluster <umghpcc> Done

Job <d.4700.140> was submitted from host <ghpcc06> by user <yh58b> in cluster <umghpcc> at Mon Jul 15 13:36:31 2019.
Job was executed on host(s) <c06b07>, in queue <short>, as user <yh58b> in cluster <umghpcc> at Tue Jul 16 01:38:41 2019.
</home/yh58b> was used as the home directory.
</home/yh58b/RMT/4700.doubly> was used as the working directory.
Started at Tue Jul 16 01:38:41 2019.
Terminated at Tue Jul 16 02:36:32 2019.
Results reported at Tue Jul 16 02:36:32 2019.

Your job looked like:

------------------------------------------------------------
# LSBATCH: User input
./eigen.exec 4700.pf 4700.140.eigen
------------------------------------------------------------

Successfully completed.

Resource usage summary:

    CPU time :                                   3469.46 sec.
    Max Memory :                                 182 MB
    Average Memory :                             181.56 MB
    Total Requested Memory :                     512.00 MB
    Delta Memory :                               330.00 MB
    Max Swap :                                   -
    Max Processes :                              3
    Max Threads :                                4
    Run time :                                   3471 sec.
    Turnaround time :                            46801 sec.

The output (if any) is above this job summary.



PS:

Read file <4700.140.error> for stderr output of this job.

