Actually entered program!
Running with size: 4200, Trials: 3, OutputFile: 4200.94.eigen, Appending?: 0

------------------------------------------------------------
Sender: LSF System <lsfadmin@c36b10>
Subject: Job 7848011: <s.4200.94> in cluster <umghpcc> Done

Job <s.4200.94> was submitted from host <ghpcc06> by user <yh58b> in cluster <umghpcc> at Tue Jul 16 15:37:48 2019.
Job was executed on host(s) <c36b10>, in queue <long>, as user <yh58b> in cluster <umghpcc> at Wed Jul 17 07:01:13 2019.
</home/yh58b> was used as the home directory.
</home/yh58b/RMT/4200.singly> was used as the working directory.
Started at Wed Jul 17 07:01:13 2019.
Terminated at Wed Jul 17 07:10:31 2019.
Results reported at Wed Jul 17 07:10:31 2019.

Your job looked like:

------------------------------------------------------------
# LSBATCH: User input
./eigen.exec 4200.pf 4200.94.eigen
------------------------------------------------------------

Successfully completed.

Resource usage summary:

    CPU time :                                   556.87 sec.
    Max Memory :                                 145 MB
    Average Memory :                             145.00 MB
    Total Requested Memory :                     256.00 MB
    Delta Memory :                               111.00 MB
    Max Swap :                                   -
    Max Processes :                              3
    Max Threads :                                4
    Run time :                                   558 sec.
    Turnaround time :                            55963 sec.

The output (if any) is above this job summary.



PS:

Read file <4200.94.error> for stderr output of this job.

