Actually entered program!
Running with size: 4200, Trials: 3, OutputFile: 4200.39.eigen, Appending?: 0

------------------------------------------------------------
Sender: LSF System <lsfadmin@c36b12>
Subject: Job 7847956: <s.4200.39> in cluster <umghpcc> Done

Job <s.4200.39> was submitted from host <ghpcc06> by user <yh58b> in cluster <umghpcc> at Tue Jul 16 15:37:44 2019.
Job was executed on host(s) <c36b12>, in queue <long>, as user <yh58b> in cluster <umghpcc> at Wed Jul 17 06:48:20 2019.
</home/yh58b> was used as the home directory.
</home/yh58b/RMT/4200.singly> was used as the working directory.
Started at Wed Jul 17 06:48:20 2019.
Terminated at Wed Jul 17 06:57:31 2019.
Results reported at Wed Jul 17 06:57:31 2019.

Your job looked like:

------------------------------------------------------------
# LSBATCH: User input
./eigen.exec 4200.pf 4200.39.eigen
------------------------------------------------------------

Successfully completed.

Resource usage summary:

    CPU time :                                   549.45 sec.
    Max Memory :                                 145 MB
    Average Memory :                             145.00 MB
    Total Requested Memory :                     256.00 MB
    Delta Memory :                               111.00 MB
    Max Swap :                                   -
    Max Processes :                              3
    Max Threads :                                4
    Run time :                                   551 sec.
    Turnaround time :                            55187 sec.

The output (if any) is above this job summary.



PS:

Read file <4200.39.error> for stderr output of this job.

