Actually entered program!
Running with size: 3250, Trials: 17, OutputFile: 3250.3.eigen, Appending?: 0

------------------------------------------------------------
Sender: LSF System <lsfadmin@c40b09>
Subject: Job 7846765: <s.3250.3> in cluster <umghpcc> Done

Job <s.3250.3> was submitted from host <ghpcc06> by user <yh58b> in cluster <umghpcc> at Tue Jul 16 15:36:17 2019.
Job was executed on host(s) <c40b09>, in queue <long>, as user <yh58b> in cluster <umghpcc> at Tue Jul 16 22:10:29 2019.
</home/yh58b> was used as the home directory.
</home/yh58b/RMT/3250.singly> was used as the working directory.
Started at Tue Jul 16 22:10:29 2019.
Terminated at Tue Jul 16 22:32:41 2019.
Results reported at Tue Jul 16 22:32:41 2019.

Your job looked like:

------------------------------------------------------------
# LSBATCH: User input
./eigen.exec 3250.pf 3250.3.eigen
------------------------------------------------------------

Successfully completed.

Resource usage summary:

    CPU time :                                   1331.49 sec.
    Max Memory :                                 93 MB
    Average Memory :                             93.00 MB
    Total Requested Memory :                     256.00 MB
    Delta Memory :                               163.00 MB
    Max Swap :                                   -
    Max Processes :                              3
    Max Threads :                                4
    Run time :                                   1332 sec.
    Turnaround time :                            24984 sec.

The output (if any) is above this job summary.



PS:

Read file <3250.3.error> for stderr output of this job.

