Actually entered program!
Running with size: 2400, Trials: 29, OutputFile: 2400.5.eigen, Appending?: 0

------------------------------------------------------------
Sender: LSF System <lsfadmin@c37b09>
Subject: Job 7846288: <s.2400.5> in cluster <umghpcc> Done

Job <s.2400.5> was submitted from host <ghpcc06> by user <yh58b> in cluster <umghpcc> at Tue Jul 16 15:35:40 2019.
Job was executed on host(s) <c37b09>, in queue <long>, as user <yh58b> in cluster <umghpcc> at Tue Jul 16 17:02:21 2019.
</home/yh58b> was used as the home directory.
</home/yh58b/RMT/2400.singly> was used as the working directory.
Started at Tue Jul 16 17:02:21 2019.
Terminated at Tue Jul 16 17:17:34 2019.
Results reported at Tue Jul 16 17:17:34 2019.

Your job looked like:

------------------------------------------------------------
# LSBATCH: User input
./eigen.exec 2400.pf 2400.5.eigen
------------------------------------------------------------

Successfully completed.

Resource usage summary:

    CPU time :                                   912.14 sec.
    Max Memory :                                 55 MB
    Average Memory :                             54.86 MB
    Total Requested Memory :                     256.00 MB
    Delta Memory :                               201.00 MB
    Max Swap :                                   -
    Max Processes :                              3
    Max Threads :                                4
    Run time :                                   913 sec.
    Turnaround time :                            6114 sec.

The output (if any) is above this job summary.



PS:

Read file <2400.5.error> for stderr output of this job.

