Actually entered program!
Running with size: 2400, Trials: 29, OutputFile: 2400.28.eigen, Appending?: 0

------------------------------------------------------------
Sender: LSF System <lsfadmin@c40b02>
Subject: Job 7846311: <s.2400.28> in cluster <umghpcc> Done

Job <s.2400.28> was submitted from host <ghpcc06> by user <yh58b> in cluster <umghpcc> at Tue Jul 16 15:35:42 2019.
Job was executed on host(s) <c40b02>, in queue <long>, as user <yh58b> in cluster <umghpcc> at Tue Jul 16 17:05:11 2019.
</home/yh58b> was used as the home directory.
</home/yh58b/RMT/2400.singly> was used as the working directory.
Started at Tue Jul 16 17:05:11 2019.
Terminated at Tue Jul 16 17:20:37 2019.
Results reported at Tue Jul 16 17:20:37 2019.

Your job looked like:

------------------------------------------------------------
# LSBATCH: User input
./eigen.exec 2400.pf 2400.28.eigen
------------------------------------------------------------

Successfully completed.

Resource usage summary:

    CPU time :                                   926.24 sec.
    Max Memory :                                 55 MB
    Average Memory :                             54.82 MB
    Total Requested Memory :                     256.00 MB
    Delta Memory :                               201.00 MB
    Max Swap :                                   -
    Max Processes :                              3
    Max Threads :                                4
    Run time :                                   926 sec.
    Turnaround time :                            6295 sec.

The output (if any) is above this job summary.



PS:

Read file <2400.28.error> for stderr output of this job.

