Actually entered program!
Running with size: 3350, Trials: 16, OutputFile: 3350.31.eigen, Appending?: 0

------------------------------------------------------------
Sender: LSF System <lsfadmin@c29b05>
Subject: Job 7737954: <s.3350.31> in cluster <umghpcc> Done

Job <s.3350.31> was submitted from host <ghpcc06> by user <yh58b> in cluster <umghpcc> at Mon Jul 15 13:26:45 2019.
Job was executed on host(s) <c29b05>, in queue <short>, as user <yh58b> in cluster <umghpcc> at Mon Jul 15 14:10:15 2019.
</home/yh58b> was used as the home directory.
</home/yh58b/RMT/3350.singly> was used as the working directory.
Started at Mon Jul 15 14:10:15 2019.
Terminated at Mon Jul 15 14:42:41 2019.
Results reported at Mon Jul 15 14:42:41 2019.

Your job looked like:

------------------------------------------------------------
# LSBATCH: User input
./eigen.exec 3350.pf 3350.31.eigen
------------------------------------------------------------

Successfully completed.

Resource usage summary:

    CPU time :                                   1944.52 sec.
    Max Memory :                                 97 MB
    Average Memory :                             96.18 MB
    Total Requested Memory :                     512.00 MB
    Delta Memory :                               415.00 MB
    Max Swap :                                   -
    Max Processes :                              3
    Max Threads :                                4
    Run time :                                   1947 sec.
    Turnaround time :                            4556 sec.

The output (if any) is above this job summary.



PS:

Read file <3350.31.error> for stderr output of this job.

