Actually entered program!
Running with size: 4650, Trials: 5, OutputFile: 4650.8.eigen, Appending?: 0

------------------------------------------------------------
Sender: LSF System <lsfadmin@c17b07>
Subject: Job 7848842: <s.4650.8> in cluster <umghpcc> Done

Job <s.4650.8> was submitted from host <ghpcc06> by user <yh58b> in cluster <umghpcc> at Tue Jul 16 15:38:47 2019.
Job was executed on host(s) <c17b07>, in queue <long>, as user <yh58b> in cluster <umghpcc> at Wed Jul 17 11:44:48 2019.
</home/yh58b> was used as the home directory.
</home/yh58b/RMT/4650.singly> was used as the working directory.
Started at Wed Jul 17 11:44:48 2019.
Terminated at Wed Jul 17 12:49:37 2019.
Results reported at Wed Jul 17 12:49:37 2019.

Your job looked like:

------------------------------------------------------------
# LSBATCH: User input
./eigen.exec 4650.pf 4650.8.eigen
------------------------------------------------------------

Successfully completed.

Resource usage summary:

    CPU time :                                   3869.13 sec.
    Max Memory :                                 176 MB
    Average Memory :                             175.79 MB
    Total Requested Memory :                     256.00 MB
    Delta Memory :                               80.00 MB
    Max Swap :                                   -
    Max Processes :                              3
    Max Threads :                                4
    Run time :                                   3888 sec.
    Turnaround time :                            76250 sec.

The output (if any) is above this job summary.



PS:

Read file <4650.8.error> for stderr output of this job.

