Actually entered program!
Running with size: 4650, Trials: 5, OutputFile: 4650.72.eigen, Appending?: 0

------------------------------------------------------------
Sender: LSF System <lsfadmin@c02b07>
Subject: Job 7848906: <s.4650.72> in cluster <umghpcc> Done

Job <s.4650.72> was submitted from host <ghpcc06> by user <yh58b> in cluster <umghpcc> at Tue Jul 16 15:38:51 2019.
Job was executed on host(s) <c02b07>, in queue <long>, as user <yh58b> in cluster <umghpcc> at Wed Jul 17 12:06:28 2019.
</home/yh58b> was used as the home directory.
</home/yh58b/RMT/4650.singly> was used as the working directory.
Started at Wed Jul 17 12:06:28 2019.
Terminated at Wed Jul 17 13:05:40 2019.
Results reported at Wed Jul 17 13:05:40 2019.

Your job looked like:

------------------------------------------------------------
# LSBATCH: User input
./eigen.exec 4650.pf 4650.72.eigen
------------------------------------------------------------

Successfully completed.

Resource usage summary:

    CPU time :                                   3533.30 sec.
    Max Memory :                                 176 MB
    Average Memory :                             175.81 MB
    Total Requested Memory :                     256.00 MB
    Delta Memory :                               80.00 MB
    Max Swap :                                   -
    Max Processes :                              3
    Max Threads :                                4
    Run time :                                   3552 sec.
    Turnaround time :                            77209 sec.

The output (if any) is above this job summary.



PS:

Read file <4650.72.error> for stderr output of this job.

