Actually entered program!
Running with size: 2550, Trials: 18, OutputFile: 2550.18.eigen, Appending?: 0

------------------------------------------------------------
Sender: LSF System <lsfadmin@c01b04>
Subject: Job 7741354: <d.2550.18> in cluster <umghpcc> Done

Job <d.2550.18> was submitted from host <ghpcc06> by user <yh58b> in cluster <umghpcc> at Mon Jul 15 13:31:00 2019.
Job was executed on host(s) <c01b04>, in queue <short>, as user <yh58b> in cluster <umghpcc> at Mon Jul 15 18:02:40 2019.
</home/yh58b> was used as the home directory.
</home/yh58b/RMT/2550.doubly> was used as the working directory.
Started at Mon Jul 15 18:02:40 2019.
Terminated at Mon Jul 15 18:38:33 2019.
Results reported at Mon Jul 15 18:38:33 2019.

Your job looked like:

------------------------------------------------------------
# LSBATCH: User input
./eigen.exec 2550.pf 2550.18.eigen
------------------------------------------------------------

Successfully completed.

Resource usage summary:

    CPU time :                                   2149.87 sec.
    Max Memory :                                 62 MB
    Average Memory :                             61.05 MB
    Total Requested Memory :                     512.00 MB
    Delta Memory :                               450.00 MB
    Max Swap :                                   -
    Max Processes :                              3
    Max Threads :                                4
    Run time :                                   2153 sec.
    Turnaround time :                            18453 sec.

The output (if any) is above this job summary.



PS:

Read file <2550.18.error> for stderr output of this job.

