Actually entered program!
Running with size: 4950, Trials: 2, OutputFile: 4950.150.eigen, Appending?: 0

------------------------------------------------------------
Sender: LSF System <lsfadmin@c02b02>
Subject: Job 7746920: <d.4950.150> in cluster <umghpcc> Done

Job <d.4950.150> was submitted from host <ghpcc06> by user <yh58b> in cluster <umghpcc> at Mon Jul 15 13:37:41 2019.
Job was executed on host(s) <c02b02>, in queue <short>, as user <yh58b> in cluster <umghpcc> at Tue Jul 16 03:16:53 2019.
</home/yh58b> was used as the home directory.
</home/yh58b/RMT/4950.doubly> was used as the working directory.
Started at Tue Jul 16 03:16:53 2019.
Terminated at Tue Jul 16 04:13:17 2019.
Results reported at Tue Jul 16 04:13:17 2019.

Your job looked like:

------------------------------------------------------------
# LSBATCH: User input
./eigen.exec 4950.pf 4950.150.eigen
------------------------------------------------------------

Successfully completed.

Resource usage summary:

    CPU time :                                   3381.84 sec.
    Max Memory :                                 200 MB
    Average Memory :                             199.49 MB
    Total Requested Memory :                     512.00 MB
    Delta Memory :                               312.00 MB
    Max Swap :                                   -
    Max Processes :                              3
    Max Threads :                                4
    Run time :                                   3384 sec.
    Turnaround time :                            52536 sec.

The output (if any) is above this job summary.



PS:

Read file <4950.150.error> for stderr output of this job.

