Actually entered program!

------------------------------------------------------------
Sender: LSF System <lsfadmin@c17b06>
Subject: Job 7746800: <d.4950.30> in cluster <umghpcc> Exited

Job <d.4950.30> was submitted from host <ghpcc06> by user <yh58b> in cluster <umghpcc> at Mon Jul 15 13:37:33 2019.
Job was executed on host(s) <c17b06>, in queue <short>, as user <yh58b> in cluster <umghpcc> at Tue Jul 16 03:08:59 2019.
</home/yh58b> was used as the home directory.
</home/yh58b/RMT/4950.doubly> was used as the working directory.
Started at Tue Jul 16 03:08:59 2019.
Terminated at Tue Jul 16 04:09:05 2019.
Results reported at Tue Jul 16 04:09:05 2019.

Your job looked like:

------------------------------------------------------------
# LSBATCH: User input
./eigen.exec 4950.pf 4950.30.eigen
------------------------------------------------------------

TERM_RUNLIMIT: job killed after reaching LSF run time limit.
Exited with exit code 140.

Resource usage summary:

    CPU time :                                   2447.27 sec.
    Max Memory :                                 201 MB
    Average Memory :                             197.29 MB
    Total Requested Memory :                     512.00 MB
    Delta Memory :                               311.00 MB
    Max Swap :                                   -
    Max Processes :                              3
    Max Threads :                                4
    Run time :                                   3605 sec.
    Turnaround time :                            52292 sec.

The output (if any) is above this job summary.



PS:

Read file <4950.30.error> for stderr output of this job.

