Actually entered program!
Running with size: 4950, Trials: 2, OutputFile: 4950.127.eigen, Appending?: 0

------------------------------------------------------------
Sender: LSF System <lsfadmin@c07b01>
Subject: Job 7746897: <d.4950.127> in cluster <umghpcc> Done

Job <d.4950.127> was submitted from host <ghpcc06> by user <yh58b> in cluster <umghpcc> at Mon Jul 15 13:37:39 2019.
Job was executed on host(s) <c07b01>, in queue <short>, as user <yh58b> in cluster <umghpcc> at Tue Jul 16 03:16:01 2019.
</home/yh58b> was used as the home directory.
</home/yh58b/RMT/4950.doubly> was used as the working directory.
Started at Tue Jul 16 03:16:01 2019.
Terminated at Tue Jul 16 04:09:08 2019.
Results reported at Tue Jul 16 04:09:08 2019.

Your job looked like:

------------------------------------------------------------
# LSBATCH: User input
./eigen.exec 4950.pf 4950.127.eigen
------------------------------------------------------------

Successfully completed.

Resource usage summary:

    CPU time :                                   3186.14 sec.
    Max Memory :                                 200 MB
    Average Memory :                             199.50 MB
    Total Requested Memory :                     512.00 MB
    Delta Memory :                               312.00 MB
    Max Swap :                                   -
    Max Processes :                              3
    Max Threads :                                4
    Run time :                                   3187 sec.
    Turnaround time :                            52289 sec.

The output (if any) is above this job summary.



PS:

Read file <4950.127.error> for stderr output of this job.

