Actually entered program!
Running with size: 4050, Trials: 8, OutputFile: 4050.21.eigen, Appending?: 0

------------------------------------------------------------
Sender: LSF System <lsfadmin@c28b09>
Subject: Job 7738771: <s.4050.21> in cluster <umghpcc> Done

Job <s.4050.21> was submitted from host <ghpcc06> by user <yh58b> in cluster <umghpcc> at Mon Jul 15 13:27:45 2019.
Job was executed on host(s) <c28b09>, in queue <short>, as user <yh58b> in cluster <umghpcc> at Mon Jul 15 14:57:44 2019.
</home/yh58b> was used as the home directory.
</home/yh58b/RMT/4050.singly> was used as the working directory.
Started at Mon Jul 15 14:57:44 2019.
Terminated at Mon Jul 15 15:27:53 2019.
Results reported at Mon Jul 15 15:27:53 2019.

Your job looked like:

------------------------------------------------------------
# LSBATCH: User input
./eigen.exec 4050.pf 4050.21.eigen
------------------------------------------------------------

Successfully completed.

Resource usage summary:

    CPU time :                                   1805.26 sec.
    Max Memory :                                 139 MB
    Average Memory :                             137.08 MB
    Total Requested Memory :                     512.00 MB
    Delta Memory :                               373.00 MB
    Max Swap :                                   -
    Max Processes :                              3
    Max Threads :                                4
    Run time :                                   1809 sec.
    Turnaround time :                            7208 sec.

The output (if any) is above this job summary.



PS:

Read file <4050.21.error> for stderr output of this job.

