Actually entered program!
Running with size: 3500, Trials: 13, OutputFile: 3500.27.eigen, Appending?: 0

------------------------------------------------------------
Sender: LSF System <lsfadmin@c37b16>
Subject: Job 7846987: <s.3500.27> in cluster <umghpcc> Done

Job <s.3500.27> was submitted from host <ghpcc06> by user <yh58b> in cluster <umghpcc> at Tue Jul 16 15:36:34 2019.
Job was executed on host(s) <c37b16>, in queue <long>, as user <yh58b> in cluster <umghpcc> at Tue Jul 16 22:53:12 2019.
</home/yh58b> was used as the home directory.
</home/yh58b/RMT/3500.singly> was used as the working directory.
Started at Tue Jul 16 22:53:12 2019.
Terminated at Tue Jul 16 23:13:06 2019.
Results reported at Tue Jul 16 23:13:06 2019.

Your job looked like:

------------------------------------------------------------
# LSBATCH: User input
./eigen.exec 3500.pf 3500.27.eigen
------------------------------------------------------------

Successfully completed.

Resource usage summary:

    CPU time :                                   1192.38 sec.
    Max Memory :                                 104 MB
    Average Memory :                             102.65 MB
    Total Requested Memory :                     256.00 MB
    Delta Memory :                               152.00 MB
    Max Swap :                                   -
    Max Processes :                              3
    Max Threads :                                4
    Run time :                                   1194 sec.
    Turnaround time :                            27392 sec.

The output (if any) is above this job summary.



PS:

Read file <3500.27.error> for stderr output of this job.

