Actually entered program!
Running with size: 4450, Trials: 6, OutputFile: 4450.15.eigen, Appending?: 0

------------------------------------------------------------
Sender: LSF System <lsfadmin@c40b14>
Subject: Job 7848448: <s.4450.15> in cluster <umghpcc> Done

Job <s.4450.15> was submitted from host <ghpcc06> by user <yh58b> in cluster <umghpcc> at Tue Jul 16 15:38:19 2019.
Job was executed on host(s) <c40b14>, in queue <long>, as user <yh58b> in cluster <umghpcc> at Wed Jul 17 10:53:31 2019.
</home/yh58b> was used as the home directory.
</home/yh58b/RMT/4450.singly> was used as the working directory.
Started at Wed Jul 17 10:53:31 2019.
Terminated at Wed Jul 17 11:15:05 2019.
Results reported at Wed Jul 17 11:15:05 2019.

Your job looked like:

------------------------------------------------------------
# LSBATCH: User input
./eigen.exec 4450.pf 4450.15.eigen
------------------------------------------------------------

Successfully completed.

Resource usage summary:

    CPU time :                                   1289.55 sec.
    Max Memory :                                 163 MB
    Average Memory :                             163.00 MB
    Total Requested Memory :                     256.00 MB
    Delta Memory :                               93.00 MB
    Max Swap :                                   -
    Max Processes :                              3
    Max Threads :                                4
    Run time :                                   1293 sec.
    Turnaround time :                            70606 sec.

The output (if any) is above this job summary.



PS:

Read file <4450.15.error> for stderr output of this job.

