Actually entered program!
Running with size: 4450, Trials: 6, OutputFile: 4450.57.eigen, Appending?: 0

------------------------------------------------------------
Sender: LSF System <lsfadmin@c40b02>
Subject: Job 7848490: <s.4450.57> in cluster <umghpcc> Done

Job <s.4450.57> was submitted from host <ghpcc06> by user <yh58b> in cluster <umghpcc> at Tue Jul 16 15:38:23 2019.
Job was executed on host(s) <c40b02>, in queue <long>, as user <yh58b> in cluster <umghpcc> at Wed Jul 17 10:52:18 2019.
</home/yh58b> was used as the home directory.
</home/yh58b/RMT/4450.singly> was used as the working directory.
Started at Wed Jul 17 10:52:18 2019.
Terminated at Wed Jul 17 11:13:31 2019.
Results reported at Wed Jul 17 11:13:31 2019.

Your job looked like:

------------------------------------------------------------
# LSBATCH: User input
./eigen.exec 4450.pf 4450.57.eigen
------------------------------------------------------------

Successfully completed.

Resource usage summary:

    CPU time :                                   1272.47 sec.
    Max Memory :                                 162 MB
    Average Memory :                             161.92 MB
    Total Requested Memory :                     256.00 MB
    Delta Memory :                               94.00 MB
    Max Swap :                                   -
    Max Processes :                              3
    Max Threads :                                4
    Run time :                                   1273 sec.
    Turnaround time :                            70508 sec.

The output (if any) is above this job summary.



PS:

Read file <4450.57.error> for stderr output of this job.

