Actually entered program!
Running with size: 4900, Trials: 2, OutputFile: 4900.81.eigen, Appending?: 0

------------------------------------------------------------
Sender: LSF System <lsfadmin@c03b07>
Subject: Job 7746646: <d.4900.81> in cluster <umghpcc> Done

Job <d.4900.81> was submitted from host <ghpcc06> by user <yh58b> in cluster <umghpcc> at Mon Jul 15 13:37:21 2019.
Job was executed on host(s) <c03b07>, in queue <short>, as user <yh58b> in cluster <umghpcc> at Tue Jul 16 02:48:18 2019.
</home/yh58b> was used as the home directory.
</home/yh58b/RMT/4900.doubly> was used as the working directory.
Started at Tue Jul 16 02:48:18 2019.
Terminated at Tue Jul 16 03:33:35 2019.
Results reported at Tue Jul 16 03:33:35 2019.

Your job looked like:

------------------------------------------------------------
# LSBATCH: User input
./eigen.exec 4900.pf 4900.81.eigen
------------------------------------------------------------

Successfully completed.

Resource usage summary:

    CPU time :                                   2714.57 sec.
    Max Memory :                                 194 MB
    Average Memory :                             194.00 MB
    Total Requested Memory :                     512.00 MB
    Delta Memory :                               318.00 MB
    Max Swap :                                   -
    Max Processes :                              3
    Max Threads :                                4
    Run time :                                   2715 sec.
    Turnaround time :                            50174 sec.

The output (if any) is above this job summary.



PS:

Read file <4900.81.error> for stderr output of this job.

