Actually entered program!
Running with size: 4900, Trials: 2, OutputFile: 4900.165.eigen, Appending?: 0

------------------------------------------------------------
Sender: LSF System <lsfadmin@c07b02>
Subject: Job 7746730: <d.4900.165> in cluster <umghpcc> Done

Job <d.4900.165> was submitted from host <ghpcc06> by user <yh58b> in cluster <umghpcc> at Mon Jul 15 13:37:28 2019.
Job was executed on host(s) <c07b02>, in queue <short>, as user <yh58b> in cluster <umghpcc> at Tue Jul 16 03:00:30 2019.
</home/yh58b> was used as the home directory.
</home/yh58b/RMT/4900.doubly> was used as the working directory.
Started at Tue Jul 16 03:00:30 2019.
Terminated at Tue Jul 16 03:53:33 2019.
Results reported at Tue Jul 16 03:53:33 2019.

Your job looked like:

------------------------------------------------------------
# LSBATCH: User input
./eigen.exec 4900.pf 4900.165.eigen
------------------------------------------------------------

Successfully completed.

Resource usage summary:

    CPU time :                                   3180.83 sec.
    Max Memory :                                 194 MB
    Average Memory :                             194.00 MB
    Total Requested Memory :                     512.00 MB
    Delta Memory :                               318.00 MB
    Max Swap :                                   -
    Max Processes :                              3
    Max Threads :                                4
    Run time :                                   3182 sec.
    Turnaround time :                            51365 sec.

The output (if any) is above this job summary.



PS:

Read file <4900.165.error> for stderr output of this job.

