Actually entered program!

------------------------------------------------------------
Sender: LSF System <lsfadmin@c06b07>
Subject: Job 7744014: <d.4050.24> in cluster <umghpcc> Exited

Job <d.4050.24> was submitted from host <ghpcc06> by user <yh58b> in cluster <umghpcc> at Mon Jul 15 13:34:12 2019.
Job was executed on host(s) <c06b07>, in queue <short>, as user <yh58b> in cluster <umghpcc> at Mon Jul 15 22:16:59 2019.
</home/yh58b> was used as the home directory.
</home/yh58b/RMT/4050.doubly> was used as the working directory.
Started at Mon Jul 15 22:16:59 2019.
Terminated at Mon Jul 15 23:17:14 2019.
Results reported at Mon Jul 15 23:17:14 2019.

Your job looked like:

------------------------------------------------------------
# LSBATCH: User input
./eigen.exec 4050.pf 4050.24.eigen
------------------------------------------------------------

TERM_RUNLIMIT: job killed after reaching LSF run time limit.
Exited with exit code 140.

Resource usage summary:

    CPU time :                                   2659.40 sec.
    Max Memory :                                 137 MB
    Average Memory :                             136.14 MB
    Total Requested Memory :                     512.00 MB
    Delta Memory :                               375.00 MB
    Max Swap :                                   -
    Max Processes :                              3
    Max Threads :                                4
    Run time :                                   3615 sec.
    Turnaround time :                            34982 sec.

The output (if any) is above this job summary.



PS:

Read file <4050.24.error> for stderr output of this job.

