Actually entered program!

------------------------------------------------------------
Sender: LSF System <lsfadmin@c03b04>
Subject: Job 7745160: <d.4450.101> in cluster <umghpcc> Exited

Job <d.4450.101> was submitted from host <ghpcc06> by user <yh58b> in cluster <umghpcc> at Mon Jul 15 13:35:34 2019.
Job was executed on host(s) <c03b04>, in queue <short>, as user <yh58b> in cluster <umghpcc> at Tue Jul 16 00:11:28 2019.
</home/yh58b> was used as the home directory.
</home/yh58b/RMT/4450.doubly> was used as the working directory.
Started at Tue Jul 16 00:11:28 2019.
Terminated at Tue Jul 16 01:11:42 2019.
Results reported at Tue Jul 16 01:11:42 2019.

Your job looked like:

------------------------------------------------------------
# LSBATCH: User input
./eigen.exec 4450.pf 4450.101.eigen
------------------------------------------------------------

TERM_RUNLIMIT: job killed after reaching LSF run time limit.
Exited with exit code 140.

Resource usage summary:

    CPU time :                                   3612.14 sec.
    Max Memory :                                 166 MB
    Average Memory :                             165.00 MB
    Total Requested Memory :                     512.00 MB
    Delta Memory :                               346.00 MB
    Max Swap :                                   -
    Max Processes :                              3
    Max Threads :                                4
    Run time :                                   3614 sec.
    Turnaround time :                            41768 sec.

The output (if any) is above this job summary.



PS:

Read file <4450.101.error> for stderr output of this job.

