Actually entered program!

------------------------------------------------------------
Sender: LSF System <lsfadmin@c07b08>
Subject: Job 7745081: <d.4450.22> in cluster <umghpcc> Exited

Job <d.4450.22> was submitted from host <ghpcc06> by user <yh58b> in cluster <umghpcc> at Mon Jul 15 13:35:28 2019.
Job was executed on host(s) <c07b08>, in queue <short>, as user <yh58b> in cluster <umghpcc> at Tue Jul 16 00:06:38 2019.
</home/yh58b> was used as the home directory.
</home/yh58b/RMT/4450.doubly> was used as the working directory.
Started at Tue Jul 16 00:06:38 2019.
Terminated at Tue Jul 16 01:06:42 2019.
Results reported at Tue Jul 16 01:06:42 2019.

Your job looked like:

------------------------------------------------------------
# LSBATCH: User input
./eigen.exec 4450.pf 4450.22.eigen
------------------------------------------------------------

TERM_RUNLIMIT: job killed after reaching LSF run time limit.
Exited with exit code 140.

Resource usage summary:

    CPU time :                                   3602.29 sec.
    Max Memory :                                 164 MB
    Average Memory :                             163.63 MB
    Total Requested Memory :                     512.00 MB
    Delta Memory :                               348.00 MB
    Max Swap :                                   -
    Max Processes :                              3
    Max Threads :                                4
    Run time :                                   3603 sec.
    Turnaround time :                            41474 sec.

The output (if any) is above this job summary.



PS:

Read file <4450.22.error> for stderr output of this job.

