Actually entered program!

------------------------------------------------------------
Sender: LSF System <lsfadmin@c07b08>
Subject: Job 7745185: <d.4450.126> in cluster <umghpcc> Exited

Job <d.4450.126> was submitted from host <ghpcc06> by user <yh58b> in cluster <umghpcc> at Mon Jul 15 13:35:36 2019.
Job was executed on host(s) <c07b08>, in queue <short>, as user <yh58b> in cluster <umghpcc> at Tue Jul 16 00:17:52 2019.
</home/yh58b> was used as the home directory.
</home/yh58b/RMT/4450.doubly> was used as the working directory.
Started at Tue Jul 16 00:17:52 2019.
Terminated at Tue Jul 16 01:18:08 2019.
Results reported at Tue Jul 16 01:18:08 2019.

Your job looked like:

------------------------------------------------------------
# LSBATCH: User input
./eigen.exec 4450.pf 4450.126.eigen
------------------------------------------------------------

TERM_RUNLIMIT: job killed after reaching LSF run time limit.
Exited with exit code 140.

Resource usage summary:

    CPU time :                                   3614.26 sec.
    Max Memory :                                 162 MB
    Average Memory :                             162.00 MB
    Total Requested Memory :                     512.00 MB
    Delta Memory :                               350.00 MB
    Max Swap :                                   -
    Max Processes :                              3
    Max Threads :                                4
    Run time :                                   3615 sec.
    Turnaround time :                            42152 sec.

The output (if any) is above this job summary.



PS:

Read file <4450.126.error> for stderr output of this job.

