Actually entered program!
Running with size: 4450, Trials: 3, OutputFile: 4450.74.eigen, Appending?: 0

------------------------------------------------------------
Sender: LSF System <lsfadmin@c06b08>
Subject: Job 7745133: <d.4450.74> in cluster <umghpcc> Done

Job <d.4450.74> was submitted from host <ghpcc06> by user <yh58b> in cluster <umghpcc> at Mon Jul 15 13:35:32 2019.
Job was executed on host(s) <c06b08>, in queue <short>, as user <yh58b> in cluster <umghpcc> at Tue Jul 16 00:07:58 2019.
</home/yh58b> was used as the home directory.
</home/yh58b/RMT/4450.doubly> was used as the working directory.
Started at Tue Jul 16 00:07:58 2019.
Terminated at Tue Jul 16 01:07:09 2019.
Results reported at Tue Jul 16 01:07:09 2019.

Your job looked like:

------------------------------------------------------------
# LSBATCH: User input
./eigen.exec 4450.pf 4450.74.eigen
------------------------------------------------------------

Successfully completed.

Resource usage summary:

    CPU time :                                   3549.85 sec.
    Max Memory :                                 162 MB
    Average Memory :                             161.79 MB
    Total Requested Memory :                     512.00 MB
    Delta Memory :                               350.00 MB
    Max Swap :                                   -
    Max Processes :                              3
    Max Threads :                                4
    Run time :                                   3550 sec.
    Turnaround time :                            41497 sec.

The output (if any) is above this job summary.



PS:

Read file <4450.74.error> for stderr output of this job.

