Actually entered program!
Running with size: 3650, Trials: 11, OutputFile: 3650.18.eigen, Appending?: 0

------------------------------------------------------------
Sender: LSF System <lsfadmin@c37b09>
Subject: Job 7847112: <s.3650.18> in cluster <umghpcc> Done

Job <s.3650.18> was submitted from host <ghpcc06> by user <yh58b> in cluster <umghpcc> at Tue Jul 16 15:36:43 2019.
Job was executed on host(s) <c37b09>, in queue <long>, as user <yh58b> in cluster <umghpcc> at Tue Jul 16 23:24:27 2019.
</home/yh58b> was used as the home directory.
</home/yh58b/RMT/3650.singly> was used as the working directory.
Started at Tue Jul 16 23:24:27 2019.
Terminated at Tue Jul 16 23:45:11 2019.
Results reported at Tue Jul 16 23:45:11 2019.

Your job looked like:

------------------------------------------------------------
# LSBATCH: User input
./eigen.exec 3650.pf 3650.18.eigen
------------------------------------------------------------

Successfully completed.

Resource usage summary:

    CPU time :                                   1242.62 sec.
    Max Memory :                                 112 MB
    Average Memory :                             112.00 MB
    Total Requested Memory :                     256.00 MB
    Delta Memory :                               144.00 MB
    Max Swap :                                   -
    Max Processes :                              3
    Max Threads :                                4
    Run time :                                   1243 sec.
    Turnaround time :                            29308 sec.

The output (if any) is above this job summary.



PS:

Read file <3650.18.error> for stderr output of this job.

