Actually entered program!
Running with size: 4350, Trials: 7, OutputFile: 4350.19.eigen, Appending?: 0

------------------------------------------------------------
Sender: LSF System <lsfadmin@c36b03>
Subject: Job 7848320: <s.4350.19> in cluster <umghpcc> Done

Job <s.4350.19> was submitted from host <ghpcc06> by user <yh58b> in cluster <umghpcc> at Tue Jul 16 15:38:10 2019.
Job was executed on host(s) <c36b03>, in queue <long>, as user <yh58b> in cluster <umghpcc> at Wed Jul 17 08:29:12 2019.
</home/yh58b> was used as the home directory.
</home/yh58b/RMT/4350.singly> was used as the working directory.
Started at Wed Jul 17 08:29:12 2019.
Terminated at Wed Jul 17 08:51:31 2019.
Results reported at Wed Jul 17 08:51:31 2019.

Your job looked like:

------------------------------------------------------------
# LSBATCH: User input
./eigen.exec 4350.pf 4350.19.eigen
------------------------------------------------------------

Successfully completed.

Resource usage summary:

    CPU time :                                   1337.10 sec.
    Max Memory :                                 155 MB
    Average Memory :                             155.00 MB
    Total Requested Memory :                     256.00 MB
    Delta Memory :                               101.00 MB
    Max Swap :                                   -
    Max Processes :                              3
    Max Threads :                                4
    Run time :                                   1339 sec.
    Turnaround time :                            62001 sec.

The output (if any) is above this job summary.



PS:

Read file <4350.19.error> for stderr output of this job.

