Actually entered program!
Running with size: 1750, Trials: 98, OutputFile: 1750.8.eigen, Appending?: 0

------------------------------------------------------------
Sender: LSF System <lsfadmin@c40b13>
Subject: Job 7846081: <s.1750.8> in cluster <umghpcc> Done

Job <s.1750.8> was submitted from host <ghpcc06> by user <yh58b> in cluster <umghpcc> at Tue Jul 16 15:35:24 2019.
Job was executed on host(s) <c40b13>, in queue <long>, as user <yh58b> in cluster <umghpcc> at Tue Jul 16 16:23:12 2019.
</home/yh58b> was used as the home directory.
</home/yh58b/RMT/1750.singly> was used as the working directory.
Started at Tue Jul 16 16:23:12 2019.
Terminated at Tue Jul 16 16:44:05 2019.
Results reported at Tue Jul 16 16:44:05 2019.

Your job looked like:

------------------------------------------------------------
# LSBATCH: User input
./eigen.exec 1750.pf 1750.8.eigen
------------------------------------------------------------

Successfully completed.

Resource usage summary:

    CPU time :                                   1252.58 sec.
    Max Memory :                                 36 MB
    Average Memory :                             35.97 MB
    Total Requested Memory :                     256.00 MB
    Delta Memory :                               220.00 MB
    Max Swap :                                   -
    Max Processes :                              3
    Max Threads :                                4
    Run time :                                   1252 sec.
    Turnaround time :                            4121 sec.

The output (if any) is above this job summary.



PS:

Read file <1750.8.error> for stderr output of this job.

