Actually entered program!
Running with size: 3000, Trials: 22, OutputFile: 3000.21.eigen, Appending?: 0

------------------------------------------------------------
Sender: LSF System <lsfadmin@c29b06>
Subject: Job 7737695: <s.3000.21> in cluster <umghpcc> Done

Job <s.3000.21> was submitted from host <ghpcc06> by user <yh58b> in cluster <umghpcc> at Mon Jul 15 13:26:26 2019.
Job was executed on host(s) <c29b06>, in queue <short>, as user <yh58b> in cluster <umghpcc> at Mon Jul 15 13:49:08 2019.
</home/yh58b> was used as the home directory.
</home/yh58b/RMT/3000.singly> was used as the working directory.
Started at Mon Jul 15 13:49:08 2019.
Terminated at Mon Jul 15 14:20:22 2019.
Results reported at Mon Jul 15 14:20:22 2019.

Your job looked like:

------------------------------------------------------------
# LSBATCH: User input
./eigen.exec 3000.pf 3000.21.eigen
------------------------------------------------------------

Successfully completed.

Resource usage summary:

    CPU time :                                   1870.45 sec.
    Max Memory :                                 83 MB
    Average Memory :                             81.63 MB
    Total Requested Memory :                     512.00 MB
    Delta Memory :                               429.00 MB
    Max Swap :                                   -
    Max Processes :                              3
    Max Threads :                                4
    Run time :                                   1874 sec.
    Turnaround time :                            3236 sec.

The output (if any) is above this job summary.



PS:

Read file <3000.21.error> for stderr output of this job.

