Actually entered program!
Running with size: 3750, Trials: 6, OutputFile: 3750.54.eigen, Appending?: 0

------------------------------------------------------------
Sender: LSF System <lsfadmin@c36b11>
Subject: Job 7847254: <s.3750.54> in cluster <umghpcc> Done

Job <s.3750.54> was submitted from host <ghpcc06> by user <yh58b> in cluster <umghpcc> at Tue Jul 16 15:36:53 2019.
Job was executed on host(s) <c36b11>, in queue <long>, as user <yh58b> in cluster <umghpcc> at Wed Jul 17 02:52:04 2019.
</home/yh58b> was used as the home directory.
</home/yh58b/RMT/3750.singly> was used as the working directory.
Started at Wed Jul 17 02:52:04 2019.
Terminated at Wed Jul 17 03:04:14 2019.
Results reported at Wed Jul 17 03:04:14 2019.

Your job looked like:

------------------------------------------------------------
# LSBATCH: User input
./eigen.exec 3750.pf 3750.54.eigen
------------------------------------------------------------

Successfully completed.

Resource usage summary:

    CPU time :                                   728.58 sec.
    Max Memory :                                 118 MB
    Average Memory :                             118.00 MB
    Total Requested Memory :                     256.00 MB
    Delta Memory :                               138.00 MB
    Max Swap :                                   -
    Max Processes :                              3
    Max Threads :                                4
    Run time :                                   729 sec.
    Turnaround time :                            41241 sec.

The output (if any) is above this job summary.



PS:

Read file <3750.54.error> for stderr output of this job.

