Actually entered program!

------------------------------------------------------------
Sender: LSF System <lsfadmin@c17b01>
Subject: Job 7741233: <d.2400.14> in cluster <umghpcc> Exited

Job <d.2400.14> was submitted from host <ghpcc06> by user <yh58b> in cluster <umghpcc> at Mon Jul 15 13:30:51 2019.
Job was executed on host(s) <c17b01>, in queue <short>, as user <yh58b> in cluster <umghpcc> at Mon Jul 15 17:43:57 2019.
</home/yh58b> was used as the home directory.
</home/yh58b/RMT/2400.doubly> was used as the working directory.
Started at Mon Jul 15 17:43:57 2019.
Terminated at Mon Jul 15 18:44:01 2019.
Results reported at Mon Jul 15 18:44:01 2019.

Your job looked like:

------------------------------------------------------------
# LSBATCH: User input
./eigen.exec 2400.pf 2400.14.eigen
------------------------------------------------------------

TERM_RUNLIMIT: job killed after reaching LSF run time limit.
Exited with exit code 140.

Resource usage summary:

    CPU time :                                   2436.41 sec.
    Max Memory :                                 57 MB
    Average Memory :                             56.84 MB
    Total Requested Memory :                     512.00 MB
    Delta Memory :                               455.00 MB
    Max Swap :                                   -
    Max Processes :                              3
    Max Threads :                                4
    Run time :                                   3604 sec.
    Turnaround time :                            18790 sec.

The output (if any) is above this job summary.



PS:

Read file <2400.14.error> for stderr output of this job.

