Actually entered program!
Running with size: 4600, Trials: 5, OutputFile: 4600.20.eigen, Appending?: 0

------------------------------------------------------------
Sender: LSF System <lsfadmin@c02b04>
Subject: Job 7848766: <s.4600.20> in cluster <umghpcc> Done

Job <s.4600.20> was submitted from host <ghpcc06> by user <yh58b> in cluster <umghpcc> at Tue Jul 16 15:38:42 2019.
Job was executed on host(s) <c02b04>, in queue <long>, as user <yh58b> in cluster <umghpcc> at Wed Jul 17 11:26:08 2019.
</home/yh58b> was used as the home directory.
</home/yh58b/RMT/4600.singly> was used as the working directory.
Started at Wed Jul 17 11:26:08 2019.
Terminated at Wed Jul 17 12:24:44 2019.
Results reported at Wed Jul 17 12:24:44 2019.

Your job looked like:

------------------------------------------------------------
# LSBATCH: User input
./eigen.exec 4600.pf 4600.20.eigen
------------------------------------------------------------

Successfully completed.

Resource usage summary:

    CPU time :                                   3514.57 sec.
    Max Memory :                                 173 MB
    Average Memory :                             172.49 MB
    Total Requested Memory :                     256.00 MB
    Delta Memory :                               83.00 MB
    Max Swap :                                   -
    Max Processes :                              3
    Max Threads :                                4
    Run time :                                   3516 sec.
    Turnaround time :                            74762 sec.

The output (if any) is above this job summary.



PS:

Read file <4600.20.error> for stderr output of this job.

