Actually entered program!
Running with size: 4600, Trials: 5, OutputFile: 4600.14.eigen, Appending?: 0

------------------------------------------------------------
Sender: LSF System <lsfadmin@c36b04>
Subject: Job 7848760: <s.4600.14> in cluster <umghpcc> Done

Job <s.4600.14> was submitted from host <ghpcc06> by user <yh58b> in cluster <umghpcc> at Tue Jul 16 15:38:41 2019.
Job was executed on host(s) <c36b04>, in queue <long>, as user <yh58b> in cluster <umghpcc> at Wed Jul 17 11:25:30 2019.
</home/yh58b> was used as the home directory.
</home/yh58b/RMT/4600.singly> was used as the working directory.
Started at Wed Jul 17 11:25:30 2019.
Terminated at Wed Jul 17 11:47:12 2019.
Results reported at Wed Jul 17 11:47:12 2019.

Your job looked like:

------------------------------------------------------------
# LSBATCH: User input
./eigen.exec 4600.pf 4600.14.eigen
------------------------------------------------------------

Successfully completed.

Resource usage summary:

    CPU time :                                   1300.22 sec.
    Max Memory :                                 172 MB
    Average Memory :                             171.23 MB
    Total Requested Memory :                     256.00 MB
    Delta Memory :                               84.00 MB
    Max Swap :                                   -
    Max Processes :                              3
    Max Threads :                                4
    Run time :                                   1302 sec.
    Turnaround time :                            72511 sec.

The output (if any) is above this job summary.



PS:

Read file <4600.14.error> for stderr output of this job.

