Actually entered program!
Running with size: 4600, Trials: 5, OutputFile: 4600.39.eigen, Appending?: 0

------------------------------------------------------------
Sender: LSF System <lsfadmin@c31b02>
Subject: Job 7848785: <s.4600.39> in cluster <umghpcc> Done

Job <s.4600.39> was submitted from host <ghpcc06> by user <yh58b> in cluster <umghpcc> at Tue Jul 16 15:38:43 2019.
Job was executed on host(s) <c31b02>, in queue <long>, as user <yh58b> in cluster <umghpcc> at Wed Jul 17 11:34:38 2019.
</home/yh58b> was used as the home directory.
</home/yh58b/RMT/4600.singly> was used as the working directory.
Started at Wed Jul 17 11:34:38 2019.
Terminated at Wed Jul 17 12:30:46 2019.
Results reported at Wed Jul 17 12:30:46 2019.

Your job looked like:

------------------------------------------------------------
# LSBATCH: User input
./eigen.exec 4600.pf 4600.39.eigen
------------------------------------------------------------

Successfully completed.

Resource usage summary:

    CPU time :                                   3366.66 sec.
    Max Memory :                                 172 MB
    Average Memory :                             172.00 MB
    Total Requested Memory :                     256.00 MB
    Delta Memory :                               84.00 MB
    Max Swap :                                   -
    Max Processes :                              3
    Max Threads :                                4
    Run time :                                   3369 sec.
    Turnaround time :                            75123 sec.

The output (if any) is above this job summary.



PS:

Read file <4600.39.error> for stderr output of this job.

