Actually entered program!
Running with size: 3700, Trials: 4, OutputFile: 3700.81.eigen, Appending?: 0

------------------------------------------------------------
Sender: LSF System <lsfadmin@c19b04>
Subject: Job 7743193: <d.3700.81> in cluster <umghpcc> Done

Job <d.3700.81> was submitted from host <ghpcc06> by user <yh58b> in cluster <umghpcc> at Mon Jul 15 13:33:13 2019.
Job was executed on host(s) <c19b04>, in queue <short>, as user <yh58b> in cluster <umghpcc> at Mon Jul 15 21:04:10 2019.
</home/yh58b> was used as the home directory.
</home/yh58b/RMT/3700.doubly> was used as the working directory.
Started at Mon Jul 15 21:04:10 2019.
Terminated at Mon Jul 15 21:43:35 2019.
Results reported at Mon Jul 15 21:43:35 2019.

Your job looked like:

------------------------------------------------------------
# LSBATCH: User input
./eigen.exec 3700.pf 3700.81.eigen
------------------------------------------------------------

Successfully completed.

Resource usage summary:

    CPU time :                                   2360.52 sec.
    Max Memory :                                 115 MB
    Average Memory :                             115.00 MB
    Total Requested Memory :                     512.00 MB
    Delta Memory :                               397.00 MB
    Max Swap :                                   -
    Max Processes :                              3
    Max Threads :                                4
    Run time :                                   2364 sec.
    Turnaround time :                            29422 sec.

The output (if any) is above this job summary.



PS:

Read file <3700.81.error> for stderr output of this job.

