Actually entered program!
Running with size: 3700, Trials: 4, OutputFile: 3700.135.eigen, Appending?: 0

------------------------------------------------------------
Sender: LSF System <lsfadmin@c01b16>
Subject: Job 7743247: <d.3700.135> in cluster <umghpcc> Done

Job <d.3700.135> was submitted from host <ghpcc06> by user <yh58b> in cluster <umghpcc> at Mon Jul 15 13:33:17 2019.
Job was executed on host(s) <c01b16>, in queue <short>, as user <yh58b> in cluster <umghpcc> at Mon Jul 15 21:09:31 2019.
</home/yh58b> was used as the home directory.
</home/yh58b/RMT/3700.doubly> was used as the working directory.
Started at Mon Jul 15 21:09:31 2019.
Terminated at Mon Jul 15 21:36:50 2019.
Results reported at Mon Jul 15 21:36:50 2019.

Your job looked like:

------------------------------------------------------------
# LSBATCH: User input
./eigen.exec 3700.pf 3700.135.eigen
------------------------------------------------------------

Successfully completed.

Resource usage summary:

    CPU time :                                   1638.19 sec.
    Max Memory :                                 117 MB
    Average Memory :                             116.78 MB
    Total Requested Memory :                     512.00 MB
    Delta Memory :                               395.00 MB
    Max Swap :                                   -
    Max Processes :                              3
    Max Threads :                                4
    Run time :                                   1639 sec.
    Turnaround time :                            29013 sec.

The output (if any) is above this job summary.



PS:

Read file <3700.135.error> for stderr output of this job.

