Actually entered program!
Running with size: 3700, Trials: 4, OutputFile: 3700.48.eigen, Appending?: 0

------------------------------------------------------------
Sender: LSF System <lsfadmin@c01b08>
Subject: Job 7743160: <d.3700.48> in cluster <umghpcc> Done

Job <d.3700.48> was submitted from host <ghpcc06> by user <yh58b> in cluster <umghpcc> at Mon Jul 15 13:33:11 2019.
Job was executed on host(s) <c01b08>, in queue <short>, as user <yh58b> in cluster <umghpcc> at Mon Jul 15 21:01:52 2019.
</home/yh58b> was used as the home directory.
</home/yh58b/RMT/3700.doubly> was used as the working directory.
Started at Mon Jul 15 21:01:52 2019.
Terminated at Mon Jul 15 21:27:58 2019.
Results reported at Mon Jul 15 21:27:58 2019.

Your job looked like:

------------------------------------------------------------
# LSBATCH: User input
./eigen.exec 3700.pf 3700.48.eigen
------------------------------------------------------------

Successfully completed.

Resource usage summary:

    CPU time :                                   1565.13 sec.
    Max Memory :                                 118 MB
    Average Memory :                             117.07 MB
    Total Requested Memory :                     512.00 MB
    Delta Memory :                               394.00 MB
    Max Swap :                                   -
    Max Processes :                              3
    Max Threads :                                4
    Run time :                                   1566 sec.
    Turnaround time :                            28487 sec.

The output (if any) is above this job summary.



PS:

Read file <3700.48.error> for stderr output of this job.

