Actually entered program!

------------------------------------------------------------
Sender: LSF System <lsfadmin@c03b06>
Subject: Job 7740391: <s.4900.25> in cluster <umghpcc> Exited

Job <s.4900.25> was submitted from host <ghpcc06> by user <yh58b> in cluster <umghpcc> at Mon Jul 15 13:29:47 2019.
Job was executed on host(s) <c03b06>, in queue <short>, as user <yh58b> in cluster <umghpcc> at Mon Jul 15 16:36:21 2019.
</home/yh58b> was used as the home directory.
</home/yh58b/RMT/4900.singly> was used as the working directory.
Started at Mon Jul 15 16:36:21 2019.
Terminated at Mon Jul 15 17:36:25 2019.
Results reported at Mon Jul 15 17:36:25 2019.

Your job looked like:

------------------------------------------------------------
# LSBATCH: User input
./eigen.exec 4900.pf 4900.25.eigen
------------------------------------------------------------

TERM_RUNLIMIT: job killed after reaching LSF run time limit.
Exited with exit code 140.

Resource usage summary:

    CPU time :                                   2679.00 sec.
    Max Memory :                                 194 MB
    Average Memory :                             194.00 MB
    Total Requested Memory :                     512.00 MB
    Delta Memory :                               318.00 MB
    Max Swap :                                   -
    Max Processes :                              3
    Max Threads :                                4
    Run time :                                   3604 sec.
    Turnaround time :                            14798 sec.

The output (if any) is above this job summary.



PS:

Read file <4900.25.error> for stderr output of this job.

