Actually entered program!
Running with size: 4900, Trials: 4, OutputFile: 4900.59.eigen, Appending?: 0

------------------------------------------------------------
Sender: LSF System <lsfadmin@c23b05>
Subject: Job 7740425: <s.4900.59> in cluster <umghpcc> Done

Job <s.4900.59> was submitted from host <ghpcc06> by user <yh58b> in cluster <umghpcc> at Mon Jul 15 13:29:49 2019.
Job was executed on host(s) <c23b05>, in queue <short>, as user <yh58b> in cluster <umghpcc> at Mon Jul 15 16:39:22 2019.
</home/yh58b> was used as the home directory.
</home/yh58b/RMT/4900.singly> was used as the working directory.
Started at Mon Jul 15 16:39:22 2019.
Terminated at Mon Jul 15 17:29:44 2019.
Results reported at Mon Jul 15 17:29:44 2019.

Your job looked like:

------------------------------------------------------------
# LSBATCH: User input
./eigen.exec 4900.pf 4900.59.eigen
------------------------------------------------------------

Successfully completed.

Resource usage summary:

    CPU time :                                   3020.59 sec.
    Max Memory :                                 194 MB
    Average Memory :                             194.00 MB
    Total Requested Memory :                     512.00 MB
    Delta Memory :                               318.00 MB
    Max Swap :                                   -
    Max Processes :                              3
    Max Threads :                                4
    Run time :                                   3022 sec.
    Turnaround time :                            14395 sec.

The output (if any) is above this job summary.



PS:

Read file <4900.59.error> for stderr output of this job.

