Actually entered program!
Running with size: 2950, Trials: 23, OutputFile: 2950.18.eigen, Appending?: 0

------------------------------------------------------------
Sender: LSF System <lsfadmin@c06b01>
Subject: Job 7846576: <s.2950.18> in cluster <umghpcc> Done

Job <s.2950.18> was submitted from host <ghpcc06> by user <yh58b> in cluster <umghpcc> at Tue Jul 16 15:36:02 2019.
Job was executed on host(s) <c06b01>, in queue <long>, as user <yh58b> in cluster <umghpcc> at Tue Jul 16 20:59:52 2019.
</home/yh58b> was used as the home directory.
</home/yh58b/RMT/2950.singly> was used as the working directory.
Started at Tue Jul 16 20:59:52 2019.
Terminated at Tue Jul 16 22:02:37 2019.
Results reported at Tue Jul 16 22:02:37 2019.

Your job looked like:

------------------------------------------------------------
# LSBATCH: User input
./eigen.exec 2950.pf 2950.18.eigen
------------------------------------------------------------

Successfully completed.

Resource usage summary:

    CPU time :                                   3763.26 sec.
    Max Memory :                                 77 MB
    Average Memory :                             77.00 MB
    Total Requested Memory :                     256.00 MB
    Delta Memory :                               179.00 MB
    Max Swap :                                   -
    Max Processes :                              3
    Max Threads :                                4
    Run time :                                   3765 sec.
    Turnaround time :                            23195 sec.

The output (if any) is above this job summary.



PS:

Read file <2950.18.error> for stderr output of this job.

