
------------------------------------------------------------
Sender: LSF System <lsfadmin@c24b16>
Subject: Job 9305637: <3000> in cluster <umghpcc> Done

Job <3000> was submitted from host <ghpcc06> by user <yh58b> in cluster <umghpcc> at Tue Oct  1 12:25:27 2019.
Job was executed on host(s) <c24b16>, in queue <short>, as user <yh58b> in cluster <umghpcc> at Tue Oct  1 12:25:42 2019.
</home/yh58b> was used as the home directory.
</home/yh58b/SinglyAndDoublySpectrums/doubly> was used as the working directory.
Started at Tue Oct  1 12:25:42 2019.
Terminated at Tue Oct  1 12:38:04 2019.
Results reported at Tue Oct  1 12:38:04 2019.

Your job looked like:

------------------------------------------------------------
# LSBATCH: User input
python3 doublycycle.py 3000 7 3000.d.17.eigen
------------------------------------------------------------

Successfully completed.

Resource usage summary:

    CPU time :                                   736.47 sec.
    Max Memory :                                 168 MB
    Average Memory :                             166.42 MB
    Total Requested Memory :                     2048.00 MB
    Delta Memory :                               1880.00 MB
    Max Swap :                                   -
    Max Processes :                              3
    Max Threads :                                4
    Run time :                                   744 sec.
    Turnaround time :                            757 sec.

The output (if any) is above this job summary.



PS:

Read file <3000.17.g.error> for stderr output of this job.

