Actually entered program!
Running with size: 3350, Trials: 16, OutputFile: 3350.10.eigen, Appending?: 0

------------------------------------------------------------
Sender: LSF System <lsfadmin@c40b02>
Subject: Job 7846847: <s.3350.10> in cluster <umghpcc> Done

Job <s.3350.10> was submitted from host <ghpcc06> by user <yh58b> in cluster <umghpcc> at Tue Jul 16 15:36:23 2019.
Job was executed on host(s) <c40b02>, in queue <long>, as user <yh58b> in cluster <umghpcc> at Tue Jul 16 22:23:04 2019.
</home/yh58b> was used as the home directory.
</home/yh58b/RMT/3350.singly> was used as the working directory.
Started at Tue Jul 16 22:23:04 2019.
Terminated at Tue Jul 16 22:46:34 2019.
Results reported at Tue Jul 16 22:46:34 2019.

Your job looked like:

------------------------------------------------------------
# LSBATCH: User input
./eigen.exec 3350.pf 3350.10.eigen
------------------------------------------------------------

Successfully completed.

Resource usage summary:

    CPU time :                                   1411.22 sec.
    Max Memory :                                 97 MB
    Average Memory :                             95.07 MB
    Total Requested Memory :                     256.00 MB
    Delta Memory :                               159.00 MB
    Max Swap :                                   -
    Max Processes :                              3
    Max Threads :                                4
    Run time :                                   1410 sec.
    Turnaround time :                            25811 sec.

The output (if any) is above this job summary.



PS:

Read file <3350.10.error> for stderr output of this job.

