Actually entered program!
Running with size: 3850, Trials: 7, OutputFile: 3850.30.eigen, Appending?: 0

------------------------------------------------------------
Sender: LSF System <lsfadmin@c36b13>
Subject: Job 7738511: <s.3850.30> in cluster <umghpcc> Done

Job <s.3850.30> was submitted from host <ghpcc06> by user <yh58b> in cluster <umghpcc> at Mon Jul 15 13:27:26 2019.
Job was executed on host(s) <c36b13>, in queue <short>, as user <yh58b> in cluster <umghpcc> at Mon Jul 15 14:45:27 2019.
</home/yh58b> was used as the home directory.
</home/yh58b/RMT/3850.singly> was used as the working directory.
Started at Mon Jul 15 14:45:27 2019.
Terminated at Mon Jul 15 15:04:04 2019.
Results reported at Mon Jul 15 15:04:04 2019.

Your job looked like:

------------------------------------------------------------
# LSBATCH: User input
./eigen.exec 3850.pf 3850.30.eigen
------------------------------------------------------------

Successfully completed.

Resource usage summary:

    CPU time :                                   950.58 sec.
    Max Memory :                                 126 MB
    Average Memory :                             123.42 MB
    Total Requested Memory :                     512.00 MB
    Delta Memory :                               386.00 MB
    Max Swap :                                   -
    Max Processes :                              3
    Max Threads :                                4
    Run time :                                   949 sec.
    Turnaround time :                            5798 sec.

The output (if any) is above this job summary.



PS:

Read file <3850.30.error> for stderr output of this job.

