Actually entered program!
Running with size: 3200, Trials: 16, OutputFile: 3200.22.eigen, Appending?: 0

------------------------------------------------------------
Sender: LSF System <lsfadmin@c36b01>
Subject: Job 7846744: <s.3200.22> in cluster <umghpcc> Done

Job <s.3200.22> was submitted from host <ghpcc06> by user <yh58b> in cluster <umghpcc> at Tue Jul 16 15:36:16 2019.
Job was executed on host(s) <c36b01>, in queue <long>, as user <yh58b> in cluster <umghpcc> at Tue Jul 16 22:08:18 2019.
</home/yh58b> was used as the home directory.
</home/yh58b/RMT/3200.singly> was used as the working directory.
Started at Tue Jul 16 22:08:18 2019.
Terminated at Tue Jul 16 22:35:16 2019.
Results reported at Tue Jul 16 22:35:16 2019.

Your job looked like:

------------------------------------------------------------
# LSBATCH: User input
./eigen.exec 3200.pf 3200.22.eigen
------------------------------------------------------------

Successfully completed.

Resource usage summary:

    CPU time :                                   1615.85 sec.
    Max Memory :                                 91 MB
    Average Memory :                             90.86 MB
    Total Requested Memory :                     256.00 MB
    Delta Memory :                               165.00 MB
    Max Swap :                                   -
    Max Processes :                              3
    Max Threads :                                4
    Run time :                                   1618 sec.
    Turnaround time :                            25140 sec.

The output (if any) is above this job summary.



PS:

Read file <3200.22.error> for stderr output of this job.

