Actually entered program!
Running with size: 4100, Trials: 7, OutputFile: 4100.51.eigen, Appending?: 0

------------------------------------------------------------
Sender: LSF System <lsfadmin@c06b07>
Subject: Job 7738863: <s.4100.51> in cluster <umghpcc> Done

Job <s.4100.51> was submitted from host <ghpcc06> by user <yh58b> in cluster <umghpcc> at Mon Jul 15 13:27:52 2019.
Job was executed on host(s) <c06b07>, in queue <short>, as user <yh58b> in cluster <umghpcc> at Tue Jul 16 03:19:49 2019.
</home/yh58b> was used as the home directory.
</home/yh58b/RMT/4100.singly> was used as the working directory.
Started at Tue Jul 16 03:19:49 2019.
Terminated at Tue Jul 16 04:04:27 2019.
Results reported at Tue Jul 16 04:04:27 2019.

Your job looked like:

------------------------------------------------------------
# LSBATCH: User input
./eigen.exec 4100.pf 4100.51.eigen
------------------------------------------------------------

Successfully completed.

Resource usage summary:

    CPU time :                                   2676.19 sec.
    Max Memory :                                 142 MB
    Average Memory :                             139.85 MB
    Total Requested Memory :                     512.00 MB
    Delta Memory :                               370.00 MB
    Max Swap :                                   -
    Max Processes :                              3
    Max Threads :                                4
    Run time :                                   2677 sec.
    Turnaround time :                            52595 sec.

The output (if any) is above this job summary.



PS:

Read file <4100.51.error> for stderr output of this job.

