Actually entered program!
Running with size: 4550, Trials: 5, OutputFile: 4550.39.eigen, Appending?: 0

------------------------------------------------------------
Sender: LSF System <lsfadmin@c05b04>
Subject: Job 7739782: <s.4550.39> in cluster <umghpcc> Done

Job <s.4550.39> was submitted from host <ghpcc06> by user <yh58b> in cluster <umghpcc> at Mon Jul 15 13:29:01 2019.
Job was executed on host(s) <c05b04>, in queue <short>, as user <yh58b> in cluster <umghpcc> at Mon Jul 15 15:48:51 2019.
</home/yh58b> was used as the home directory.
</home/yh58b/RMT/4550.singly> was used as the working directory.
Started at Mon Jul 15 15:48:51 2019.
Terminated at Mon Jul 15 16:26:31 2019.
Results reported at Mon Jul 15 16:26:31 2019.

Your job looked like:

------------------------------------------------------------
# LSBATCH: User input
./eigen.exec 4550.pf 4550.39.eigen
------------------------------------------------------------

Successfully completed.

Resource usage summary:

    CPU time :                                   2254.99 sec.
    Max Memory :                                 170 MB
    Average Memory :                             168.96 MB
    Total Requested Memory :                     512.00 MB
    Delta Memory :                               342.00 MB
    Max Swap :                                   -
    Max Processes :                              3
    Max Threads :                                4
    Run time :                                   2260 sec.
    Turnaround time :                            10650 sec.

The output (if any) is above this job summary.



PS:

Read file <4550.39.error> for stderr output of this job.

