Actually entered program!
Running with size: 4600, Trials: 5, OutputFile: 4600.11.eigen, Appending?: 0

------------------------------------------------------------
Sender: LSF System <lsfadmin@c09b07>
Subject: Job 7739843: <s.4600.11> in cluster <umghpcc> Done

Job <s.4600.11> was submitted from host <ghpcc06> by user <yh58b> in cluster <umghpcc> at Mon Jul 15 13:29:06 2019.
Job was executed on host(s) <c09b07>, in queue <short>, as user <yh58b> in cluster <umghpcc> at Mon Jul 15 15:53:14 2019.
</home/yh58b> was used as the home directory.
</home/yh58b/RMT/4600.singly> was used as the working directory.
Started at Mon Jul 15 15:53:14 2019.
Terminated at Mon Jul 15 16:50:58 2019.
Results reported at Mon Jul 15 16:50:58 2019.

Your job looked like:

------------------------------------------------------------
# LSBATCH: User input
./eigen.exec 4600.pf 4600.11.eigen
------------------------------------------------------------

Successfully completed.

Resource usage summary:

    CPU time :                                   3463.48 sec.
    Max Memory :                                 173 MB
    Average Memory :                             172.79 MB
    Total Requested Memory :                     512.00 MB
    Delta Memory :                               339.00 MB
    Max Swap :                                   -
    Max Processes :                              3
    Max Threads :                                4
    Run time :                                   3464 sec.
    Turnaround time :                            12112 sec.

The output (if any) is above this job summary.



PS:

Read file <4600.11.error> for stderr output of this job.

