Actually entered program!

------------------------------------------------------------
Sender: LSF System <lsfadmin@c02b08>
Subject: Job 7740627: <d.950.2> in cluster <umghpcc> Exited

Job <d.950.2> was submitted from host <ghpcc06> by user <yh58b> in cluster <umghpcc> at Mon Jul 15 13:30:05 2019.
Job was executed on host(s) <c02b08>, in queue <short>, as user <yh58b> in cluster <umghpcc> at Mon Jul 15 16:56:40 2019.
</home/yh58b> was used as the home directory.
</home/yh58b/RMT/950.doubly> was used as the working directory.
Started at Mon Jul 15 16:56:40 2019.
Terminated at Mon Jul 15 17:56:54 2019.
Results reported at Mon Jul 15 17:56:54 2019.

Your job looked like:

------------------------------------------------------------
# LSBATCH: User input
./eigen.exec 950.pf 950.2.eigen
------------------------------------------------------------

TERM_RUNLIMIT: job killed after reaching LSF run time limit.
Exited with exit code 140.

Resource usage summary:

    CPU time :                                   3607.14 sec.
    Max Memory :                                 18 MB
    Average Memory :                             17.87 MB
    Total Requested Memory :                     512.00 MB
    Delta Memory :                               494.00 MB
    Max Swap :                                   -
    Max Processes :                              3
    Max Threads :                                4
    Run time :                                   3614 sec.
    Turnaround time :                            16009 sec.

The output (if any) is above this job summary.



PS:

Read file <950.2.error> for stderr output of this job.

