Actually entered program!

------------------------------------------------------------
Sender: LSF System <lsfadmin@c31b05>
Subject: Job 7740820: <d.1600.13> in cluster <umghpcc> Exited

Job <d.1600.13> was submitted from host <ghpcc06> by user <yh58b> in cluster <umghpcc> at Mon Jul 15 13:30:20 2019.
Job was executed on host(s) <c31b05>, in queue <short>, as user <yh58b> in cluster <umghpcc> at Mon Jul 15 17:16:58 2019.
</home/yh58b> was used as the home directory.
</home/yh58b/RMT/1600.doubly> was used as the working directory.
Started at Mon Jul 15 17:16:58 2019.
Terminated at Mon Jul 15 18:17:01 2019.
Results reported at Mon Jul 15 18:17:01 2019.

Your job looked like:

------------------------------------------------------------
# LSBATCH: User input
./eigen.exec 1600.pf 1600.13.eigen
------------------------------------------------------------

TERM_RUNLIMIT: job killed after reaching LSF run time limit.
Exited with exit code 140.

Resource usage summary:

    CPU time :                                   3601.27 sec.
    Max Memory :                                 32 MB
    Average Memory :                             32.00 MB
    Total Requested Memory :                     512.00 MB
    Delta Memory :                               480.00 MB
    Max Swap :                                   -
    Max Processes :                              3
    Max Threads :                                4
    Run time :                                   3603 sec.
    Turnaround time :                            17201 sec.

The output (if any) is above this job summary.



PS:

Read file <1600.13.error> for stderr output of this job.

