Actually entered program!
Running with size: 4500, Trials: 3, OutputFile: 4500.78.eigen, Appending?: 0

------------------------------------------------------------
Sender: LSF System <lsfadmin@c36b03>
Subject: Job 7848586: <s.4500.78> in cluster <umghpcc> Done

Job <s.4500.78> was submitted from host <ghpcc06> by user <yh58b> in cluster <umghpcc> at Tue Jul 16 15:38:29 2019.
Job was executed on host(s) <c36b03>, in queue <long>, as user <yh58b> in cluster <umghpcc> at Wed Jul 17 11:10:31 2019.
</home/yh58b> was used as the home directory.
</home/yh58b/RMT/4500.singly> was used as the working directory.
Started at Wed Jul 17 11:10:31 2019.
Terminated at Wed Jul 17 11:21:37 2019.
Results reported at Wed Jul 17 11:21:37 2019.

Your job looked like:

------------------------------------------------------------
# LSBATCH: User input
./eigen.exec 4500.pf 4500.78.eigen
------------------------------------------------------------

Successfully completed.

Resource usage summary:

    CPU time :                                   664.74 sec.
    Max Memory :                                 165 MB
    Average Memory :                             165.00 MB
    Total Requested Memory :                     256.00 MB
    Delta Memory :                               91.00 MB
    Max Swap :                                   -
    Max Processes :                              3
    Max Threads :                                4
    Run time :                                   666 sec.
    Turnaround time :                            70988 sec.

The output (if any) is above this job summary.



PS:

Read file <4500.78.error> for stderr output of this job.

