Actually entered program!
Running with size: 4500, Trials: 3, OutputFile: 4500.86.eigen, Appending?: 0

------------------------------------------------------------
Sender: LSF System <lsfadmin@c37b01>
Subject: Job 7848594: <s.4500.86> in cluster <umghpcc> Done

Job <s.4500.86> was submitted from host <ghpcc06> by user <yh58b> in cluster <umghpcc> at Tue Jul 16 15:38:30 2019.
Job was executed on host(s) <c37b01>, in queue <long>, as user <yh58b> in cluster <umghpcc> at Wed Jul 17 11:11:30 2019.
</home/yh58b> was used as the home directory.
</home/yh58b/RMT/4500.singly> was used as the working directory.
Started at Wed Jul 17 11:11:30 2019.
Terminated at Wed Jul 17 11:22:11 2019.
Results reported at Wed Jul 17 11:22:11 2019.

Your job looked like:

------------------------------------------------------------
# LSBATCH: User input
./eigen.exec 4500.pf 4500.86.eigen
------------------------------------------------------------

Successfully completed.

Resource usage summary:

    CPU time :                                   639.80 sec.
    Max Memory :                                 167 MB
    Average Memory :                             167.00 MB
    Total Requested Memory :                     256.00 MB
    Delta Memory :                               89.00 MB
    Max Swap :                                   -
    Max Processes :                              3
    Max Threads :                                4
    Run time :                                   641 sec.
    Turnaround time :                            71021 sec.

The output (if any) is above this job summary.



PS:

Read file <4500.86.error> for stderr output of this job.

