Actually entered program!
Running with size: 3250, Trials: 5, OutputFile: 3250.50.eigen, Appending?: 0

------------------------------------------------------------
Sender: LSF System <lsfadmin@c07b07>
Subject: Job 7742151: <d.3250.50> in cluster <umghpcc> Done

Job <d.3250.50> was submitted from host <ghpcc06> by user <yh58b> in cluster <umghpcc> at Mon Jul 15 13:31:58 2019.
Job was executed on host(s) <c07b07>, in queue <short>, as user <yh58b> in cluster <umghpcc> at Mon Jul 15 19:27:50 2019.
</home/yh58b> was used as the home directory.
</home/yh58b/RMT/3250.doubly> was used as the working directory.
Started at Mon Jul 15 19:27:50 2019.
Terminated at Mon Jul 15 20:00:28 2019.
Results reported at Mon Jul 15 20:00:28 2019.

Your job looked like:

------------------------------------------------------------
# LSBATCH: User input
./eigen.exec 3250.pf 3250.50.eigen
------------------------------------------------------------

Successfully completed.

Resource usage summary:

    CPU time :                                   1957.71 sec.
    Max Memory :                                 94 MB
    Average Memory :                             91.81 MB
    Total Requested Memory :                     512.00 MB
    Delta Memory :                               418.00 MB
    Max Swap :                                   -
    Max Processes :                              3
    Max Threads :                                4
    Run time :                                   1958 sec.
    Turnaround time :                            23310 sec.

The output (if any) is above this job summary.



PS:

Read file <3250.50.error> for stderr output of this job.

