Actually entered program!
Running with size: 3250, Trials: 5, OutputFile: 3250.116.eigen, Appending?: 0

------------------------------------------------------------
Sender: LSF System <lsfadmin@c08b05>
Subject: Job 7742217: <d.3250.116> in cluster <umghpcc> Done

Job <d.3250.116> was submitted from host <ghpcc06> by user <yh58b> in cluster <umghpcc> at Mon Jul 15 13:32:03 2019.
Job was executed on host(s) <c08b05>, in queue <short>, as user <yh58b> in cluster <umghpcc> at Mon Jul 15 19:33:57 2019.
</home/yh58b> was used as the home directory.
</home/yh58b/RMT/3250.doubly> was used as the working directory.
Started at Mon Jul 15 19:33:57 2019.
Terminated at Mon Jul 15 20:12:26 2019.
Results reported at Mon Jul 15 20:12:26 2019.

Your job looked like:

------------------------------------------------------------
# LSBATCH: User input
./eigen.exec 3250.pf 3250.116.eigen
------------------------------------------------------------

Successfully completed.

Resource usage summary:

    CPU time :                                   2306.90 sec.
    Max Memory :                                 93 MB
    Average Memory :                             93.00 MB
    Total Requested Memory :                     512.00 MB
    Delta Memory :                               419.00 MB
    Max Swap :                                   -
    Max Processes :                              3
    Max Threads :                                4
    Run time :                                   2308 sec.
    Turnaround time :                            24023 sec.

The output (if any) is above this job summary.



PS:

Read file <3250.116.error> for stderr output of this job.

