Actually entered program!
Running with size: 3250, Trials: 5, OutputFile: 3250.117.eigen, Appending?: 0

------------------------------------------------------------
Sender: LSF System <lsfadmin@c17b08>
Subject: Job 7742218: <d.3250.117> in cluster <umghpcc> Done

Job <d.3250.117> was submitted from host <ghpcc06> by user <yh58b> in cluster <umghpcc> at Mon Jul 15 13:32:03 2019.
Job was executed on host(s) <c17b08>, in queue <short>, as user <yh58b> in cluster <umghpcc> at Mon Jul 15 19:34:11 2019.
</home/yh58b> was used as the home directory.
</home/yh58b/RMT/3250.doubly> was used as the working directory.
Started at Mon Jul 15 19:34:11 2019.
Terminated at Mon Jul 15 20:11:27 2019.
Results reported at Mon Jul 15 20:11:27 2019.

Your job looked like:

------------------------------------------------------------
# LSBATCH: User input
./eigen.exec 3250.pf 3250.117.eigen
------------------------------------------------------------

Successfully completed.

Resource usage summary:

    CPU time :                                   2234.45 sec.
    Max Memory :                                 91 MB
    Average Memory :                             91.00 MB
    Total Requested Memory :                     512.00 MB
    Delta Memory :                               421.00 MB
    Max Swap :                                   -
    Max Processes :                              3
    Max Threads :                                4
    Run time :                                   2236 sec.
    Turnaround time :                            23964 sec.

The output (if any) is above this job summary.



PS:

Read file <3250.117.error> for stderr output of this job.

