Actually entered program!
Running with size: 3650, Trials: 3, OutputFile: 3650.101.eigen, Appending?: 0

------------------------------------------------------------
Sender: LSF System <lsfadmin@c19b01>
Subject: Job 7743030: <d.3650.101> in cluster <umghpcc> Done

Job <d.3650.101> was submitted from host <ghpcc06> by user <yh58b> in cluster <umghpcc> at Mon Jul 15 13:33:02 2019.
Job was executed on host(s) <c19b01>, in queue <short>, as user <yh58b> in cluster <umghpcc> at Mon Jul 15 20:54:07 2019.
</home/yh58b> was used as the home directory.
</home/yh58b/RMT/3650.doubly> was used as the working directory.
Started at Mon Jul 15 20:54:07 2019.
Terminated at Mon Jul 15 21:24:50 2019.
Results reported at Mon Jul 15 21:24:50 2019.

Your job looked like:

------------------------------------------------------------
# LSBATCH: User input
./eigen.exec 3650.pf 3650.101.eigen
------------------------------------------------------------

Successfully completed.

Resource usage summary:

    CPU time :                                   1842.28 sec.
    Max Memory :                                 114 MB
    Average Memory :                             114.00 MB
    Total Requested Memory :                     512.00 MB
    Delta Memory :                               398.00 MB
    Max Swap :                                   -
    Max Processes :                              3
    Max Threads :                                4
    Run time :                                   1843 sec.
    Turnaround time :                            28308 sec.

The output (if any) is above this job summary.



PS:

Read file <3650.101.error> for stderr output of this job.

