Actually entered program!
Running with size: 3650, Trials: 3, OutputFile: 3650.40.eigen, Appending?: 0

------------------------------------------------------------
Sender: LSF System <lsfadmin@c03b04>
Subject: Job 7742969: <d.3650.40> in cluster <umghpcc> Done

Job <d.3650.40> was submitted from host <ghpcc06> by user <yh58b> in cluster <umghpcc> at Mon Jul 15 13:32:58 2019.
Job was executed on host(s) <c03b04>, in queue <short>, as user <yh58b> in cluster <umghpcc> at Mon Jul 15 20:49:26 2019.
</home/yh58b> was used as the home directory.
</home/yh58b/RMT/3650.doubly> was used as the working directory.
Started at Mon Jul 15 20:49:26 2019.
Terminated at Mon Jul 15 21:32:35 2019.
Results reported at Mon Jul 15 21:32:35 2019.

Your job looked like:

------------------------------------------------------------
# LSBATCH: User input
./eigen.exec 3650.pf 3650.40.eigen
------------------------------------------------------------

Successfully completed.

Resource usage summary:

    CPU time :                                   2100.97 sec.
    Max Memory :                                 115 MB
    Average Memory :                             113.57 MB
    Total Requested Memory :                     512.00 MB
    Delta Memory :                               397.00 MB
    Max Swap :                                   -
    Max Processes :                              3
    Max Threads :                                4
    Run time :                                   2588 sec.
    Turnaround time :                            28777 sec.

The output (if any) is above this job summary.



PS:

Read file <3650.40.error> for stderr output of this job.

