Actually entered program!
Running with size: 3650, Trials: 3, OutputFile: 3650.29.eigen, Appending?: 0

------------------------------------------------------------
Sender: LSF System <lsfadmin@c36b11>
Subject: Job 7742958: <d.3650.29> in cluster <umghpcc> Done

Job <d.3650.29> was submitted from host <ghpcc06> by user <yh58b> in cluster <umghpcc> at Mon Jul 15 13:32:57 2019.
Job was executed on host(s) <c36b11>, in queue <short>, as user <yh58b> in cluster <umghpcc> at Mon Jul 15 20:48:28 2019.
</home/yh58b> was used as the home directory.
</home/yh58b/RMT/3650.doubly> was used as the working directory.
Started at Mon Jul 15 20:48:28 2019.
Terminated at Mon Jul 15 20:58:51 2019.
Results reported at Mon Jul 15 20:58:51 2019.

Your job looked like:

------------------------------------------------------------
# LSBATCH: User input
./eigen.exec 3650.pf 3650.29.eigen
------------------------------------------------------------

Successfully completed.

Resource usage summary:

    CPU time :                                   622.31 sec.
    Max Memory :                                 112 MB
    Average Memory :                             112.00 MB
    Total Requested Memory :                     512.00 MB
    Delta Memory :                               400.00 MB
    Max Swap :                                   -
    Max Processes :                              3
    Max Threads :                                4
    Run time :                                   623 sec.
    Turnaround time :                            26754 sec.

The output (if any) is above this job summary.



PS:

Read file <3650.29.error> for stderr output of this job.

