Actually entered program!
Running with size: 3650, Trials: 3, OutputFile: 3650.72.eigen, Appending?: 0

------------------------------------------------------------
Sender: LSF System <lsfadmin@c03b04>
Subject: Job 7743001: <d.3650.72> in cluster <umghpcc> Done

Job <d.3650.72> was submitted from host <ghpcc06> by user <yh58b> in cluster <umghpcc> at Mon Jul 15 13:33:00 2019.
Job was executed on host(s) <c03b04>, in queue <short>, as user <yh58b> in cluster <umghpcc> at Mon Jul 15 20:52:26 2019.
</home/yh58b> was used as the home directory.
</home/yh58b/RMT/3650.doubly> was used as the working directory.
Started at Mon Jul 15 20:52:26 2019.
Terminated at Mon Jul 15 21:28:11 2019.
Results reported at Mon Jul 15 21:28:11 2019.

Your job looked like:

------------------------------------------------------------
# LSBATCH: User input
./eigen.exec 3650.pf 3650.72.eigen
------------------------------------------------------------

Successfully completed.

Resource usage summary:

    CPU time :                                   2143.49 sec.
    Max Memory :                                 115 MB
    Average Memory :                             112.79 MB
    Total Requested Memory :                     512.00 MB
    Delta Memory :                               397.00 MB
    Max Swap :                                   -
    Max Processes :                              3
    Max Threads :                                4
    Run time :                                   2144 sec.
    Turnaround time :                            28511 sec.

The output (if any) is above this job summary.



PS:

Read file <3650.72.error> for stderr output of this job.

