Actually entered program!
Running with size: 3650, Trials: 3, OutputFile: 3650.67.eigen, Appending?: 0

------------------------------------------------------------
Sender: LSF System <lsfadmin@c04b04>
Subject: Job 7742996: <d.3650.67> in cluster <umghpcc> Done

Job <d.3650.67> was submitted from host <ghpcc06> by user <yh58b> in cluster <umghpcc> at Mon Jul 15 13:33:00 2019.
Job was executed on host(s) <c04b04>, in queue <short>, as user <yh58b> in cluster <umghpcc> at Mon Jul 15 20:52:58 2019.
</home/yh58b> was used as the home directory.
</home/yh58b/RMT/3650.doubly> was used as the working directory.
Started at Mon Jul 15 20:52:58 2019.
Terminated at Mon Jul 15 21:23:23 2019.
Results reported at Mon Jul 15 21:23:23 2019.

Your job looked like:

------------------------------------------------------------
# LSBATCH: User input
./eigen.exec 3650.pf 3650.67.eigen
------------------------------------------------------------

Successfully completed.

Resource usage summary:

    CPU time :                                   1823.49 sec.
    Max Memory :                                 113 MB
    Average Memory :                             112.49 MB
    Total Requested Memory :                     512.00 MB
    Delta Memory :                               399.00 MB
    Max Swap :                                   -
    Max Processes :                              3
    Max Threads :                                4
    Run time :                                   1824 sec.
    Turnaround time :                            28223 sec.

The output (if any) is above this job summary.



PS:

Read file <3650.67.error> for stderr output of this job.

