Actually entered program!
Running with size: 3650, Trials: 3, OutputFile: 3650.5.eigen, Appending?: 0

------------------------------------------------------------
Sender: LSF System <lsfadmin@c06b03>
Subject: Job 7742934: <d.3650.5> in cluster <umghpcc> Done

Job <d.3650.5> was submitted from host <ghpcc06> by user <yh58b> in cluster <umghpcc> at Mon Jul 15 13:32:55 2019.
Job was executed on host(s) <c06b03>, in queue <short>, as user <yh58b> in cluster <umghpcc> at Mon Jul 15 20:43:11 2019.
</home/yh58b> was used as the home directory.
</home/yh58b/RMT/3650.doubly> was used as the working directory.
Started at Mon Jul 15 20:43:11 2019.
Terminated at Mon Jul 15 21:42:45 2019.
Results reported at Mon Jul 15 21:42:45 2019.

Your job looked like:

------------------------------------------------------------
# LSBATCH: User input
./eigen.exec 3650.pf 3650.5.eigen
------------------------------------------------------------

Successfully completed.

Resource usage summary:

    CPU time :                                   3573.08 sec.
    Max Memory :                                 115 MB
    Average Memory :                             113.38 MB
    Total Requested Memory :                     512.00 MB
    Delta Memory :                               397.00 MB
    Max Swap :                                   -
    Max Processes :                              3
    Max Threads :                                4
    Run time :                                   3574 sec.
    Turnaround time :                            29390 sec.

The output (if any) is above this job summary.



PS:

Read file <3650.5.error> for stderr output of this job.

