Actually entered program!
Running with size: 4750, Trials: 5, OutputFile: 4750.54.eigen, Appending?: 0

------------------------------------------------------------
Sender: LSF System <lsfadmin@c17b08>
Subject: Job 7849061: <s.4750.54> in cluster <umghpcc> Done

Job <s.4750.54> was submitted from host <ghpcc06> by user <yh58b> in cluster <umghpcc> at Tue Jul 16 15:39:03 2019.
Job was executed on host(s) <c17b08>, in queue <long>, as user <yh58b> in cluster <umghpcc> at Wed Jul 17 12:23:45 2019.
</home/yh58b> was used as the home directory.
</home/yh58b/RMT/4750.singly> was used as the working directory.
Started at Wed Jul 17 12:23:45 2019.
Terminated at Wed Jul 17 13:23:22 2019.
Results reported at Wed Jul 17 13:23:22 2019.

Your job looked like:

------------------------------------------------------------
# LSBATCH: User input
./eigen.exec 4750.pf 4750.54.eigen
------------------------------------------------------------

Successfully completed.

Resource usage summary:

    CPU time :                                   3575.08 sec.
    Max Memory :                                 184 MB
    Average Memory :                             184.00 MB
    Total Requested Memory :                     256.00 MB
    Delta Memory :                               72.00 MB
    Max Swap :                                   -
    Max Processes :                              3
    Max Threads :                                4
    Run time :                                   3577 sec.
    Turnaround time :                            78259 sec.

The output (if any) is above this job summary.



PS:

Read file <4750.54.error> for stderr output of this job.

