Actually entered program!
Running with size: 4750, Trials: 5, OutputFile: 4750.43.eigen, Appending?: 0

------------------------------------------------------------
Sender: LSF System <lsfadmin@c20b04>
Subject: Job 7849050: <s.4750.43> in cluster <umghpcc> Done

Job <s.4750.43> was submitted from host <ghpcc06> by user <yh58b> in cluster <umghpcc> at Tue Jul 16 15:39:02 2019.
Job was executed on host(s) <c20b04>, in queue <long>, as user <yh58b> in cluster <umghpcc> at Wed Jul 17 12:19:06 2019.
</home/yh58b> was used as the home directory.
</home/yh58b/RMT/4750.singly> was used as the working directory.
Started at Wed Jul 17 12:19:06 2019.
Terminated at Wed Jul 17 13:25:05 2019.
Results reported at Wed Jul 17 13:25:05 2019.

Your job looked like:

------------------------------------------------------------
# LSBATCH: User input
./eigen.exec 4750.pf 4750.43.eigen
------------------------------------------------------------

Successfully completed.

Resource usage summary:

    CPU time :                                   3957.57 sec.
    Max Memory :                                 183 MB
    Average Memory :                             183.00 MB
    Total Requested Memory :                     256.00 MB
    Delta Memory :                               73.00 MB
    Max Swap :                                   -
    Max Processes :                              3
    Max Threads :                                4
    Run time :                                   3959 sec.
    Turnaround time :                            78363 sec.

The output (if any) is above this job summary.



PS:

Read file <4750.43.error> for stderr output of this job.

