Actually entered program!
Running with size: 3150, Trials: 10, OutputFile: 3150.58.eigen, Appending?: 0

------------------------------------------------------------
Sender: LSF System <lsfadmin@c01b03>
Subject: Job 7742016: <d.3150.58> in cluster <umghpcc> Done

Job <d.3150.58> was submitted from host <ghpcc06> by user <yh58b> in cluster <umghpcc> at Mon Jul 15 13:31:49 2019.
Job was executed on host(s) <c01b03>, in queue <short>, as user <yh58b> in cluster <umghpcc> at Mon Jul 15 19:19:03 2019.
</home/yh58b> was used as the home directory.
</home/yh58b/RMT/3150.doubly> was used as the working directory.
Started at Mon Jul 15 19:19:03 2019.
Terminated at Mon Jul 15 19:59:08 2019.
Results reported at Mon Jul 15 19:59:08 2019.

Your job looked like:

------------------------------------------------------------
# LSBATCH: User input
./eigen.exec 3150.pf 3150.58.eigen
------------------------------------------------------------

Successfully completed.

Resource usage summary:

    CPU time :                                   2403.06 sec.
    Max Memory :                                 87 MB
    Average Memory :                             86.85 MB
    Total Requested Memory :                     512.00 MB
    Delta Memory :                               425.00 MB
    Max Swap :                                   -
    Max Processes :                              3
    Max Threads :                                4
    Run time :                                   2405 sec.
    Turnaround time :                            23239 sec.

The output (if any) is above this job summary.



PS:

Read file <3150.58.error> for stderr output of this job.

