Actually entered program!

------------------------------------------------------------
Sender: LSF System <lsfadmin@c03b06>
Subject: Job 7741988: <d.3150.30> in cluster <umghpcc> Exited

Job <d.3150.30> was submitted from host <ghpcc06> by user <yh58b> in cluster <umghpcc> at Mon Jul 15 13:31:47 2019.
Job was executed on host(s) <c03b06>, in queue <short>, as user <yh58b> in cluster <umghpcc> at Mon Jul 15 19:17:02 2019.
</home/yh58b> was used as the home directory.
</home/yh58b/RMT/3150.doubly> was used as the working directory.
Started at Mon Jul 15 19:17:02 2019.
Terminated at Mon Jul 15 20:17:10 2019.
Results reported at Mon Jul 15 20:17:10 2019.

Your job looked like:

------------------------------------------------------------
# LSBATCH: User input
./eigen.exec 3150.pf 3150.30.eigen
------------------------------------------------------------

TERM_RUNLIMIT: job killed after reaching LSF run time limit.
Exited with exit code 140.

Resource usage summary:

    CPU time :                                   2673.35 sec.
    Max Memory :                                 86 MB
    Average Memory :                             86.00 MB
    Total Requested Memory :                     512.00 MB
    Delta Memory :                               426.00 MB
    Max Swap :                                   -
    Max Processes :                              3
    Max Threads :                                4
    Run time :                                   3608 sec.
    Turnaround time :                            24323 sec.

The output (if any) is above this job summary.



PS:

Read file <3150.30.error> for stderr output of this job.

