Actually entered program!
Running with size: 2750, Trials: 29, OutputFile: 2750.23.eigen, Appending?: 0

------------------------------------------------------------
Sender: LSF System <lsfadmin@c28b15>
Subject: Job 7737559: <s.2750.23> in cluster <umghpcc> Done

Job <s.2750.23> was submitted from host <ghpcc06> by user <yh58b> in cluster <umghpcc> at Mon Jul 15 13:26:15 2019.
Job was executed on host(s) <c28b15>, in queue <short>, as user <yh58b> in cluster <umghpcc> at Mon Jul 15 13:41:26 2019.
</home/yh58b> was used as the home directory.
</home/yh58b/RMT/2750.singly> was used as the working directory.
Started at Mon Jul 15 13:41:26 2019.
Terminated at Mon Jul 15 14:12:07 2019.
Results reported at Mon Jul 15 14:12:07 2019.

Your job looked like:

------------------------------------------------------------
# LSBATCH: User input
./eigen.exec 2750.pf 2750.23.eigen
------------------------------------------------------------

Successfully completed.

Resource usage summary:

    CPU time :                                   1838.17 sec.
    Max Memory :                                 69 MB
    Average Memory :                             68.56 MB
    Total Requested Memory :                     512.00 MB
    Delta Memory :                               443.00 MB
    Max Swap :                                   -
    Max Processes :                              3
    Max Threads :                                4
    Run time :                                   1841 sec.
    Turnaround time :                            2752 sec.

The output (if any) is above this job summary.



PS:

Read file <2750.23.error> for stderr output of this job.

