Actually entered program!
Running with size: 3150, Trials: 19, OutputFile: 3150.26.eigen, Appending?: 0

------------------------------------------------------------
Sender: LSF System <lsfadmin@c28b15>
Subject: Job 7737800: <s.3150.26> in cluster <umghpcc> Done

Job <s.3150.26> was submitted from host <ghpcc06> by user <yh58b> in cluster <umghpcc> at Mon Jul 15 13:26:33 2019.
Job was executed on host(s) <c28b15>, in queue <short>, as user <yh58b> in cluster <umghpcc> at Mon Jul 15 13:55:42 2019.
</home/yh58b> was used as the home directory.
</home/yh58b/RMT/3150.singly> was used as the working directory.
Started at Mon Jul 15 13:55:42 2019.
Terminated at Mon Jul 15 14:27:28 2019.
Results reported at Mon Jul 15 14:27:28 2019.

Your job looked like:

------------------------------------------------------------
# LSBATCH: User input
./eigen.exec 3150.pf 3150.26.eigen
------------------------------------------------------------

Successfully completed.

Resource usage summary:

    CPU time :                                   1904.33 sec.
    Max Memory :                                 88 MB
    Average Memory :                             86.59 MB
    Total Requested Memory :                     512.00 MB
    Delta Memory :                               424.00 MB
    Max Swap :                                   -
    Max Processes :                              3
    Max Threads :                                4
    Run time :                                   1906 sec.
    Turnaround time :                            3655 sec.

The output (if any) is above this job summary.



PS:

Read file <3150.26.error> for stderr output of this job.

