Actually entered program!
Running with size: 4100, Trials: 7, OutputFile: 4100.13.eigen, Appending?: 0

------------------------------------------------------------
Sender: LSF System <lsfadmin@c36b10>
Subject: Job 7847739: <s.4100.13> in cluster <umghpcc> Done

Job <s.4100.13> was submitted from host <ghpcc06> by user <yh58b> in cluster <umghpcc> at Tue Jul 16 15:37:29 2019.
Job was executed on host(s) <c36b10>, in queue <long>, as user <yh58b> in cluster <umghpcc> at Wed Jul 17 05:48:00 2019.
</home/yh58b> was used as the home directory.
</home/yh58b/RMT/4100.singly> was used as the working directory.
Started at Wed Jul 17 05:48:00 2019.
Terminated at Wed Jul 17 06:08:12 2019.
Results reported at Wed Jul 17 06:08:12 2019.

Your job looked like:

------------------------------------------------------------
# LSBATCH: User input
./eigen.exec 4100.pf 4100.13.eigen
------------------------------------------------------------

Successfully completed.

Resource usage summary:

    CPU time :                                   1209.43 sec.
    Max Memory :                                 139 MB
    Average Memory :                             139.00 MB
    Total Requested Memory :                     256.00 MB
    Delta Memory :                               117.00 MB
    Max Swap :                                   -
    Max Processes :                              3
    Max Threads :                                4
    Run time :                                   1211 sec.
    Turnaround time :                            52243 sec.

The output (if any) is above this job summary.



PS:

Read file <4100.13.error> for stderr output of this job.

