Actually entered program!

------------------------------------------------------------
Sender: LSF System <lsfadmin@c06b03>
Subject: Job 7744746: <d.4300.110> in cluster <umghpcc> Exited

Job <d.4300.110> was submitted from host <ghpcc06> by user <yh58b> in cluster <umghpcc> at Mon Jul 15 13:35:04 2019.
Job was executed on host(s) <c06b03>, in queue <short>, as user <yh58b> in cluster <umghpcc> at Mon Jul 15 23:23:05 2019.
</home/yh58b> was used as the home directory.
</home/yh58b/RMT/4300.doubly> was used as the working directory.
Started at Mon Jul 15 23:23:05 2019.
Terminated at Tue Jul 16 00:23:18 2019.
Results reported at Tue Jul 16 00:23:18 2019.

Your job looked like:

------------------------------------------------------------
# LSBATCH: User input
./eigen.exec 4300.pf 4300.110.eigen
------------------------------------------------------------

TERM_RUNLIMIT: job killed after reaching LSF run time limit.
Exited with exit code 140.

Resource usage summary:

    CPU time :                                   3612.00 sec.
    Max Memory :                                 153 MB
    Average Memory :                             152.46 MB
    Total Requested Memory :                     512.00 MB
    Delta Memory :                               359.00 MB
    Max Swap :                                   -
    Max Processes :                              3
    Max Threads :                                4
    Run time :                                   3613 sec.
    Turnaround time :                            38894 sec.

The output (if any) is above this job summary.



PS:

Read file <4300.110.error> for stderr output of this job.

