Actually entered program!

------------------------------------------------------------
Sender: LSF System <lsfadmin@c03b06>
Subject: Job 7744703: <d.4300.67> in cluster <umghpcc> Exited

Job <d.4300.67> was submitted from host <ghpcc06> by user <yh58b> in cluster <umghpcc> at Mon Jul 15 13:35:01 2019.
Job was executed on host(s) <c03b06>, in queue <short>, as user <yh58b> in cluster <umghpcc> at Mon Jul 15 23:21:05 2019.
</home/yh58b> was used as the home directory.
</home/yh58b/RMT/4300.doubly> was used as the working directory.
Started at Mon Jul 15 23:21:05 2019.
Terminated at Tue Jul 16 00:21:22 2019.
Results reported at Tue Jul 16 00:21:22 2019.

Your job looked like:

------------------------------------------------------------
# LSBATCH: User input
./eigen.exec 4300.pf 4300.67.eigen
------------------------------------------------------------

TERM_RUNLIMIT: job killed after reaching LSF run time limit.
Exited with exit code 140.

Resource usage summary:

    CPU time :                                   3613.27 sec.
    Max Memory :                                 152 MB
    Average Memory :                             151.78 MB
    Total Requested Memory :                     512.00 MB
    Delta Memory :                               360.00 MB
    Max Swap :                                   -
    Max Processes :                              3
    Max Threads :                                4
    Run time :                                   3615 sec.
    Turnaround time :                            38781 sec.

The output (if any) is above this job summary.



PS:

Read file <4300.67.error> for stderr output of this job.

