Actually entered program!
Running with size: 3450, Trials: 5, OutputFile: 3450.96.eigen, Appending?: 0

------------------------------------------------------------
Sender: LSF System <lsfadmin@c21b06>
Subject: Job 7742592: <d.3450.96> in cluster <umghpcc> Done

Job <d.3450.96> was submitted from host <ghpcc06> by user <yh58b> in cluster <umghpcc> at Mon Jul 15 13:32:30 2019.
Job was executed on host(s) <c21b06>, in queue <short>, as user <yh58b> in cluster <umghpcc> at Mon Jul 15 20:11:44 2019.
</home/yh58b> was used as the home directory.
</home/yh58b/RMT/3450.doubly> was used as the working directory.
Started at Mon Jul 15 20:11:44 2019.
Terminated at Mon Jul 15 20:57:15 2019.
Results reported at Mon Jul 15 20:57:15 2019.

Your job looked like:

------------------------------------------------------------
# LSBATCH: User input
./eigen.exec 3450.pf 3450.96.eigen
------------------------------------------------------------

Successfully completed.

Resource usage summary:

    CPU time :                                   2730.19 sec.
    Max Memory :                                 103 MB
    Average Memory :                             103.00 MB
    Total Requested Memory :                     512.00 MB
    Delta Memory :                               409.00 MB
    Max Swap :                                   -
    Max Processes :                              3
    Max Threads :                                4
    Run time :                                   2731 sec.
    Turnaround time :                            26685 sec.

The output (if any) is above this job summary.



PS:

Read file <3450.96.error> for stderr output of this job.

