Actually entered program!
Running with size: 3450, Trials: 5, OutputFile: 3450.43.eigen, Appending?: 0

------------------------------------------------------------
Sender: LSF System <lsfadmin@c19b06>
Subject: Job 7742539: <d.3450.43> in cluster <umghpcc> Done

Job <d.3450.43> was submitted from host <ghpcc06> by user <yh58b> in cluster <umghpcc> at Mon Jul 15 13:32:27 2019.
Job was executed on host(s) <c19b06>, in queue <short>, as user <yh58b> in cluster <umghpcc> at Mon Jul 15 20:08:47 2019.
</home/yh58b> was used as the home directory.
</home/yh58b/RMT/3450.doubly> was used as the working directory.
Started at Mon Jul 15 20:08:47 2019.
Terminated at Mon Jul 15 20:53:31 2019.
Results reported at Mon Jul 15 20:53:31 2019.

Your job looked like:

------------------------------------------------------------
# LSBATCH: User input
./eigen.exec 3450.pf 3450.43.eigen
------------------------------------------------------------

Successfully completed.

Resource usage summary:

    CPU time :                                   2683.02 sec.
    Max Memory :                                 103 MB
    Average Memory :                             103.00 MB
    Total Requested Memory :                     512.00 MB
    Delta Memory :                               409.00 MB
    Max Swap :                                   -
    Max Processes :                              3
    Max Threads :                                4
    Run time :                                   2684 sec.
    Turnaround time :                            26464 sec.

The output (if any) is above this job summary.



PS:

Read file <3450.43.error> for stderr output of this job.

