Actually entered program!
Running with size: 4150, Trials: 4, OutputFile: 4150.21.eigen, Appending?: 0

------------------------------------------------------------
Sender: LSF System <lsfadmin@c07b05>
Subject: Job 7738903: <s.4150.21> in cluster <umghpcc> Done

Job <s.4150.21> was submitted from host <ghpcc06> by user <yh58b> in cluster <umghpcc> at Mon Jul 15 13:27:55 2019.
Job was executed on host(s) <c07b05>, in queue <short>, as user <yh58b> in cluster <umghpcc> at Mon Jul 15 15:04:16 2019.
</home/yh58b> was used as the home directory.
</home/yh58b/RMT/4150.singly> was used as the working directory.
Started at Mon Jul 15 15:04:16 2019.
Terminated at Mon Jul 15 15:29:47 2019.
Results reported at Mon Jul 15 15:29:47 2019.

Your job looked like:

------------------------------------------------------------
# LSBATCH: User input
./eigen.exec 4150.pf 4150.21.eigen
------------------------------------------------------------

Successfully completed.

Resource usage summary:

    CPU time :                                   1529.68 sec.
    Max Memory :                                 142 MB
    Average Memory :                             142.00 MB
    Total Requested Memory :                     512.00 MB
    Delta Memory :                               370.00 MB
    Max Swap :                                   -
    Max Processes :                              3
    Max Threads :                                4
    Run time :                                   1531 sec.
    Turnaround time :                            7312 sec.

The output (if any) is above this job summary.



PS:

Read file <4150.21.error> for stderr output of this job.

