Actually entered program!
Running with size: 3800, Trials: 5, OutputFile: 3800.39.eigen, Appending?: 0

------------------------------------------------------------
Sender: LSF System <lsfadmin@c36b12>
Subject: Job 7847328: <s.3800.39> in cluster <umghpcc> Done

Job <s.3800.39> was submitted from host <ghpcc06> by user <yh58b> in cluster <umghpcc> at Tue Jul 16 15:36:59 2019.
Job was executed on host(s) <c36b12>, in queue <long>, as user <yh58b> in cluster <umghpcc> at Wed Jul 17 03:16:09 2019.
</home/yh58b> was used as the home directory.
</home/yh58b/RMT/3800.singly> was used as the working directory.
Started at Wed Jul 17 03:16:09 2019.
Terminated at Wed Jul 17 03:26:44 2019.
Results reported at Wed Jul 17 03:26:44 2019.

Your job looked like:

------------------------------------------------------------
# LSBATCH: User input
./eigen.exec 3800.pf 3800.39.eigen
------------------------------------------------------------

Successfully completed.

Resource usage summary:

    CPU time :                                   632.88 sec.
    Max Memory :                                 121 MB
    Average Memory :                             121.00 MB
    Total Requested Memory :                     256.00 MB
    Delta Memory :                               135.00 MB
    Max Swap :                                   -
    Max Processes :                              3
    Max Threads :                                4
    Run time :                                   634 sec.
    Turnaround time :                            42585 sec.

The output (if any) is above this job summary.



PS:

Read file <3800.39.error> for stderr output of this job.

