Actually entered program!
Running with size: 1400, Trials: 79, OutputFile: 1400.18.eigen, Appending?: 0

------------------------------------------------------------
Sender: LSF System <lsfadmin@c31b06>
Subject: Job 7740763: <d.1400.18> in cluster <umghpcc> Done

Job <d.1400.18> was submitted from host <ghpcc06> by user <yh58b> in cluster <umghpcc> at Mon Jul 15 13:30:16 2019.
Job was executed on host(s) <c31b06>, in queue <short>, as user <yh58b> in cluster <umghpcc> at Mon Jul 15 17:10:12 2019.
</home/yh58b> was used as the home directory.
</home/yh58b/RMT/1400.doubly> was used as the working directory.
Started at Mon Jul 15 17:10:12 2019.
Terminated at Mon Jul 15 17:47:57 2019.
Results reported at Mon Jul 15 17:47:57 2019.

Your job looked like:

------------------------------------------------------------
# LSBATCH: User input
./eigen.exec 1400.pf 1400.18.eigen
------------------------------------------------------------

Successfully completed.

Resource usage summary:

    CPU time :                                   2263.81 sec.
    Max Memory :                                 26 MB
    Average Memory :                             25.88 MB
    Total Requested Memory :                     512.00 MB
    Delta Memory :                               486.00 MB
    Max Swap :                                   -
    Max Processes :                              3
    Max Threads :                                4
    Run time :                                   2265 sec.
    Turnaround time :                            15461 sec.

The output (if any) is above this job summary.



PS:

Read file <1400.18.error> for stderr output of this job.

